{"total": 780807, "offset": 450, "next": 500, "data": [{"paperId": "74fb5d83382ba61e5bf25eeba1bdeb52fa90679e", "title": "Genetic evidence for lineage-related and differentiation stage-related contribution of somatic PTPN11 mutations to leukemogenesis in childhood acute leukemia.", "authors": [{"authorId": "144912867", "name": "M. Tartaglia"}, {"authorId": "2830212", "name": "S. Martinelli"}, {"authorId": "144129657", "name": "G. Cazzaniga"}, {"authorId": "6726894", "name": "V. Cordeddu"}, {"authorId": "3937287", "name": "I. Iavarone"}, {"authorId": "35342445", "name": "M. Spinelli"}, {"authorId": "5427993", "name": "C. Palmi"}, {"authorId": "38987662", "name": "C. Carta"}, {"authorId": "6689157", "name": "A. Pession"}, {"authorId": "47289225", "name": "M. Aric\u00f2"}, {"authorId": "7561363", "name": "G. Masera"}, {"authorId": "144554921", "name": "G. Basso"}, {"authorId": "7154373", "name": "M. Sorcini"}, {"authorId": "5215835", "name": "B. Gelb"}, {"authorId": "146024591", "name": "A. Biondi"}]}, {"paperId": "939ee9d4f9b20c71934dae7746c97b4a02f5ca88", "title": "Global approach to the diagnosis of leukemia using gene expression profiling.", "authors": [{"authorId": "2905029", "name": "T. Haferlach"}, {"authorId": "2473934", "name": "A. Kohlmann"}, {"authorId": "2701920", "name": "S. Schnittger"}, {"authorId": "145648033", "name": "M. Dugas"}, {"authorId": "145630229", "name": "W. Hiddemann"}, {"authorId": "145091281", "name": "W. Kern"}, {"authorId": "145934200", "name": "C. Schoch"}]}, {"paperId": "3407d4b147e0a44757d319cd8f6c2d419c82d880", "title": "Elimination of human leukemia cells in NOD/SCID mice by WT1-TCR gene-transduced human T cells.", "authors": [{"authorId": "48609659", "name": "S. Xue"}, {"authorId": "46694116", "name": "Liquan Gao"}, {"authorId": "5029602", "name": "D. Hart"}, {"authorId": "4379928", "name": "R. Gillmore"}, {"authorId": "6110699", "name": "W. Qasim"}, {"authorId": "2602450", "name": "A. Thrasher"}, {"authorId": "5629056", "name": "J. Apperley"}, {"authorId": "3781155", "name": "B. Engels"}, {"authorId": "3590951", "name": "W. Uckert"}, {"authorId": "143658736", "name": "E. Morris"}, {"authorId": "39077695", "name": "H. Stauss"}]}, {"paperId": "d82b97f96fca910b6a881bac4edaf03e91eb2f6c", "title": "Internal tandem duplication of FLT3 associated with leukocytosis in acute promyelocytic leukemia", "authors": [{"authorId": "5392273", "name": "H. Kiyoi"}, {"authorId": "4143060", "name": "T. Naoe"}, {"authorId": "49904956", "name": "S. Yokota"}, {"authorId": "47086244", "name": "M. Nakao"}, {"authorId": "1764092", "name": "S. Minami"}, {"authorId": "47326074", "name": "K. Kuriyama"}, {"authorId": "47347196", "name": "A. Takeshita"}, {"authorId": "2107461411", "name": "K. Saito"}, {"authorId": "2061606538", "name": "S. Hasegawa"}, {"authorId": "47629820", "name": "S. Shimodaira"}, {"authorId": "48994985", "name": "J. Tamura"}, {"authorId": "6732216", "name": "C. Shimazaki"}, {"authorId": "4626217", "name": "K. Matsue"}, {"authorId": "2107284147", "name": "H. Kobayashi"}, {"authorId": "153152956", "name": "N. Arima"}, {"authorId": "33808119", "name": "R. Suzuki"}, {"authorId": "2085262569", "name": "H. Morishita"}, {"authorId": "48382374", "name": "H. Saito"}, {"authorId": "7681625", "name": "R. Ueda"}, {"authorId": "3182215", "name": "R. Ohno"}]}, {"paperId": "d577f656be9a1aa6d951dfd8cb02867d7194f4a8", "title": "MicroRNA profiling reveals distinct signatures in B cell chronic lymphocytic leukemias.", "authors": [{"authorId": "2124909", "name": "G. Calin"}, {"authorId": "16073087", "name": "Chang-gong Liu"}, {"authorId": "6736759", "name": "C. Sevignani"}, {"authorId": "4982531", "name": "M. Ferracin"}, {"authorId": "2034135", "name": "N. Felli"}, {"authorId": "3339336", "name": "C. Dumitru"}, {"authorId": "1803707", "name": "M. Shimizu"}, {"authorId": "4749009", "name": "A. Cimmino"}, {"authorId": "4323365", "name": "S. Zupo"}, {"authorId": "6269652", "name": "M. Dono"}, {"authorId": "1401570872", "name": "M. Dell'aquila"}, {"authorId": "145445510", "name": "H. Alder"}, {"authorId": "1871002", "name": "L. Rassenti"}, {"authorId": "2596557", "name": "T. Kipps"}, {"authorId": "5322065", "name": "F. Bullrich"}, {"authorId": "50381334", "name": "M. Negrini"}, {"authorId": "144749275", "name": "C. Croce"}]}, {"paperId": "20bd0226e21edae1eb089445acb5ac735f06f562", "title": "Acute promyelocytic leukemia.", "authors": [{"authorId": "2062340569", "name": "E. Besa"}]}, {"paperId": "0f915903f6462ae98a94453a13b46b43762c7718", "title": "Risk of leukemia after chemotherapy and radiation treatment for breast cancer.", "authors": [{"authorId": "144639710", "name": "R. Curtis"}, {"authorId": "50405665", "name": "J. Boice"}, {"authorId": "4513830", "name": "M. Stovall"}, {"authorId": "145024832", "name": "L. Bernstein"}, {"authorId": "5762447", "name": "R. Greenberg"}, {"authorId": "3137013", "name": "J. Flannery"}, {"authorId": "2149607646", "name": "A. Schwartz"}, {"authorId": "5632688", "name": "P. Weyer"}, {"authorId": "1417437718", "name": "W. Moloney"}, {"authorId": "1928980", "name": "R. Hoover"}]}, {"paperId": "465e3511a26772873dc7766e18ea907c22cb648e", "title": "Notch and Wnt signaling in T-lymphocyte development and acute lymphoblastic leukemia", "authors": [{"authorId": "6977568", "name": "F. Weerkamp"}, {"authorId": "1922049", "name": "J. Dongen"}, {"authorId": "144191790", "name": "F. Staal"}]}, {"paperId": "1068e305facaf5f50ff26a1698370c7b70dddcca", "title": "Extramedullary sites of leukemia relapse after transplant", "authors": [{"authorId": "145425228", "name": "I. Cunningham"}]}, {"paperId": "6c5b591ea40f4fbc9954aec0bd94f5a59e5bb43b", "title": "Activating mutations in NOTCH1 in acute myeloid leukemia and lineage switch leukemias", "authors": [{"authorId": "143959911", "name": "T. Palomero"}, {"authorId": "48001029", "name": "K. Mckenna"}, {"authorId": "1404103535", "name": "J. O'neil"}, {"authorId": "4047718", "name": "I. Galinsky"}, {"authorId": "2337612", "name": "R. Stone"}, {"authorId": "2543459", "name": "K. Suzukawa"}, {"authorId": "153887915", "name": "E. Stiakaki"}, {"authorId": "4896557", "name": "M. Kalmanti"}, {"authorId": "48913578", "name": "E. Fox"}, {"authorId": "115949029", "name": "M. Caligiuri"}, {"authorId": "4788009", "name": "J. Aster"}, {"authorId": "145348521", "name": "A. Look"}, {"authorId": "3249653", "name": "A. Ferrando"}]}, {"paperId": "8d266a275202599ea76ff17371819ff34be1a1db", "title": "Secondary acute myeloid leukemia in children treated for acute lymphoid leukemia.", "authors": [{"authorId": "143836865", "name": "C. Pui"}, {"authorId": "4101875", "name": "F. Behm"}, {"authorId": "3080705", "name": "S. Raimondi"}, {"authorId": "4331772", "name": "R. Dodge"}, {"authorId": "5131428", "name": "S. George"}, {"authorId": "144898982", "name": "G. Rivera"}, {"authorId": "143726471", "name": "J. Mirro"}, {"authorId": "4720803", "name": "D. Kalwinsky"}, {"authorId": "143773909", "name": "G. Dahl"}, {"authorId": "1855122", "name": "S. Murphy"}]}, {"paperId": "7495e1c61f303706bafc5c9a2c95c8da9795cdf1", "title": "Leukemia following Hodgkin's disease.", "authors": [{"authorId": "153786076", "name": "J. Kaldor"}, {"authorId": "83606089", "name": "N. Day"}, {"authorId": "1953663189", "name": "E. Clarke"}, {"authorId": "2979096", "name": "F. V. van Leeuwen"}, {"authorId": "1420686988", "name": "M. Henry-Amar"}, {"authorId": "32349059", "name": "M. Fiorentino"}, {"authorId": "48648213", "name": "J. Bell"}, {"authorId": "32217349", "name": "D. Pedersen"}, {"authorId": "144695968", "name": "P. Band"}, {"authorId": "6403180", "name": "D. Assouline"}]}, {"paperId": "851023984caeded200ec5eb14d0bbefc8eaf01de", "title": "Deletion of IRF-1, mapping to chromosome 5q31.1, in human leukemia and preleukemic myelodysplasia", "authors": [{"authorId": "121929083", "name": "C. Willman"}, {"authorId": "1436397398", "name": "Ce Sever"}, {"authorId": "119602205", "name": "M. Pallavicini"}, {"authorId": "2307247", "name": "H. Harada"}, {"authorId": "145608246", "name": "N. Tanaka"}, {"authorId": "145457676", "name": "M. Slovak"}, {"authorId": "2107405084", "name": "H. Yamamoto"}, {"authorId": "2072832177", "name": "K. Harada"}, {"authorId": "3717765", "name": "T. Meeker"}, {"authorId": "153733552", "name": "A. List"}, {"authorId": "146061483", "name": "al. et"}]}, {"paperId": "37eb8ed5f420b6fe7e5c06bd9fca702a8c337d45", "title": "Attitude towards remission induction for elderly patients with acute myeloid leukemia influences survival", "authors": [{"authorId": "2329475", "name": "G. Juliusson"}, {"authorId": "5285209", "name": "R. Billstr\u00f6m"}, {"authorId": "48354919", "name": "A. Gruber"}, {"authorId": "1395887851", "name": "E. Hellstr\u00f6m-Lindberg"}, {"authorId": "2464920", "name": "M. H\u00f6glund"}, {"authorId": "40171328", "name": "K. Karlsson"}, {"authorId": "3802500", "name": "D. Stockelberg"}, {"authorId": "3619079", "name": "A. W\u00e5hlin"}, {"authorId": "6838636", "name": "M. \u00c5str\u00f6m"}, {"authorId": "2080701073", "name": "C. Arnesson"}, {"authorId": "1429498616", "name": "U. Brunell-Abrahamsson"}, {"authorId": "3248854", "name": "J. Carstensen"}, {"authorId": "2074205829", "name": "E. Fredriksson"}, {"authorId": "145610300", "name": "E. Holmberg"}, {"authorId": "10669234", "name": "K. Nordenskj\u00f6ld"}, {"authorId": "144842570", "name": "F. Wiklund"}]}, {"paperId": "e0229d8c5759394cba16a7e9e2abe3706213474c", "title": "Meis1, a PBX1-related homeobox gene involved in myeloid leukemia in BXH-2 mice", "authors": [{"authorId": "6636251", "name": "J. Moskow"}, {"authorId": "5322065", "name": "F. Bullrich"}, {"authorId": "144842807", "name": "K. Huebner"}, {"authorId": "5639286", "name": "I. Daar"}, {"authorId": "5557454", "name": "A. Buchberg"}]}, {"paperId": "e31a7751ada49a7bd3d653dc6b5c8654a2a82ba4", "title": "GATA1 mutations in transient leukemia and acute megakaryoblastic leukemia of Down syndrome.", "authors": [{"authorId": "144012063", "name": "J. Hitzler"}, {"authorId": "21424023", "name": "J. Cheung"}, {"authorId": "2144462361", "name": "Yue Li"}, {"authorId": "1818316", "name": "S. Scherer"}, {"authorId": "4463186", "name": "A. Zipursky"}]}, {"paperId": "fd2620308772daefd296dd1457f7a242fb1782f0", "title": "Targeting of CD44 eradicates human acute myeloid leukemic stem cells", "authors": [{"authorId": "7472536", "name": "Liqing Jin"}, {"authorId": "36793198", "name": "Kristin J. Hope"}, {"authorId": "67066070", "name": "Q. Zhai"}, {"authorId": "1401598462", "name": "F. Smadja-joffe"}, {"authorId": "3053653", "name": "J. Dick"}]}, {"paperId": "013296d17cbfa9370ccfa5999178726c7ee3bbcd", "title": "Induction of differentiation of human acute myelogenous leukemia cells: therapeutic implications", "authors": [{"authorId": "144423605", "name": "H. Koeffler"}]}, {"paperId": "0fb6e9308c4632f908f70723bde49096146e495a", "title": "Association of an inversion of chromosome 16 with abnormal marrow eosinophils in acute myelomonocytic leukemia. A unique cytogenetic-clinicopathological association.", "authors": [{"authorId": "3911094", "name": "M. L. Le Beau"}, {"authorId": "81243702", "name": "R. Larson"}, {"authorId": "12295733", "name": "M. Bitter"}, {"authorId": "39514906", "name": "J. Vardiman"}, {"authorId": "7471564", "name": "H. Golomb"}, {"authorId": "81198053", "name": "J. Rowley"}]}, {"paperId": "514e9cf576e540a9b929b5bc7b7d958458fd9b32", "title": "FLT3 mutations in acute myeloid leukemia cell lines", "authors": [{"authorId": "7009289", "name": "H. Quentmeier"}, {"authorId": "48671956", "name": "J. Reinhardt"}, {"authorId": "5716937", "name": "M. Zaborski"}, {"authorId": "35985204", "name": "H. Drexler"}]}, {"paperId": "b1903e5c8a9660dbfe21366c889ea11d29a94778", "title": "A serum antigen (Australia antigen) in Down's syndrome, leukemia, and hepatitis.", "authors": [{"authorId": "145214599", "name": "B. Blumberg"}, {"authorId": "13847090", "name": "B. J. Gerstley"}, {"authorId": "35365786", "name": "D. Hungerford"}, {"authorId": "3705718", "name": "W. London"}, {"authorId": "13246617", "name": "A. Sutnick"}]}, {"paperId": "c5678a15109223e7f21d2c9ad09fdd450efbbbf3", "title": "Development of leukemia in mice transgenic for the tax gene of human T-cell leukemia virus type I.", "authors": [{"authorId": "40517364", "name": "W. Grossman"}, {"authorId": "4231212", "name": "J. Kimata"}, {"authorId": "48306713", "name": "F. Wong"}, {"authorId": "95379299", "name": "M. Zutter"}, {"authorId": "35105723", "name": "T. Ley"}, {"authorId": "49629041", "name": "L. Ratner"}]}, {"paperId": "13cc8dca8de6c514669eb034c4d491ced4e29bc8", "title": "Intensive high-dose asparaginase consolidation improves survival for pediatric patients with T cell acute lymphoblastic leukemia and advanced stage lymphoblastic lymphoma: a Pediatric Oncology Group study", "authors": [{"authorId": "7869307", "name": "M. Amylon"}, {"authorId": "145589848", "name": "J. Shuster"}, {"authorId": "145522247", "name": "J. Pullen"}, {"authorId": "144039090", "name": "C. Berard"}, {"authorId": "121529481", "name": "M. Link"}, {"authorId": "4116307", "name": "M. Wharam"}, {"authorId": "47266433", "name": "J. Katz"}, {"authorId": "46857198", "name": "A. Yu"}, {"authorId": "121872455", "name": "J. Laver"}, {"authorId": "8309932", "name": "Y. Ravindranath"}, {"authorId": "2290105", "name": "J. Kurtzberg"}, {"authorId": "145371588", "name": "S. Desai"}, {"authorId": "123598333", "name": "B. Camitta"}, {"authorId": "152997288", "name": "S. Murphy"}]}, {"paperId": "f4fdc57364f8efc4dd96a5099896689f34eee73e", "title": "Clinical Features of Polycythemia Vera and Essential Thrombocythemia in Japan: Retrospective Analysis of a Nationwide Survey by the Japanese Elderly Leukemia and Lymphoma Study Group", "authors": [{"authorId": "5090591", "name": "K. Dan"}, {"authorId": "2109530528", "name": "Takashi Yamada"}, {"authorId": "47746399", "name": "Y. Kimura"}, {"authorId": "35144907", "name": "N. Usui"}, {"authorId": "145351485", "name": "S. Okamoto"}, {"authorId": "48906791", "name": "T. Sugihara"}, {"authorId": "49864283", "name": "K. Takai"}, {"authorId": "1869847", "name": "M. Masuda"}, {"authorId": "153532144", "name": "M. Mori"}, {"authorId": "147075048", "name": "Japanese Elderly Leukemia and Lymphoma Study Group"}]}, {"paperId": "ed2b030644801c8dc94f062a46ab7a317d25d2e6", "title": "Human acute myeloid leukemia CD34+/CD38- progenitor cells have decreased sensitivity to chemotherapy and Fas-induced apoptosis, reduced immunogenicity, and impaired dendritic cell transformation capacities.", "authors": [{"authorId": "122483056", "name": "R. Costello"}, {"authorId": "7432304", "name": "F. Mallet"}, {"authorId": "5657709", "name": "B. Gaugler"}, {"authorId": "4599547", "name": "D. Sainty"}, {"authorId": "4071897", "name": "C. Arnoulet"}, {"authorId": "4444433", "name": "J. Gastaut"}, {"authorId": "145200172", "name": "D. Olive"}]}, {"paperId": "c45a0ef6c39355b1e25e71fd90006a8787eb0a00", "title": "In utero origin of t(8;21) AML1-ETO translocations in childhood acute myeloid leukemia.", "authors": [{"authorId": "2556688", "name": "J. Wiemels"}, {"authorId": "144942041", "name": "Zhijian Xiao"}, {"authorId": "4400763", "name": "P. Buffler"}, {"authorId": "39660589", "name": "Ana-Teresa Maia"}, {"authorId": "35181056", "name": "Xiaomei Ma"}, {"authorId": "4011113", "name": "B. Dicks"}, {"authorId": "1410180076", "name": "Martyn T. Smith"}, {"authorId": "36466899", "name": "Luoping Zhang"}, {"authorId": "3081399", "name": "J. Feusner"}, {"authorId": "2704556", "name": "J. Wiencke"}, {"authorId": "1404865296", "name": "K. Pritchard-Jones"}, {"authorId": "144965659", "name": "H. Kempski"}, {"authorId": "33807869", "name": "M. Greaves"}]}, {"paperId": "5ec7a3b5db0172a021784974114a50662c81093f", "title": "Chronic Myelogenous Leukemia: Biology and Therapy", "authors": [{"authorId": "49563207", "name": "S. Faderl"}, {"authorId": "5321920", "name": "M. Talpaz"}, {"authorId": "4976314", "name": "Z. Estrov"}, {"authorId": "2056001110", "name": "H. Kantarjian"}]}, {"paperId": "918c641c363dbde78a7038ca5dea5bb2516e3bd6", "title": "Expression of DNA methyltransferases DNMT1, 3A, and 3B in normal hematopoiesis and in acute and chronic myelogenous leukemia.", "authors": [{"authorId": "50782668", "name": "S. Mizuno"}, {"authorId": "4382021", "name": "T. Chijiwa"}, {"authorId": "50084714", "name": "T. Okamura"}, {"authorId": "3149502", "name": "K. Akashi"}, {"authorId": "6193051", "name": "Y. Fukumaki"}, {"authorId": "3070986", "name": "Y. Niho"}, {"authorId": "2072856651", "name": "H. Sasaki"}]}, {"paperId": "a6bae0fbacbc74f77155a30d94678344202eb98b", "title": "Fetal origins of the TEL-AML1 fusion gene in identical twins with leukemia.", "authors": [{"authorId": "1839338", "name": "A. Ford"}, {"authorId": "89994481", "name": "C. Bennett"}, {"authorId": "2054970179", "name": "C. Price"}, {"authorId": "3362697", "name": "M. Bruin"}, {"authorId": "115638782", "name": "E. V. van Wering"}, {"authorId": "33807869", "name": "M. Greaves"}]}, {"paperId": "994f840cf2d29fe0960b643429164dd6db591ab1", "title": "Risk of leukemia after platinum-based chemotherapy for ovarian cancer.", "authors": [{"authorId": "7278131", "name": "L. Travis"}, {"authorId": "3598613", "name": "E. Holowaty"}, {"authorId": "8595196", "name": "K. Bergfeldt"}, {"authorId": "2142325", "name": "C. Lynch"}, {"authorId": "34297731", "name": "B. Kohler"}, {"authorId": "5425421", "name": "T. Wiklund"}, {"authorId": "144639710", "name": "R. Curtis"}, {"authorId": "144549954", "name": "P. Hall"}, {"authorId": "145441357", "name": "M. Andersson"}, {"authorId": "4310010", "name": "E. Pukkala"}, {"authorId": "4335207", "name": "J. Sturgeon"}, {"authorId": "4513830", "name": "M. Stovall"}]}, {"paperId": "47343495a043002ea1571a0bbe12b4522d65b0e1", "title": "The t(8;21) fusion protein, AML1\u2013ETO, specifically represses the transcription of the p14ARF tumor suppressor in acute myeloid leukemia", "authors": [{"authorId": "2070397", "name": "B. Linggi"}, {"authorId": "1397412040", "name": "C. M\u00fcller-Tidow"}, {"authorId": "50330561", "name": "Louis van de Locht"}, {"authorId": "123462706", "name": "M. Hu"}, {"authorId": "8958763", "name": "J. Nip"}, {"authorId": "2557246", "name": "H. Serve"}, {"authorId": "5482041", "name": "W. Berdel"}, {"authorId": "48109520", "name": "B. V. D. Reijden"}, {"authorId": "4145628", "name": "D. Quelle"}, {"authorId": "39226319", "name": "J. Rowley"}, {"authorId": "2276528", "name": "J. Cleveland"}, {"authorId": "144373879", "name": "J. Jansen"}, {"authorId": "4499580", "name": "P. Pandolfi"}, {"authorId": "4307562", "name": "S. Hiebert"}]}, {"paperId": "9773ae3607c0016935e0d760096e9de6ff87347a", "title": "Distinctive demography, biology, and outcome of acute myeloid leukemia and myelodysplastic syndrome in children with Down syndrome: Children's Cancer Group Studies 2861 and 2891.", "authors": [{"authorId": "4862464", "name": "B. Lange"}, {"authorId": "8344338", "name": "N. Kobrinsky"}, {"authorId": "38597017", "name": "D. Barnard"}, {"authorId": "1680350", "name": "D. Arthur"}, {"authorId": "31800086", "name": "J. Buckley"}, {"authorId": "1737787253", "name": "W. Howells"}, {"authorId": "27237898", "name": "S. Gold"}, {"authorId": "3159877", "name": "J. Sanders"}, {"authorId": "40367975", "name": "S. Neudorf"}, {"authorId": "3003637", "name": "F. Smith"}, {"authorId": "145331322", "name": "W. Woods"}]}, {"paperId": "afb330ce4bec3f59bc4a1eff540641e36a2fad47", "title": "Constitutive activation of STAT proteins in primary lymphoid and myeloid leukemia cells and in Epstein-Barr virus (EBV)-related lymphoma cell lines.", "authors": [{"authorId": "1400848680", "name": "R. Weber-Nordt"}, {"authorId": "47884764", "name": "C. Egen"}, {"authorId": "49932973", "name": "J. Wehinger"}, {"authorId": "35012284", "name": "W. Ludwig"}, {"authorId": "1398265665", "name": "V. Gouilleux-Gruart"}, {"authorId": "47222677", "name": "R. Mertelsmann"}, {"authorId": "145790086", "name": "J. Finke"}]}, {"paperId": "496623919bb8580e5b3a43ca7e07da924c64e92c", "title": "Fusion of two novel genes, RBM15 and MKL1, in the t(1;22)(p13;q13) of acute megakaryoblastic leukemia", "authors": [{"authorId": "5129116", "name": "Zhigui Ma"}, {"authorId": "38406583", "name": "S. Morris"}, {"authorId": "37864691", "name": "V. Valentine"}, {"authorId": "2136672530", "name": "Martin L"}, {"authorId": "47570756", "name": "J. Herbrick"}, {"authorId": "34962060", "name": "X. Cui"}, {"authorId": "3341381", "name": "D. Bouman"}, {"authorId": "2144463717", "name": "Yue Li"}, {"authorId": "2054502916", "name": "Perdeep K. Mehta"}, {"authorId": "50110682", "name": "D. Ni\u017eeti\u0107"}, {"authorId": "1863708", "name": "Y. Kaneko"}, {"authorId": "2061479269", "name": "Godfrey C F Chan"}, {"authorId": "81754203", "name": "L. Chan"}, {"authorId": "2804711", "name": "J. Squire"}, {"authorId": "1818316", "name": "S. Scherer"}, {"authorId": "144012063", "name": "J. Hitzler"}]}, {"paperId": "38bd6211e598a6c060f853bba8b5a2da157d799f", "title": "Female donors contribute to a selective graft-versus-leukemia effect in male recipients of HLA-matched, related hematopoietic stem cell transplants.", "authors": [{"authorId": "4388861", "name": "S. Randolph"}, {"authorId": "144488214", "name": "T. Gooley"}, {"authorId": "5061451", "name": "E. Warren"}, {"authorId": "6980776", "name": "F. Appelbaum"}, {"authorId": "3907851", "name": "S. Riddell"}]}, {"paperId": "8a3cdce36ef3e90d54420654bed690ac37f590c0", "title": "Bone marrow transplantation for leukemia following a new busulfan and cyclophosphamide regimen", "authors": [{"authorId": "83732546", "name": "Tutschka Pj"}, {"authorId": "4662384", "name": "E. Copelan"}, {"authorId": "4033024", "name": "J. Klein"}]}, {"paperId": "480f5a1b17c8245c21ad6380bb672f16753c27d1", "title": "Acute myelogenous leukemia: a human cell line responsive to colony-stimulating activity.", "authors": [{"authorId": "144423605", "name": "H. Koeffler"}, {"authorId": "32461937", "name": "D. Golde"}]}, {"paperId": "0b32b7c14b18336820188db3572b0adee4d0f9ce", "title": "ZAP-70 expression is a prognostic factor in chronic lymphocytic leukemia", "authors": [{"authorId": "1846460", "name": "J. D\u00fcrig"}, {"authorId": "2367518", "name": "H. Nu\u0308ckel"}, {"authorId": "47559638", "name": "M. Cremer"}, {"authorId": "46363770", "name": "A. Fu\u0308hrer"}, {"authorId": "8970390", "name": "K. Halfmeyer"}, {"authorId": "6837326", "name": "J. Fandrey"}, {"authorId": "3476066", "name": "T. M\u00f6r\u00f6y"}, {"authorId": "1390080992", "name": "L. Klein-Hitpass"}, {"authorId": "4450097", "name": "U. D\u00fchrsen"}]}, {"paperId": "152a5b7357a59ae8101f45300e20e811e8f7f661", "title": "Transcription factor NF-\u03baB is constitutively activated in acute lymphoblastic leukemia cells", "authors": [{"authorId": "4264678", "name": "U. Kordes"}, {"authorId": "4647386", "name": "D. Krappmann"}, {"authorId": "38050657", "name": "V. Heissmeyer"}, {"authorId": "35012284", "name": "W. Ludwig"}, {"authorId": "6018193", "name": "C. Scheidereit"}]}, {"paperId": "c3ec1cdc5e8fc6d49fe2c3ccfb57cbcb48f6073f", "title": "Constitutive phosphorylation of Akt/PKB protein in acute myeloid leukemia: its significance as a prognostic variable", "authors": [{"authorId": "6999138", "name": "Y. Min"}, {"authorId": "10069685", "name": "J. Eom"}, {"authorId": "3242295", "name": "J. Cheong"}, {"authorId": "152446301", "name": "H O Maeng"}, {"authorId": "35288794", "name": "J. Kim"}, {"authorId": "144270801", "name": "H. Jeung"}, {"authorId": "48601811", "name": "S. Lee"}, {"authorId": "2846505", "name": "M. Lee"}, {"authorId": "31972517", "name": "J. Hahn"}, {"authorId": "10180779", "name": "Y. Ko"}]}, {"paperId": "21916958f1004f1fde2d6b59f4a1ba99865c5099", "title": "Indirubin and Meisoindigo in the Treatment of Chronic Myelogenous Leukemia in China", "authors": [{"authorId": "144942041", "name": "Zhijian Xiao"}, {"authorId": "11867893", "name": "Y. Hao"}, {"authorId": "12762587", "name": "Bing-cheng Liu"}, {"authorId": "15800299", "name": "L. Qian"}]}, {"paperId": "f7ac1283462fbe222c2591847a6a81cb3feac495", "title": "Treatment of adult T-cell leukemia-lymphoma with a combination of interferon alfa and zidovudine.", "authors": [{"authorId": "143641096", "name": "P. Gill"}, {"authorId": "143972007", "name": "W. Harrington"}, {"authorId": "145975641", "name": "M. Kaplan"}, {"authorId": "38539403", "name": "R. Ribeiro"}, {"authorId": "143732087", "name": "J. Bennett"}, {"authorId": "4044849", "name": "H. Liebman"}, {"authorId": "1418902124", "name": "M. Bernstein\u2010Singer"}, {"authorId": "7423443", "name": "B. Espina"}, {"authorId": "2105824171", "name": "L. Cabral"}, {"authorId": "2047244670", "name": "S. Allen"}]}, {"paperId": "f8bce20e5acda930f85d00b3d76a1bae75dabc24", "title": "Trends in leukemia incidence and survival in the United States (1973\u20131998)", "authors": [{"authorId": "2110337784", "name": "Yang Xie"}, {"authorId": "2069454826", "name": "S. Davies"}, {"authorId": "145680154", "name": "Y. Xiang"}, {"authorId": "145267672", "name": "L. Robison"}, {"authorId": "144858609", "name": "J. Ross"}]}, {"paperId": "5e280816a3acf937358031e48701b18f0e1724ad", "title": "Targeting the BCR-ABL tyrosine kinase in chronic myeloid leukemia.", "authors": [{"authorId": "81207706", "name": "J. Goldman"}, {"authorId": "5109312", "name": "J. Melo"}]}, {"paperId": "55433abbe8a0a59e160cbe047a01e274182e2a19", "title": "Molecular remission of infant B-ALL after infusion of universal TALEN gene-edited CAR T cells", "authors": [{"authorId": "6110699", "name": "W. Qasim"}, {"authorId": "2105587145", "name": "H. Zhan"}, {"authorId": "145910492", "name": "S. Samarasinghe"}, {"authorId": "144665163", "name": "S. Adams"}, {"authorId": "5767898", "name": "P. Amrolia"}, {"authorId": "2105799737", "name": "S. Stafford"}, {"authorId": "48557882", "name": "K. Butler"}, {"authorId": "33080331", "name": "C. Rivat"}, {"authorId": "2150281069", "name": "G. Wright"}, {"authorId": "9955927", "name": "K. Somana"}, {"authorId": "6612308", "name": "S. Ghorashian"}, {"authorId": "11654538", "name": "Danielle Pinner"}, {"authorId": "84154036", "name": "G. Ahsan"}, {"authorId": "145514395", "name": "K. Gilmour"}, {"authorId": "48824835", "name": "G. Lucchini"}, {"authorId": "15174368", "name": "S. Inglott"}, {"authorId": "6328584", "name": "W. Mifsud"}, {"authorId": "144226793", "name": "R. Chiesa"}, {"authorId": "3660022", "name": "K. Peggs"}, {"authorId": "40340685", "name": "L. Chan"}, {"authorId": "145087694", "name": "F. Farzaneh"}, {"authorId": "2602450", "name": "A. Thrasher"}, {"authorId": "84040863", "name": "A. Vora"}, {"authorId": "82399169", "name": "M. Pule"}, {"authorId": "51112702", "name": "P. Veys"}]}, {"paperId": "ef137647f2e0268cc93674e1c30a2a52aed458b3", "title": "Abl protein-tyrosine kinase inhibitor STI571 inhibits in vitro signal transduction mediated by c-kit and platelet-derived growth factor receptors.", "authors": [{"authorId": "81900810", "name": "E. Buchdunger"}, {"authorId": "1976916", "name": "C. Cioffi"}, {"authorId": "145182589", "name": "N. Law"}, {"authorId": "6225099", "name": "D. Stover"}, {"authorId": "1401923908", "name": "S. Ohno-Jones"}, {"authorId": "144082761", "name": "B. Druker"}, {"authorId": "2440018", "name": "N. Lydon"}]}, {"paperId": "44b7901866ca405105e8b61b2b942908d613394f", "title": "Arabinosyl cytosine: a useful agent in the treatment of acute leukemia in adults.", "authors": [{"authorId": "2058334285", "name": "R. Ellison"}, {"authorId": "145242779", "name": "J. Holland"}, {"authorId": "144267945", "name": "M. Weil"}, {"authorId": "7276616", "name": "C. Jacquillat"}, {"authorId": "144858466", "name": "M. Boiron"}, {"authorId": "144049439", "name": "J. Bernard"}, {"authorId": "5888037", "name": "A. Sawitsky"}, {"authorId": "2344300", "name": "F. Rosner"}, {"authorId": "14548134", "name": "B. Gussoff"}, {"authorId": "144700336", "name": "R. Silver"}, {"authorId": "3887698", "name": "A. Karanas"}, {"authorId": "5773155", "name": "J. Cuttner"}, {"authorId": "1929367", "name": "C. Spurr"}, {"authorId": "52451758", "name": "D. M. Hayes"}, {"authorId": "2543000", "name": "J. Blom"}, {"authorId": "38480666", "name": "L. Leone"}, {"authorId": "13820444", "name": "F. Haurani"}, {"authorId": "144479576", "name": "R. Kyle"}, {"authorId": "2058858710", "name": "J. Hutchison"}, {"authorId": "16018513", "name": "R. J. Forcier"}, {"authorId": "2107127810", "name": "J. H. Moon"}]}, {"paperId": "b2494578ea851a532eae93622b7f53bcd668951a", "title": "Murine Leukemia Virus: High-Frequency Activation in vitro by 5-Iododeoxyuridine and 5-Bromodeoxyuridine", "authors": [{"authorId": "4531637", "name": "D. Lowy"}, {"authorId": "5631668", "name": "W. Rowe"}, {"authorId": "145343406", "name": "N. Teich"}, {"authorId": "1745592", "name": "J. Hartley"}]}, {"paperId": "8a741fa1bad4c17bcce0ec504f4fa03dc1060fab", "title": "Automatic morphological analysis for acute leukemia identification in peripheral blood microscope images", "authors": [{"authorId": "145709678", "name": "F. Scotti"}]}, {"paperId": "c82348e7d42cff0a59d818a400a0d6580d325db8", "title": "The risk of thrombosis in patients with acute leukemia: occurrence of thrombosis at diagnosis and during treatment", "authors": [{"authorId": "4176491", "name": "V. De Stefano"}, {"authorId": "6984935", "name": "F. Sor\u00e0"}, {"authorId": "144213210", "name": "E. Rossi"}, {"authorId": "6923959", "name": "P. Chiusolo"}, {"authorId": "2572466", "name": "L. Laurenti"}, {"authorId": "5295452", "name": "L. Fianchi"}, {"authorId": "145263295", "name": "G. Zini"}, {"authorId": "34912097", "name": "L. Pagano"}, {"authorId": "4076255", "name": "S. Sica"}, {"authorId": "145066417", "name": "G. Leone"}]}]}
