{"total": 780807, "offset": 900, "next": 950, "data": [{"paperId": "ed0517d3dcfc6b377a7b67851f77ff57dccb63a6", "title": "Hematologic neoplasia in patients treated for Hodgkin's disease.", "authors": [{"authorId": "1420439849", "name": "C. Coleman"}, {"authorId": "144526044", "name": "C. J. Williams"}, {"authorId": "6364923", "name": "A. Flint"}, {"authorId": "4306015", "name": "E. Glatstein"}, {"authorId": "46607075", "name": "S. Rosenberg"}, {"authorId": "2102102", "name": "H. Kaplan"}]}, {"paperId": "fb8d20d05f65d776fbbc823dbeffb8ee758815b9", "title": "Tartrate-resistant acid phosphatase isoenzyme in the reticulum cells of leukemic reticuloendotheliosis.", "authors": [{"authorId": "4929279", "name": "L. Yam"}, {"authorId": "46651221", "name": "C. Li"}, {"authorId": "1818889", "name": "K. Lam"}]}, {"paperId": "3caef530a1826371f93746d38236f8891bc1a212", "title": "Rearrangements of genes for the antigen receptor on T cells as markers of lineage and clonality in human lymphoid neoplasms.", "authors": [{"authorId": "3566159", "name": "T. Waldmann"}, {"authorId": "152534131", "name": "M. Davis"}, {"authorId": "2099513379", "name": "K. F. Bongiovanni"}, {"authorId": "3869477", "name": "S. Korsmeyer"}]}, {"paperId": "146cf9242b7621a428876096eb54e1ba737e0ceb", "title": "Studies of the mortality of A-bomb survivors. 7. Mortality, 1950-1978: Part I. Cancer mortality.", "authors": [{"authorId": "2107736691", "name": "H. Kato"}, {"authorId": "2370556", "name": "W. Schull"}]}, {"paperId": "ac47dd246c02024f00ecab6a035182b23984945c", "title": "The presence of a BCR-ABL mutant allele in CML does not always explain clinical resistance to imatinib", "authors": [{"authorId": "1401076393", "name": "J. Khorashad"}, {"authorId": "144257586", "name": "M. Anand"}, {"authorId": "145532499", "name": "D. Marin"}, {"authorId": "153051530", "name": "S. Saunders"}, {"authorId": "1413014236", "name": "T. Al-Jabary"}, {"authorId": "152928917", "name": "A. Iqbal"}, {"authorId": "15912317", "name": "S. Margerison"}, {"authorId": "5109312", "name": "J. Melo"}, {"authorId": "81207706", "name": "J. Goldman"}, {"authorId": "153768146", "name": "J. Apperley"}, {"authorId": "4836480", "name": "J. Kaeda"}]}, {"paperId": "6b8d47acf1d92277aef4a2ee129a318d27158ee1", "title": "Lymphosarcoma: virus-induced thymic-independent disease in mice.", "authors": [{"authorId": "32319990", "name": "H. Abelson"}, {"authorId": "12980245", "name": "L. Rabstein"}]}, {"paperId": "b686439f1f24fc0ac3799e2428e32eb3b861270b", "title": "Gene silencing of the tyrosine phosphatase SHP1 gene by aberrant methylation in leukemias/lymphomas.", "authors": [{"authorId": "47729111", "name": "T. Oka"}, {"authorId": "3787883", "name": "M. Ouchida"}, {"authorId": "2059593669", "name": "M. Koyama"}, {"authorId": "46732562", "name": "Y. Ogama"}, {"authorId": "48652320", "name": "S. Takada"}, {"authorId": "2070089924", "name": "Yoko Nakatani"}, {"authorId": "2154655", "name": "Takehiro Tanaka"}, {"authorId": "145131531", "name": "T. Yoshino"}, {"authorId": "144232321", "name": "K. Hayashi"}, {"authorId": "47741187", "name": "N. Ohara"}, {"authorId": "46740197", "name": "E. Kondo"}, {"authorId": "2110024763", "name": "Kiyoshi Takahashi"}, {"authorId": "9869812", "name": "J. Tsuchiyama"}, {"authorId": "83419294", "name": "M. Tanimoto"}, {"authorId": "48861197", "name": "K. Shimizu"}, {"authorId": "1859289", "name": "T. Akagi"}]}, {"paperId": "dcd594ce4a609d9fc96d32bac13edd8443c6d574", "title": "A novel treatment strategy targeting polo-like kinase 1 in hematological malignancies", "authors": [{"authorId": "5572764", "name": "T. Ikezoe"}, {"authorId": "152905603", "name": "J. Yang"}, {"authorId": "4576544", "name": "C. Nishioka"}, {"authorId": "2304328", "name": "Y. Takezaki"}, {"authorId": "1979929", "name": "T. Tasaka"}, {"authorId": "7781508", "name": "K. Togitani"}, {"authorId": "144423605", "name": "H. Koeffler"}, {"authorId": "28054073", "name": "A. Yokoyama"}]}, {"paperId": "74ba19659826a4a33313af0a0950c6fd31d36d4b", "title": "Expression of the FMS/KIT-like gene FLT3 in human acute leukemias of the myeloid and lymphoid lineages.", "authors": [{"authorId": "5807724", "name": "F. Birg"}, {"authorId": "3843995", "name": "M. Courcoul"}, {"authorId": "6982828", "name": "O. Rosnet"}, {"authorId": "4810377", "name": "F. Bardin"}, {"authorId": "4609450", "name": "M. P\u00e9busque"}, {"authorId": "4649073", "name": "S. Marchetto"}, {"authorId": "5887093", "name": "A. Tabilio"}, {"authorId": "5863826", "name": "P. Mannoni"}, {"authorId": "46771885", "name": "D. Birnbaum"}]}, {"paperId": "746d245a249f7054447f1f3993e80221fa13ab3e", "title": "Phase I clinical and pharmacology study of clofarabine in patients with solid and hematologic cancers.", "authors": [{"authorId": "49096572", "name": "H. Kantarjian"}, {"authorId": "2396197", "name": "V. Gandhi"}, {"authorId": "5188498", "name": "P. Kozuch"}, {"authorId": "6348979", "name": "S. Faderl"}, {"authorId": "144892046", "name": "F. Giles"}, {"authorId": "145576405", "name": "J. Cortes"}, {"authorId": "144980953", "name": "S. O'brien"}, {"authorId": "35218158", "name": "N. Ibrahim"}, {"authorId": "5531063", "name": "F. Khuri"}, {"authorId": "49082684", "name": "M. Du"}, {"authorId": "6160929", "name": "M. Rios"}, {"authorId": "2091959178", "name": "S. Jeha"}, {"authorId": "46466673", "name": "P. Mclaughlin"}, {"authorId": "2702839", "name": "W. Plunkett"}, {"authorId": "2091897", "name": "M. Keating"}]}, {"paperId": "5922f5f16f7f27cd96fce0ead92ac957e4ccca10", "title": "Molecular genetics of human leukemias: new insights into therapy.", "authors": [{"authorId": "2246160", "name": "D. Gilliland"}]}, {"paperId": "295da3717250ccbce1abb569e6bb29294250e5c6", "title": "Multidrug resistance (mdr1) gene expression in adult acute leukemias: correlations with treatment outcome and in vitro drug sensitivity", "authors": [{"authorId": "50526323", "name": "J. Marie"}, {"authorId": "4970437", "name": "R. Zittoun"}, {"authorId": "3283929", "name": "B. Sikic"}]}, {"paperId": "cfd1b0c8848e2c26484d0354d9f61805c2e2a950", "title": "Phenotypic characterization of cutaneous T-cell lymphoma. Use of monoclonal antibodies to compare with other malignant T cells.", "authors": [{"authorId": "144280170", "name": "B. Haynes"}, {"authorId": "3872249", "name": "R. Metzgar"}, {"authorId": "2996220", "name": "J. Minna"}, {"authorId": "2390399", "name": "P. Bunn"}]}, {"paperId": "c7c5fd83bd5a215e645c6e9ee8e6a6e6c5f8485f", "title": "Supralethal whole body irradiation and isologous marrow transplantation in man.", "authors": [{"authorId": "1688697", "name": "E. Thomas"}, {"authorId": "92834761", "name": "H. Lochte"}, {"authorId": "143898168", "name": "J. Cannon"}, {"authorId": "16784918", "name": "O. D. Sahler"}, {"authorId": "8890034", "name": "J. Ferrebee"}]}, {"paperId": "21956d1533994d05cd5252ca3d046c6a8dcbffc5", "title": "CALM-AF10+ T-ALL expression profiles are characterized by overexpression of HOXA and BMI1 oncogenes", "authors": [{"authorId": "5830737", "name": "W. Dik"}, {"authorId": "10373622", "name": "W. Brahim"}, {"authorId": "89591664", "name": "C. Braun"}, {"authorId": "5073315", "name": "V. Asnafi"}, {"authorId": "4722890", "name": "N. Dastugue"}, {"authorId": "1729885", "name": "O. Bernard"}, {"authorId": "1922049", "name": "J. Dongen"}, {"authorId": "4381606", "name": "A. Langerak"}, {"authorId": "2144793", "name": "E. Macintyre"}, {"authorId": "6576318", "name": "E. Delabesse"}]}, {"paperId": "cdf66875a63757b530239953d6a62050f018635d", "title": "Microarray-based classification of a consecutive series of 121 childhood acute leukemias: prediction of leukemic and genetic subtype as well as of minimal residual disease status", "authors": [{"authorId": "4036720", "name": "A. Andersson"}, {"authorId": "39684255", "name": "C. Ritz"}, {"authorId": "2034089", "name": "D. Lindgren"}, {"authorId": "1911728", "name": "P. Ed\u00e9n"}, {"authorId": "2873919", "name": "C. Lassen"}, {"authorId": "6498641", "name": "J. Heldrup"}, {"authorId": "3079790", "name": "T. Olofsson"}, {"authorId": "2076458453", "name": "J. R\u00e5de"}, {"authorId": "115585249", "name": "M. Fontes"}, {"authorId": "1399542179", "name": "A. Porwit\u2010MacDonald"}, {"authorId": "4903772", "name": "M. Behrendtz"}, {"authorId": "2464920", "name": "M. H\u00f6glund"}, {"authorId": "145849464", "name": "B. Johansson"}, {"authorId": "1835440", "name": "T. Fioretos"}]}, {"paperId": "b342f8d27fa785c86dd5349d8aaa87f7319267c5", "title": "Inhibition of phosphatidylinositol 3-kinase dephosphorylates BAD and promotes apoptosis in myeloid leukemias", "authors": [{"authorId": "2157642147", "name": "S. Zhao"}, {"authorId": "144022230", "name": "M. Konopleva"}, {"authorId": "2101686942", "name": "M. Cabreira-Hansen"}, {"authorId": "2132431678", "name": "Z. Xie"}, {"authorId": "2107620885", "name": "W. Hu"}, {"authorId": "2380264", "name": "M. Milella"}, {"authorId": "4976314", "name": "Z. Estrov"}, {"authorId": "2241330", "name": "G. Mills"}, {"authorId": "5043564", "name": "M. Andreeff"}]}, {"paperId": "a8670a15d0d5ce4093ae19750a8aee7df891b94f", "title": "Expression of BCR/ABL and BCL-2 in myeloid progenitors leads to myeloid leukemias", "authors": [{"authorId": "34456481", "name": "S. Jaiswal"}, {"authorId": "145216434", "name": "D. Traver"}, {"authorId": "1889571", "name": "T. Miyamoto"}, {"authorId": "3149502", "name": "K. Akashi"}, {"authorId": "6319731", "name": "E. Lagasse"}, {"authorId": "2325553", "name": "I. Weissman"}]}, {"paperId": "842a5bcb2b142c71a550804f4a4827879bb30873", "title": "A lack of a functional NAD(P)H:quinone oxidoreductase allele is selectively associated with pediatric leukemias that have MLL fusions. United Kingdom Childhood Cancer Study Investigators.", "authors": [{"authorId": "2556688", "name": "J. Wiemels"}, {"authorId": "1380723780", "name": "A. Pagnamenta"}, {"authorId": "1844659", "name": "G. M. Taylor"}, {"authorId": "145853477", "name": "O. Eden"}, {"authorId": "48008536", "name": "F. Alexander"}, {"authorId": "33807869", "name": "M. Greaves"}]}, {"paperId": "e7011aa81b0316e9cfea49391ef0df961a6c4ef4", "title": "Biology and treatment of infant leukemias.", "authors": [{"authorId": "143836865", "name": "C. Pui"}, {"authorId": "72084373", "name": "J. Kane"}, {"authorId": "144999183", "name": "W. Crist"}]}, {"paperId": "7bbdaf36f3e2b7058cbf2b2f21c2a481e6c01032", "title": "Terminal deoxynucleotidyl transferase activity in human leukemic cells and in normal human thymocytes.", "authors": [{"authorId": "122768438", "name": "R. Mccaffrey"}, {"authorId": "2063898433", "name": "T. A. Harrison"}, {"authorId": "143644901", "name": "R. Parkman"}, {"authorId": "144293138", "name": "D. Baltimore"}]}, {"paperId": "095d6a23a217c390e94e60dd0a84449a89abb9f5", "title": "Tandem duplications of the FLT3 receptor gene are associated with leukemic transformation of myelodysplasia", "authors": [{"authorId": "144760597", "name": "S. Horiike"}, {"authorId": "49904956", "name": "S. Yokota"}, {"authorId": "47086244", "name": "M. Nakao"}, {"authorId": "6727438", "name": "T. Iwai"}, {"authorId": "86925557", "name": "Y. Sasai"}, {"authorId": "38230066", "name": "H. Kaneko"}, {"authorId": "3651797", "name": "M. Taniwaki"}, {"authorId": "70670991", "name": "K. Kashima"}, {"authorId": "8039341", "name": "H. Fujii"}, {"authorId": "50327068", "name": "T. Abe"}, {"authorId": "2054133", "name": "S. Misawa"}]}, {"paperId": "2cd3e826ec6ae32b1c493e8edd87b6fbb962e2f5", "title": "Expression of FLT3 receptor and response to FLT3 ligand by leukemic cells.", "authors": [{"authorId": "2370341", "name": "H. Drexler"}]}, {"paperId": "d83f3a95eca545ef399b2b7b83422db3a132a1a4", "title": "Human FLT3/FLK2 receptor tyrosine kinase is expressed at the surface of normal and malignant hematopoietic cells.", "authors": [{"authorId": "6982828", "name": "O. Rosnet"}, {"authorId": "87350125", "name": "H. B\u00fchring"}, {"authorId": "4649073", "name": "S. Marchetto"}, {"authorId": "3848323", "name": "I. Rappold"}, {"authorId": "48679950", "name": "C. Lavagna"}, {"authorId": "4599547", "name": "D. Sainty"}, {"authorId": "4071897", "name": "C. Arnoulet"}, {"authorId": "2901974", "name": "C. Chabannon"}, {"authorId": "144488551", "name": "L. Kanz"}, {"authorId": "24809829", "name": "C. Hannum"}, {"authorId": "46771885", "name": "D. Birnbaum"}]}, {"paperId": "5b811c2e25fbccf87a7f522f05ac4502990c7e4a", "title": "RAS, FMS and p53 mutations and poor clinical outcome in myelodysplasias: a 10-year follow-up", "authors": [{"authorId": "49100915", "name": "R. Padua"}, {"authorId": "81021997", "name": "B. Guinn"}, {"authorId": "1431202656", "name": "A. Al-Sabah"}, {"authorId": "80501673", "name": "M. Smith"}, {"authorId": "2107316505", "name": "C. Taylor"}, {"authorId": "6202884", "name": "T. Pettersson"}, {"authorId": "3889264", "name": "S. Ridge"}, {"authorId": "46565660", "name": "G. Carter"}, {"authorId": "2940828", "name": "D. White"}, {"authorId": "2004771", "name": "D. Oscier"}, {"authorId": "1920149", "name": "S. Chevret"}, {"authorId": "2056123692", "name": "R. West"}]}, {"paperId": "516959af72e5a8f69e92fbbcb83723ed9cb9370f", "title": "Clinical trials of arsenic trioxide in hematologic and solid tumors: overview of the National Cancer Institute Cooperative Research and Development Studies.", "authors": [{"authorId": "3875161", "name": "A. Murgo"}]}, {"paperId": "317e06cfee667b6e42b305a9b0d913d3f93a8df8", "title": "Expression of CD1d by myelomonocytic leukemias provides a target for cytotoxic NKT cells", "authors": [{"authorId": "5121212", "name": "L. Metelitsa"}, {"authorId": "3313875", "name": "K. Weinberg"}, {"authorId": "5425590", "name": "P. Emanuel"}, {"authorId": "2736215", "name": "R. Seeger"}]}, {"paperId": "fb18b35570fc45fce5c9b1f9ed710f832b4fbc10", "title": "Protease inhibitor-induced apoptosis: accumulation of wt p53, p21WAF1/CIP1, and induction of apoptosis are independent markers of proteasome inhibition", "authors": [{"authorId": "40611317", "name": "WG An"}, {"authorId": "145748002", "name": "S-G Hwang"}, {"authorId": "91760154", "name": "J. Trepel"}, {"authorId": "120282333", "name": "M. Blagosklonny"}]}, {"paperId": "9838d688a714d67fd434892bf4ef0eb8b8f6dc17", "title": "Validation of two clinically useful assays for evaluation of JAK2 V617F mutation in chronic myeloproliferative disorders", "authors": [{"authorId": "5113186", "name": "R. McClure"}, {"authorId": "1380645175", "name": "M. Mai"}, {"authorId": "1394427540", "name": "T. Lasho"}]}, {"paperId": "5e1a077cf71599f59a8234a095dfe33050451df7", "title": "The Wilms\u2019 tumor gene WT1-GFP knock-in mouse reveals the dynamic regulation of WT1 expression in normal and leukemic hematopoiesis", "authors": [{"authorId": "4817810", "name": "N. Hosen"}, {"authorId": "7862735", "name": "T. Shirakata"}, {"authorId": "35475797", "name": "S. Nishida"}, {"authorId": "48154480", "name": "M. Yanagihara"}, {"authorId": "4609595", "name": "A. Tsuboi"}, {"authorId": "3345021", "name": "M. Kawakami"}, {"authorId": "3490650", "name": "Y. Oji"}, {"authorId": "2073194002", "name": "Y. Oka"}, {"authorId": "87771171", "name": "M. Okabe"}, {"authorId": "38826967", "name": "B. Tan"}, {"authorId": "35291650", "name": "H. Sugiyama"}, {"authorId": "2325553", "name": "I. Weissman"}]}, {"paperId": "b8b05db478ece40a7a584d881b597f993c4bcf77", "title": "Molecular characterization of acute leukemias by use of microarray technology", "authors": [{"authorId": "2473934", "name": "A. Kohlmann"}, {"authorId": "145934200", "name": "C. Schoch"}, {"authorId": "2701920", "name": "S. Schnittger"}, {"authorId": "145648033", "name": "M. Dugas"}, {"authorId": "145630229", "name": "W. Hiddemann"}, {"authorId": "145091281", "name": "W. Kern"}, {"authorId": "2905029", "name": "T. Haferlach"}]}, {"paperId": "8132692a0d878a06ee3ee7caae1f6bfb7dee04f1", "title": "Identification of the constant chromosome regions involved in human hematologic malignant disease.", "authors": [{"authorId": "39226319", "name": "J. Rowley"}]}, {"paperId": "98ca040dbecf90ad5584e422b774e32330cf5bac", "title": "HL-60 cell line was derived from a patient with FAB-M2 and not FAB-M3.", "authors": [{"authorId": "144487720", "name": "W. Dalton"}, {"authorId": "5590476", "name": "M. Ahearn"}, {"authorId": "4093800", "name": "K. McCredie"}, {"authorId": "4251409", "name": "E. Freireich"}, {"authorId": "6546744", "name": "S. Stass"}, {"authorId": "145194132", "name": "J. Trujillo"}]}, {"paperId": "8e311af4a4631a94bfd4c11206e36c22264cb327", "title": "RAS gene mutations in acute and chronic myelocytic leukemias, chronic myeloproliferative disorders, and myelodysplastic syndromes.", "authors": [{"authorId": "143829355", "name": "J. Janssen"}, {"authorId": "8243536", "name": "A. C. Steenvoorden"}, {"authorId": "48713237", "name": "J. Lyons"}, {"authorId": "8546618", "name": "B. Anger"}, {"authorId": "39851400", "name": "J. B\u00f6hlke"}, {"authorId": "3478384", "name": "J. Bos"}, {"authorId": "94727886", "name": "H. Seliger"}, {"authorId": "12741217", "name": "C. Bartram"}]}, {"paperId": "a0be0a7568b9f7d116d63949274a9d549de811f0", "title": "Aberrant stabilization of c-Myc protein in some lymphoblastic leukemias", "authors": [{"authorId": "3964911", "name": "S. Malempati"}, {"authorId": "4843061", "name": "D. Tibbitts"}, {"authorId": "48283830", "name": "M. Cunningham"}, {"authorId": "5712925", "name": "Y. Akkari"}, {"authorId": "4521198", "name": "S. Olson"}, {"authorId": "145221332", "name": "G. Fan"}, {"authorId": "2427540", "name": "R. Sears"}]}, {"paperId": "6c6661924514ae7d836c54798732b93ff7d5910c", "title": "Multidrug resistance (mdr1) gene expression in adult acute leukemias: correlations with treatment outcome and in vitro drug sensitivity.", "authors": [{"authorId": "50526323", "name": "J. Marie"}, {"authorId": "4970437", "name": "R. Zittoun"}, {"authorId": "3283929", "name": "B. Sikic"}]}, {"paperId": "4450db2491a2ab7dc27f15be88c8f27d46fc697f", "title": "Environmental factors and childhood acute leukemias and lymphomas", "authors": [{"authorId": "153559820", "name": "R. McNally"}, {"authorId": "94103423", "name": "L. Parker"}]}, {"paperId": "1e0a9098588510756612cf14d3104de57e205e40", "title": "Deficient activation of the CD95 (APO-1/Fas) system in drug-resistant cells", "authors": [{"authorId": "2393599", "name": "C. Friesen"}, {"authorId": "5810637", "name": "S. Fulda"}, {"authorId": "143640879", "name": "K. Debatin"}]}, {"paperId": "5ce7e3b56ea0306c9da91731149221a36df99d28", "title": "Microenvironmental Interactions and Survival of CLL B-cells", "authors": [{"authorId": "13314569", "name": "Irene Munk Pedersen"}, {"authorId": "31806960", "name": "J. Reed"}]}, {"paperId": "cd96eeaa1415ccd1095e69aa70690a39e26170a8", "title": "ACID PHOSPHATASE ISOENZYME IN HUMAN LEUKOCYTES IN NORMAL AND PATHOLOGIC CONDITIONS", "authors": [{"authorId": "46651221", "name": "C. Li"}, {"authorId": "4929279", "name": "L. Yam"}, {"authorId": "1818889", "name": "K. Lam"}]}, {"paperId": "dd19866092b0fcf86c2b17aa05e3af5320be5365", "title": "DNA copy-number abnormalities do not occur in infant ALL with t(4;11)/MLL-AF4", "authors": [{"authorId": "10277270", "name": "M. Bardini"}, {"authorId": "34401220", "name": "R. Spinelli"}, {"authorId": "6395443", "name": "S. Bungaro"}, {"authorId": "34667104", "name": "E. Mangano"}, {"authorId": "144263916", "name": "L. Corral"}, {"authorId": "2665312", "name": "I. Cifola"}, {"authorId": "47506398", "name": "G. Fazio"}, {"authorId": "39371578", "name": "M. Giordan"}, {"authorId": "144554921", "name": "G. Basso"}, {"authorId": "153247520", "name": "G. Rossi"}, {"authorId": "146024591", "name": "A. Biondi"}, {"authorId": "40302797", "name": "C. Battaglia"}, {"authorId": "1992793216", "name": "G. Cazzaniga"}]}, {"paperId": "77d15c10d4854218e23227d989046533d716ac37", "title": "Antigen expression patterns reflecting genotype of acute leukemias", "authors": [{"authorId": "4994977", "name": "O. Hrusak"}, {"authorId": "1399542179", "name": "A. Porwit\u2010MacDonald"}]}, {"paperId": "d2aa86d7c1b963ec8707f1332dfd1b7bb1deeb77", "title": "The LIM protein RBTN2 and the basic helix-loop-helix protein TAL1 are present in a complex in erythroid cells.", "authors": [{"authorId": "1415403993", "name": "V. Valge-Archer"}, {"authorId": "31823286", "name": "H. Osada"}, {"authorId": "145143783", "name": "A. Warren"}, {"authorId": "2067402", "name": "A. Forster"}, {"authorId": "1684133", "name": "J. Li"}, {"authorId": "13063684", "name": "R. Baer"}, {"authorId": "4252871", "name": "T. Rabbitts"}]}, {"paperId": "3cb7d72df252751cd6685c13c582a5a7c4634abe", "title": "The leukemias.", "authors": [{"authorId": "1491920397", "name": "R. Haden"}]}, {"paperId": "879cb37b34de49f39cfb02a8884f94ac2134208a", "title": "Homozygous loss of the cyclin-dependent kinase 4-inhibitor (p16) gene in human leukemias.", "authors": [{"authorId": "83368858", "name": "S. Ogawa"}, {"authorId": "3113616", "name": "N. Hirano"}, {"authorId": "48500832", "name": "N. Sato"}, {"authorId": "2160689391", "name": "T. Takahashi"}, {"authorId": "7231153", "name": "A. Hangaishi"}, {"authorId": "144802270", "name": "K. Tanaka"}, {"authorId": "49682044", "name": "M. Kurokawa"}, {"authorId": "2157345571", "name": "T. Tanaka"}, {"authorId": "34825001", "name": "K. Mitani"}, {"authorId": "2256426", "name": "Y. Yazaki"}]}, {"paperId": "c88c0801a60fa3981019222b25dd8c66971fa521", "title": "Direct evidence for cooperating genetic events in the leukemic transformation of normal human hematopoietic cells", "authors": [{"authorId": "49320300", "name": "J. K. Warner"}, {"authorId": "31962871", "name": "J. C. Wang"}, {"authorId": "48531130", "name": "K. Takenaka"}, {"authorId": "3897074", "name": "S. Doulatov"}, {"authorId": "144238919", "name": "J. L. McKenzie"}, {"authorId": "46966792", "name": "L. Harrington"}, {"authorId": "3053653", "name": "J. Dick"}]}, {"paperId": "fc2d1aa46a7b6316f2187c556920e8e0910fb913", "title": "Mutations in the Wilms' tumor gene WT1 in leukemias.", "authors": [{"authorId": "1420029517", "name": "L. King-Underwood"}, {"authorId": "50033296", "name": "J. Renshaw"}, {"authorId": "1437007733", "name": "K. Pritchard-Jones"}]}, {"paperId": "5fb688998df4e30e12538a43668029c2c423d0e0", "title": "New insights into MLL gene rearranged acute leukemias using gene expression profiling: shared pathways, lineage commitment, and partner genes", "authors": [{"authorId": "2473934", "name": "A. Kohlmann"}, {"authorId": "145934200", "name": "C. Schoch"}, {"authorId": "145648033", "name": "M. Dugas"}, {"authorId": "2701920", "name": "S. Schnittger"}, {"authorId": "145630229", "name": "W. Hiddemann"}, {"authorId": "145091281", "name": "W. Kern"}, {"authorId": "2905029", "name": "T. Haferlach"}]}, {"paperId": "93e0e63727129415621110c9df00d49df81effc3", "title": "Expression of mdr1 and mdr3 multidrug-resistance genes in human acute and chronic leukemias and association with stimulation of drug accumulation by cyclosporine.", "authors": [{"authorId": "37639029", "name": "H. Herweijer"}, {"authorId": "50859411", "name": "P. Sonneveld"}, {"authorId": "1995886", "name": "F. Baas"}, {"authorId": "3890031", "name": "K. Nooter"}]}, {"paperId": "7d250b8714f7b53d3d30c0f7f0e71b227f3f15ba", "title": "Constitutive activation of extracellular signal-regulated kinase in human acute leukemias: combined role of activation of MEK, hyperexpression of extracellular signal-regulated kinase, and downregulation of a phosphatase, PAC1.", "authors": [{"authorId": "2153592535", "name": "S. C. Kim"}, {"authorId": "31972517", "name": "J. Hahn"}, {"authorId": "6999138", "name": "Y. Min"}, {"authorId": "35122822", "name": "N. Yoo"}, {"authorId": "10180779", "name": "Y. Ko"}, {"authorId": "2107402787", "name": "W. J. Lee"}]}]}
