{"total": 780808, "offset": 300, "next": 350, "data": [{"paperId": "ac340708b10ff5f60d296a499c96aad065bffcf8", "title": "Chemotherapy compared with autologous or allogeneic bone marrow transplantation in the management of acute myeloid leukemia in first remission.", "authors": [{"authorId": "6541030", "name": "P. Cassileth"}, {"authorId": "2059027976", "name": "D. Harrington"}, {"authorId": "6980776", "name": "F. Appelbaum"}, {"authorId": "39443277", "name": "H. Lazarus"}, {"authorId": "1691423", "name": "J. Rowe"}, {"authorId": "3638156", "name": "E. Paietta"}, {"authorId": "3259776", "name": "C. Willman"}, {"authorId": "3207123", "name": "D. Hurd"}, {"authorId": "143732087", "name": "J. Bennett"}, {"authorId": "152529996", "name": "K. Blume"}, {"authorId": "19602009", "name": "D. Head"}, {"authorId": "4054588", "name": "P. Wiernik"}]}, {"paperId": "6a4bc17e44936f412bdf3fb9d24c9cfe2009dc64", "title": "Bone marrow transplants from unrelated donors for patients with chronic myeloid leukemia.", "authors": [{"authorId": "2107830912", "name": "J. Hansen"}, {"authorId": "144488214", "name": "T. Gooley"}, {"authorId": "2107713401", "name": "P. Martin"}, {"authorId": "6980776", "name": "F. Appelbaum"}, {"authorId": "5674359", "name": "T. Chauncey"}, {"authorId": "2540790", "name": "R. Clift"}, {"authorId": "1967825", "name": "E. Petersdorf"}, {"authorId": "152886687", "name": "J. Radich"}, {"authorId": "3159877", "name": "J. Sanders"}, {"authorId": "144479216", "name": "R. Storb"}, {"authorId": "1711248", "name": "K. Sullivan"}, {"authorId": "7844063", "name": "C. Anasetti"}]}, {"paperId": "836e9075e8171ad723a95f04aff6480c831d38da", "title": "Acute promyelocytic leukemia.", "authors": [{"authorId": "7774112", "name": "R. Warrell"}, {"authorId": "3714225", "name": "H. de Th\u00e9"}, {"authorId": "47196335", "name": "Z. Wang"}, {"authorId": "2374186", "name": "L. Degos"}]}, {"paperId": "5cf68383fb558c02538860c3e3c973e19a9e1f24", "title": "PML\u2013RAR\u03b1 initiates leukemia by conferring properties of self-renewal to committed promyelocytic progenitors", "authors": [{"authorId": "10336923", "name": "S. Wojiski"}, {"authorId": "39651838", "name": "F. Guibal"}, {"authorId": "3129457", "name": "T. Kindler"}, {"authorId": "2157599861", "name": "B. H. Lee"}, {"authorId": "2555345", "name": "J. Jesneck"}, {"authorId": "33704811", "name": "A. Fabian"}, {"authorId": "5523919", "name": "D. Tenen"}, {"authorId": "2246160", "name": "D. Gilliland"}]}, {"paperId": "44d3900a360e8832b884d210374f9584476eabe7", "title": "Inhibitory Effects of Omacetaxine on Leukemic Stem Cells and BCR-ABL-Induced Chronic Myeloid Leukemia and Acute Lymphoblastic Leukemia in Mice", "authors": [{"authorId": "2885685", "name": "Yaoyu Chen"}, {"authorId": "5661695", "name": "Yiguo Hu"}, {"authorId": "31823977", "name": "Shawnya Michaels"}, {"authorId": "50209308", "name": "D. Segal"}, {"authorId": "2109214937", "name": "Dennis M. Brown"}, {"authorId": "10036923", "name": "Shaoguang Li"}]}, {"paperId": "1bfa1b9be92cdc3798452b92423ea4de72592407", "title": "Mixed-lineage-leukemia (MLL) fusion protein collaborates with Ras to induce acute leukemia through aberrant Hox expression and Raf activation", "authors": [{"authorId": "39266221", "name": "R. Ono"}, {"authorId": "31481913", "name": "H. Kumagai"}, {"authorId": "2937601", "name": "H. Nakajima"}, {"authorId": "16115215", "name": "A. Hishiya"}, {"authorId": "40616689", "name": "T. Taki"}, {"authorId": "144498807", "name": "K. Horikawa"}, {"authorId": "2062757906", "name": "K. Takatsu"}, {"authorId": "47372055", "name": "T. Satoh"}, {"authorId": "145494831", "name": "Y. Hayashi"}, {"authorId": "35147720", "name": "T. Kitamura"}, {"authorId": "3117347", "name": "T. Nosaka"}]}, {"paperId": "d2e8eede2b8a7c43ce79708e912b39db54a74552", "title": "Acute mixed lineage leukemia in children: the experience of St Jude Children's Research Hospital.", "authors": [{"authorId": "3134358", "name": "J. Rubnitz"}, {"authorId": "6774187", "name": "M. Onciu"}, {"authorId": "47918369", "name": "S. Pounds"}, {"authorId": "3069004", "name": "S. Shurtleff"}, {"authorId": "47300848", "name": "Xueyuan Cao"}, {"authorId": "3080705", "name": "S. Raimondi"}, {"authorId": "4101875", "name": "F. Behm"}, {"authorId": "8965350", "name": "D. Campana"}, {"authorId": "3564566", "name": "B. Razzouk"}, {"authorId": "145517478", "name": "R. Ribeiro"}, {"authorId": "1699137", "name": "J. Downing"}, {"authorId": "143836865", "name": "C. Pui"}]}, {"paperId": "580e4ce7bfc20a9168a6530acd043fd97b270c80", "title": "Elevated risk of chronic lymphocytic leukemia and other indolent non-Hodgkin\u2019s lymphomas among relatives of patients with chronic lymphocytic leukemia", "authors": [{"authorId": "5069343", "name": "L. Goldin"}, {"authorId": "3630798", "name": "M. Bjo\u0308rkholm"}, {"authorId": "4048916", "name": "S. Kristinsson"}, {"authorId": "3040225", "name": "I. Turesson"}, {"authorId": "6321150", "name": "O. Landgren"}]}, {"paperId": "66d9cefa899b4f1879ed29b92f9a471a0b7925c1", "title": "Low JAK2V617F allele burden in primary myelofibrosis, compared to either a higher allele burden or unmutated status, is associated with inferior overall and leukemia-free survival", "authors": [{"authorId": "6386349", "name": "A. Tefferi"}, {"authorId": "46412600", "name": "T. Lasho"}, {"authorId": "50535075", "name": "J. Huang"}, {"authorId": "20829434", "name": "C. Finke"}, {"authorId": "115253873", "name": "R. Mesa"}, {"authorId": "46651221", "name": "C. Li"}, {"authorId": "2157641205", "name": "W. Wu"}, {"authorId": "113169206", "name": "C. Hanson"}, {"authorId": "6696316", "name": "A. Pardanani"}]}, {"paperId": "a36dcd59b63ae55cc5b6a11ebbb22283685285bd", "title": "Alpha interferon for induction of remission in hairy-cell leukemia.", "authors": [{"authorId": "114107000", "name": "J. Quesada"}, {"authorId": "88858107", "name": "J. Reuben"}, {"authorId": "143660293", "name": "J. Manning"}, {"authorId": "5822909", "name": "E. Hersh"}, {"authorId": "3791397", "name": "J. Gutterman"}]}, {"paperId": "b18643b4cd87c6ddf16f0651f8940362cdce86bf", "title": "Establishment of an immature mast cell line from a patient with mast cell leukemia.", "authors": [{"authorId": "50700643", "name": "J. Butterfield"}, {"authorId": "38389350", "name": "D. Weiler"}, {"authorId": "120512061", "name": "G. Dewald"}, {"authorId": "3583456", "name": "G. Gleich"}]}, {"paperId": "c39e137b8e444a2a59a1957feada31d049b5bdf5", "title": "Functional expression and release of ligands for the activating immunoreceptor NKG2D in leukemia.", "authors": [{"authorId": "3138283", "name": "H. Salih"}, {"authorId": "2084865087", "name": "Holger Antropius"}, {"authorId": "31659736", "name": "F. Gieseke"}, {"authorId": "50131742", "name": "S. Lutz"}, {"authorId": "144488551", "name": "L. Kanz"}, {"authorId": "3207894", "name": "H. Rammensee"}, {"authorId": "144307386", "name": "A. Steinle"}]}, {"paperId": "b1ad4799e0ccdb20865dad42861f687a644bbb8f", "title": "Leukemia in twins: lessons in natural history.", "authors": [{"authorId": "2327144", "name": "M. Greaves"}, {"authorId": "39660589", "name": "Ana-Teresa Maia"}, {"authorId": "2556688", "name": "J. Wiemels"}, {"authorId": "1839338", "name": "A. Ford"}]}, {"paperId": "84203fdc8305766604b5014bcc0aa5ffa43f8c31", "title": "MLL fusions: Pathways to leukemia", "authors": [{"authorId": "144371437", "name": "Han Liu"}, {"authorId": "144435687", "name": "E. Cheng"}, {"authorId": "2441131", "name": "J. Hsieh"}]}, {"paperId": "67d3905831e5ff6da2cb080c7b25d53536c89dbf", "title": "Ionizing Radiation and Leukemia Mortality among Japanese Atomic Bomb Survivors, 1950\u20132000", "authors": [{"authorId": "145393861", "name": "D. Richardson"}, {"authorId": "6246561", "name": "H. Sugiyama"}, {"authorId": "145354472", "name": "N. Nishi"}, {"authorId": "5320480", "name": "R. Sakata"}, {"authorId": "31997336", "name": "Y. Shimizu"}, {"authorId": "18307527", "name": "E. Grant"}, {"authorId": "2664322", "name": "M. Soda"}, {"authorId": "2263025", "name": "W. Hsu"}, {"authorId": "2543128", "name": "A. Suyama"}, {"authorId": "39418526", "name": "K. Kodama"}, {"authorId": "5024877", "name": "F. Kasagi"}]}, {"paperId": "d4171b7d92f5303d83649f1c7fdb240ca2f74d63", "title": "Myc-Induced T Cell Leukemia in Transgenic Zebrafish", "authors": [{"authorId": "6269963", "name": "D. Langenau"}, {"authorId": "145216434", "name": "D. Traver"}, {"authorId": "3249653", "name": "A. Ferrando"}, {"authorId": "4661510", "name": "J. Kutok"}, {"authorId": "4788009", "name": "J. Aster"}, {"authorId": "6122783", "name": "J. Kanki"}, {"authorId": "50134063", "name": "Shuo Lin"}, {"authorId": "46325814", "name": "E. Prochownik"}, {"authorId": "4948719", "name": "N. Trede"}, {"authorId": "2252482", "name": "L. Zon"}, {"authorId": "145348521", "name": "A. Look"}]}, {"paperId": "7ccad74be0126777d82cf296969cf711d5390f20", "title": "Patterns of leukemia incidence in the United States by subtype and demographic characteristics, 1997\u20132002", "authors": [{"authorId": "39113097", "name": "J. Yamamoto"}, {"authorId": "2200834", "name": "M. Goodman"}]}, {"paperId": "2b2f2c564bd2822c9afc0f293c84dc4b2e4899be", "title": "FLT3: ITDoes matter in leukemia", "authors": [{"authorId": "3754814", "name": "M. Levis"}, {"authorId": "144536863", "name": "D. Small"}]}, {"paperId": "651a359102fd569bb5c5f19777956ff26a372b16", "title": "Targeting survival cascades induced by activation of Ras/Raf/MEK/ERK, PI3K/PTEN/Akt/mTOR and Jak/STAT pathways for effective leukemia therapy", "authors": [{"authorId": "4297554", "name": "J. McCubrey"}, {"authorId": "121498167", "name": "L. Steelman"}, {"authorId": "2293159", "name": "S. L. Abrams"}, {"authorId": "2744152", "name": "F. E. Bertrand"}, {"authorId": "2064240861", "name": "D. E. Ludwig"}, {"authorId": "4636922", "name": "J. B\u00e4secke"}, {"authorId": "4644764", "name": "M. Libra"}, {"authorId": "6547632", "name": "F. Stivala"}, {"authorId": "2380264", "name": "M. Milella"}, {"authorId": "4022302", "name": "A. Tafuri"}, {"authorId": "4587020", "name": "P. Lunghi"}, {"authorId": "40573910", "name": "A. Bonati"}, {"authorId": "19380947", "name": "A. Martelli"}]}, {"paperId": "a52c2e98bd172b04fc60c9c5a0dd84a48615724c", "title": "A FLT3-targeted tyrosine kinase inhibitor is cytotoxic to leukemia cells in vitro and in vivo.", "authors": [{"authorId": "3754814", "name": "M. Levis"}, {"authorId": "32744029", "name": "J. Allebach"}, {"authorId": "2445356", "name": "K. Tse"}, {"authorId": "144796611", "name": "R. Zheng"}, {"authorId": "89469735", "name": "B. Baldwin"}, {"authorId": "2111294778", "name": "B. Smith"}, {"authorId": "1422297586", "name": "S. Jones-Bolin"}, {"authorId": "5864420", "name": "B. Ruggeri"}, {"authorId": "8162558", "name": "C. Dionne"}, {"authorId": "144536863", "name": "D. Small"}]}, {"paperId": "bef5f626f1101206296ac3af8580eb3cdf3f7017", "title": "Improved outcome for children with acute lymphoblastic leukemia: results of Total Therapy Study XIIIB at St Jude Children's Research Hospital.", "authors": [{"authorId": "143836865", "name": "C. Pui"}, {"authorId": "2501185", "name": "J. Sandlund"}, {"authorId": "4888961", "name": "D. Pei"}, {"authorId": "8965350", "name": "D. Campana"}, {"authorId": "144898982", "name": "G. Rivera"}, {"authorId": "145517478", "name": "R. Ribeiro"}, {"authorId": "3134358", "name": "J. Rubnitz"}, {"authorId": "3564566", "name": "B. Razzouk"}, {"authorId": "2783156", "name": "S. Howard"}, {"authorId": "4649121", "name": "M. Hudson"}, {"authorId": "144341273", "name": "Cheng Cheng"}, {"authorId": "2202063", "name": "L. Kun"}, {"authorId": "3080705", "name": "S. Raimondi"}, {"authorId": "4101875", "name": "F. Behm"}, {"authorId": "1699137", "name": "J. Downing"}, {"authorId": "3009230", "name": "M. Relling"}, {"authorId": "144141197", "name": "W. Evans"}]}, {"paperId": "8147fde2e4c064463e77fe556fe5abedbdbd33fd", "title": "Immunologic classification of leukemia and lymphoma.", "authors": [{"authorId": "4232060", "name": "K. Foon"}, {"authorId": "2010783", "name": "R. Todd"}]}, {"paperId": "344772e52fe20d20191c4038f6cf5307294f236c", "title": "Late-occurring stroke among long-term survivors of childhood leukemia and brain tumors: a report from the Childhood Cancer Survivor Study.", "authors": [{"authorId": "2239835", "name": "D. Bowers"}, {"authorId": "47909531", "name": "Yan Liu"}, {"authorId": "3530454", "name": "W. Leisenring"}, {"authorId": "1830390683", "name": "E. McNeil"}, {"authorId": "4513830", "name": "M. Stovall"}, {"authorId": "3606611", "name": "J. Gurney"}, {"authorId": "145267672", "name": "L. Robison"}, {"authorId": "4818499", "name": "R. Packer"}, {"authorId": "6588967", "name": "K. Oeffinger"}]}, {"paperId": "2e6df476f6a35d7f83980da36b51a52545feba7c", "title": "A role for MEIS1 in MLL-fusion gene leukemia.", "authors": [{"authorId": "1409652614", "name": "Ashish Kumar"}, {"authorId": "2108647997", "name": "Quanzhi Li"}, {"authorId": "48766532", "name": "W. Hudson"}, {"authorId": "48994231", "name": "Weili Chen"}, {"authorId": "15599887", "name": "Thien N. Sam"}, {"authorId": "47421013", "name": "Q. Yao"}, {"authorId": "2053281536", "name": "Erik A. Lund"}, {"authorId": "49814547", "name": "Baolin Wu"}, {"authorId": "1398946345", "name": "Branden J. Kowal"}, {"authorId": "144691543", "name": "J. Kersey"}]}, {"paperId": "7db72d5c19ad00087eca52b251bc5ad03b48ed54", "title": "Marrow transplantation for acute nonlymphocytic leukemia after treatment with busulfan and cyclophosphamide.", "authors": [{"authorId": "74881684", "name": "G. Santos"}, {"authorId": "4961115", "name": "P. Tutschka"}, {"authorId": "2125953", "name": "R. Brookmeyer"}, {"authorId": "7943676", "name": "R. Saral"}, {"authorId": "3899021", "name": "W. Beschorner"}, {"authorId": "5849059", "name": "W. Bias"}, {"authorId": "8307033", "name": "H. Braine"}, {"authorId": "1787228", "name": "W. Burns"}, {"authorId": "4185307", "name": "G. Elfenbein"}, {"authorId": "2667993", "name": "H. Kaizer"}]}, {"paperId": "40539f7ef9a6f19b4ac2bdab7484b21cc5450cac", "title": "Activating Mutations of the Noonan Syndrome-Associated SHP2/PTPN11 Gene in Human Solid Tumors and Adult Acute Myelogenous Leukemia", "authors": [{"authorId": "1398442724", "name": "M. Bentires-Alj"}, {"authorId": "144624831", "name": "J. Paez"}, {"authorId": "47687902", "name": "F. S. David"}, {"authorId": "6860109", "name": "H. Keilhack"}, {"authorId": "3698254", "name": "B. Halmos"}, {"authorId": "7509629", "name": "K. Naoki"}, {"authorId": "2427647", "name": "J. Maris"}, {"authorId": "145960454", "name": "A. Richardson"}, {"authorId": "1831351", "name": "A. Bardelli"}, {"authorId": "3088225", "name": "D. Sugarbaker"}, {"authorId": "37040855", "name": "W. Richards"}, {"authorId": "1924882", "name": "Jinyan Du"}, {"authorId": "2077470", "name": "L. Girard"}, {"authorId": "2996220", "name": "J. Minna"}, {"authorId": "3914683", "name": "M. Loh"}, {"authorId": "31080822", "name": "D. Fisher"}, {"authorId": "2112442", "name": "V. Velculescu"}, {"authorId": "1965563", "name": "B. Vogelstein"}, {"authorId": "145046418", "name": "M. Meyerson"}, {"authorId": "2332342", "name": "W. Sellers"}, {"authorId": "2291271", "name": "B. Neel"}]}, {"paperId": "521bfe54ecaeb7451e80bae749ecbd6e6fbf0c34", "title": "Clinical and biological characteristics of adult biphenotypic acute leukemia in comparison with that of acute myeloid leukemia and acute lymphoblastic leukemia: a case series of a Chinese population", "authors": [{"authorId": "50180142", "name": "Xiaoqian Xu"}, {"authorId": "1726547", "name": "Jianmin Wang"}, {"authorId": "5966053", "name": "Shu-qing L\u00fc"}, {"authorId": "2146026499", "name": "Li Chen"}, {"authorId": "2049926", "name": "Jianmin Yang"}, {"authorId": "2108008374", "name": "Wei-ping Zhang"}, {"authorId": "7500042", "name": "Xianmin Song"}, {"authorId": "2115103286", "name": "J. Hou"}, {"authorId": "4357418", "name": "X. Ni"}, {"authorId": "4149654", "name": "H. Qiu"}]}, {"paperId": "b81b5802d4037164677cad4815a9e73bbf3739c8", "title": "Prognostic factors for thrombosis, myelofibrosis, and leukemia in essential thrombocythemia: a study of 605 patients", "authors": [{"authorId": "3872507", "name": "F. Passamonti"}, {"authorId": "5286636", "name": "E. Rumi"}, {"authorId": "4899324", "name": "L. Arcaini"}, {"authorId": "6322722", "name": "E. Boveri"}, {"authorId": "118238264", "name": "C. Elena"}, {"authorId": "143608696", "name": "D. Pietra"}, {"authorId": "9149067", "name": "S. Boggi"}, {"authorId": "3524954", "name": "C. Astori"}, {"authorId": "145537429", "name": "P. Bernasconi"}, {"authorId": "8589452", "name": "M. Varettoni"}, {"authorId": "8398851", "name": "E. Brusamolino"}, {"authorId": "5953322", "name": "C. Pascutto"}, {"authorId": "3683194", "name": "M. Lazzarino"}]}, {"paperId": "eff0d463051a5e851a217061e881148e15248d45", "title": "Final report of the efficacy and safety of gemtuzumab ozogamicin (Mylotarg) in patients with CD33\u2010positive acute myeloid leukemia in first recurrence", "authors": [{"authorId": "81243702", "name": "R. Larson"}, {"authorId": "4798383", "name": "E. Sievers"}, {"authorId": "4165355", "name": "E. Stadtmauer"}, {"authorId": "2386963", "name": "B. L\u00f6wenberg"}, {"authorId": "47208649", "name": "E. Estey"}, {"authorId": "4578245", "name": "H. Dombret"}, {"authorId": "1807431", "name": "M. Theobald"}, {"authorId": "3165337", "name": "D. Voliotis"}, {"authorId": "77708857", "name": "J. Bennett"}, {"authorId": "10080764", "name": "M. Richie"}, {"authorId": "6293302", "name": "L. Leopold"}, {"authorId": "47704986", "name": "M. Berger"}, {"authorId": "35659711", "name": "M. Sherman"}, {"authorId": "2268286", "name": "M. Loken"}, {"authorId": "145183636", "name": "J. V. van Dongen"}, {"authorId": "4220607", "name": "I. Bernstein"}, {"authorId": "6980776", "name": "F. Appelbaum"}]}, {"paperId": "1e66581e56cfef0af3fdfedc3d4f9b4b5f2e9d1d", "title": "JAK2 mutation 1849G>T is rare in acute leukemias but can be found in CMML, Philadelphia chromosome-negative CML, and megakaryocytic leukemia.", "authors": [{"authorId": "48539958", "name": "J. Jelinek"}, {"authorId": "35094691", "name": "Y. Oki"}, {"authorId": "48210543", "name": "V. Gharibyan"}, {"authorId": "1400504675", "name": "C. Bueso-Ramos"}, {"authorId": "3981110", "name": "J. Prchal"}, {"authorId": "6523984", "name": "S. Verstovsek"}, {"authorId": "2042388", "name": "M. Beran"}, {"authorId": "47208649", "name": "E. Estey"}, {"authorId": "49096572", "name": "H. Kantarjian"}, {"authorId": "1863559", "name": "J. Issa"}]}, {"paperId": "7c3620fb6c94899ce56571c8fbb8e4d0a10b1ea4", "title": "Genetics of therapy-related myelodysplasia and acute myeloid leukemia", "authors": [{"authorId": "1401116506", "name": "J. Pedersen\u2010Bjergaard"}, {"authorId": "144033310", "name": "M. Andersen"}, {"authorId": "27962295", "name": "M. Andersen"}, {"authorId": "31861344", "name": "D. Christiansen"}]}, {"paperId": "a25d628ce705a2e59c1e5e08f0341f617387193f", "title": "Cognitive impairment, fatigue, and cytokine levels in patients with acute myelogenous leukemia or myelodysplastic syndrome", "authors": [{"authorId": "2141013", "name": "C. Meyers"}, {"authorId": "3710247", "name": "M. Albitar"}, {"authorId": "34014546", "name": "E. Estey"}]}, {"paperId": "5a5f5d962a2c742324d6ac6b79c0ae307e8c758b", "title": "Polymorphisms in the methylenetetrahydrofolate reductase gene are associated with susceptibility to acute leukemia in adults.", "authors": [{"authorId": "5125588", "name": "C. Skibola"}, {"authorId": "143918104", "name": "M. Smith"}, {"authorId": "3689454", "name": "E. Kane"}, {"authorId": "2379263", "name": "E. Roman"}, {"authorId": "5406000", "name": "S. Rollinson"}, {"authorId": "144707079", "name": "R. Cartwright"}, {"authorId": "145406303", "name": "G. Morgan"}]}, {"paperId": "16b9ad2a383b8177bd80b385f7c93f1d43a6504a", "title": "Diagnosis of chronic myeloid and acute lymphocytic leukemias by detection of leukemia-specific mRNA sequences amplified in vitro.", "authors": [{"authorId": "1440039335", "name": "E. Kawasaki"}, {"authorId": "120960243", "name": "S. Clark"}, {"authorId": "48138596", "name": "M. Coyne"}, {"authorId": "2157292268", "name": "S. Smith"}, {"authorId": "48226419", "name": "R. Champlin"}, {"authorId": "6614731", "name": "O. Witte"}, {"authorId": "144643364", "name": "F. McCormick"}]}, {"paperId": "91e533311be05147ae5f4134df91e5544b0833a8", "title": "Acute myeloid leukemia in children treated with epipodophyllotoxins for acute lymphoblastic leukemia.", "authors": [{"authorId": "143836865", "name": "C. Pui"}, {"authorId": "145517478", "name": "R. Ribeiro"}, {"authorId": "50164552", "name": "M. Hancock"}, {"authorId": "144898982", "name": "G. Rivera"}, {"authorId": "144141197", "name": "W. Evans"}, {"authorId": "81524196", "name": "S. Raimondi"}, {"authorId": "19602009", "name": "D. Head"}, {"authorId": "121533123", "name": "F. Behm"}, {"authorId": "2056678247", "name": "M. Mahmoud"}, {"authorId": "2501185", "name": "J. Sandlund"}]}, {"paperId": "0f749561705d1aa9cec5a8c1b63411ba13d9e7db", "title": "Construction and properties of retrovirus packaging cells based on gibbon ape leukemia virus", "authors": [{"authorId": "152442861", "name": "A. Miller"}, {"authorId": "40434359", "name": "J. Garcia"}, {"authorId": "14647039", "name": "N. von Suhr"}, {"authorId": "7260907", "name": "C. Lynch"}, {"authorId": "2107213679", "name": "C. Wilson"}, {"authorId": "31535108", "name": "M. Eiden"}]}, {"paperId": "5b8c8b79e6ea0f83bb42f0e046a687166e20687b", "title": "WT1 as a new prognostic factor and a new marker for the detection of minimal residual disease in acute leukemia.", "authors": [{"authorId": "2107474937", "name": "K. Inoue"}, {"authorId": "35291650", "name": "H. Sugiyama"}, {"authorId": "5413814", "name": "H. Ogawa"}, {"authorId": "2297051", "name": "M. Nakagawa"}, {"authorId": "46334293", "name": "T. Yamagami"}, {"authorId": "2149522", "name": "H. Miwa"}, {"authorId": "1735153", "name": "K. Kita"}, {"authorId": "4233232", "name": "A. Hiraoka"}, {"authorId": "3668653", "name": "T. Masaoka"}, {"authorId": "46374610", "name": "K. Nasu"}]}, {"paperId": "d73673a55664caa085028c4af6de6fadac52b7d1", "title": "Prolonged granulocytopenia: the major risk factor for invasive pulmonary aspergillosis in patients with acute leukemia.", "authors": [{"authorId": "3729944", "name": "S. Gerson"}, {"authorId": "2394911", "name": "G. Talbot"}, {"authorId": "145837014", "name": "S. Hurwitz"}, {"authorId": "2509737", "name": "B. Strom"}, {"authorId": "40249612", "name": "E. Lusk"}, {"authorId": "6541030", "name": "P. Cassileth"}]}, {"paperId": "6b7a1b3ce8833b92480b637c82cec2e8cc7bdd9d", "title": "The JAK2V617F activating mutation occurs in chronic myelomonocytic leukemia and acute myeloid leukemia, but not in acute lymphoblastic leukemia or chronic lymphocytic leukemia.", "authors": [{"authorId": "8669017", "name": "R. Levine"}, {"authorId": "3062660", "name": "M. Loriaux"}, {"authorId": "4739205", "name": "B. Huntly"}, {"authorId": "3914683", "name": "M. Loh"}, {"authorId": "48500445", "name": "M. Beran"}, {"authorId": "6300684", "name": "E. Stoffregen"}, {"authorId": "144532304", "name": "R. Berger"}, {"authorId": "3536567", "name": "Jennifer J. Clark"}, {"authorId": "5285464", "name": "S. Willis"}, {"authorId": "152862919", "name": "K. Nguyen"}, {"authorId": "47402759", "name": "N. J. Flores"}, {"authorId": "47208649", "name": "E. Estey"}, {"authorId": "5711212", "name": "N. Gattermann"}, {"authorId": "2991114", "name": "S. Armstrong"}, {"authorId": "145348521", "name": "A. Look"}, {"authorId": "46954436", "name": "J. Griffin"}, {"authorId": "1729885", "name": "O. Bernard"}, {"authorId": "2858761", "name": "M. Heinrich"}, {"authorId": "2246160", "name": "D. Gilliland"}, {"authorId": "144082761", "name": "B. Druker"}, {"authorId": "2702748", "name": "M. Deininger"}]}, {"paperId": "0bc885667b7cd5c911bbd36fe9a85c162547390b", "title": "Extramedullary myeloid cell tumors in acute nonlymphocytic leukemia: a clinical review.", "authors": [{"authorId": "2820011", "name": "J. Byrd"}, {"authorId": "66384623", "name": "W. Edenfield"}, {"authorId": "122142277", "name": "D. Shields"}, {"authorId": "8216322", "name": "N. Dawson"}]}, {"paperId": "bc8ca0d5435631a5f660d0fdc31b1d50d51a4e43", "title": "Leukemia-associated NOTCH1 alleles are weak tumor initiators but accelerate K-ras-initiated leukemia.", "authors": [{"authorId": "143738477", "name": "M. Chiang"}, {"authorId": "5521234", "name": "Lanwei Xu"}, {"authorId": "6531993", "name": "O. Shestova"}, {"authorId": "6278430", "name": "G. Histen"}, {"authorId": "1421578470", "name": "Sarah L'heureux"}, {"authorId": "10179396", "name": "Candice A. Romany"}, {"authorId": "1576851429", "name": "M. Childs"}, {"authorId": "3668106", "name": "P. Gimotty"}, {"authorId": "4788009", "name": "J. Aster"}, {"authorId": "3787735", "name": "W. Pear"}]}, {"paperId": "9fd2fc78cb3eb4b03532c787ab3af03e268d41dd", "title": "Human chronic lymphocytic leukemia modeled in mouse by targeted TCL1 expression", "authors": [{"authorId": "15471445", "name": "R. Bichi"}, {"authorId": "3950089", "name": "S. Shinton"}, {"authorId": "47139219", "name": "E. Martin"}, {"authorId": "3304543", "name": "A. Koval"}, {"authorId": "2124909", "name": "G. Calin"}, {"authorId": "8359350", "name": "R. Cesari"}, {"authorId": "47928502", "name": "G. Russo"}, {"authorId": "145609828", "name": "R. Hardy"}, {"authorId": "144749275", "name": "C. Croce"}]}, {"paperId": "eede249cdeffef3fe981e77421a28edbac66096d", "title": "Spectrum of tumor angiogenesis in the bone marrow of children with acute lymphoblastic leukemia.", "authors": [{"authorId": "1387475865", "name": "A. Perez-Atayde"}, {"authorId": "4456606", "name": "S. Sallan"}, {"authorId": "2123820957", "name": "U. Tedrow"}, {"authorId": "6264603", "name": "S. Connors"}, {"authorId": "37425118", "name": "E. Allred"}, {"authorId": "33797645", "name": "J. Folkman"}]}, {"paperId": "74baf69bfa13b17d8b11df6a37d7bdf186e15f13", "title": "A Pooled Analysis of Magnetic Fields, Wire Codes, and Childhood Leukemia", "authors": [{"authorId": "143898747", "name": "S. Greenland"}, {"authorId": "2549314", "name": "A. Sheppard"}, {"authorId": "5006681", "name": "W. Kaune"}, {"authorId": "144026928", "name": "C. Poole"}, {"authorId": "5204466", "name": "M. Kelsh"}]}, {"paperId": "3aba1e67f39ef6c42422e73c2e1211600c2e3b4e", "title": "The P190, P210, and P230 Forms of the BCR/ABL Oncogene Induce a Similar Chronic Myeloid Leukemia\u2013like Syndrome in Mice but Have Different Lymphoid Leukemogenic Activity", "authors": [{"authorId": "10036923", "name": "Shaoguang Li"}, {"authorId": "50241019", "name": "R. Ilaria"}, {"authorId": "4111672", "name": "R. Million"}, {"authorId": "2028224", "name": "G. Daley"}, {"authorId": "88389976", "name": "R. V. van Etten"}]}, {"paperId": "4b020322d2798dde80ea4ba0de16264c1a609692", "title": "Aberrant Recruitment of the Nuclear Receptor Corepressor-Histone Deacetylase Complex by the Acute Myeloid Leukemia Fusion Partner ETO", "authors": [{"authorId": "4917788", "name": "V. Gelmetti"}, {"authorId": "2108141123", "name": "Jinsong Zhang"}, {"authorId": "38754305", "name": "M. Fanelli"}, {"authorId": "4406801", "name": "S. Minucci"}, {"authorId": "49028750", "name": "P. Pelicci"}, {"authorId": "4625486", "name": "M. Lazar"}]}, {"paperId": "42fa71bfa55b1a5ecaae725c48d938473d4ab243", "title": "Requirement of Src kinases Lyn, Hck and Fgr for BCR-ABL1-induced B-lymphoblastic leukemia but not chronic myeloid leukemia", "authors": [{"authorId": "5661695", "name": "Yiguo Hu"}, {"authorId": "2108172924", "name": "Yuhua Liu"}, {"authorId": "2461772", "name": "Shawn D. Pelletier"}, {"authorId": "3971126", "name": "E. Buchdunger"}, {"authorId": "15503689", "name": "M. Warmuth"}, {"authorId": "2169345", "name": "D. Fabbro"}, {"authorId": "24778751", "name": "M. Hallek"}, {"authorId": "21807453", "name": "R. A. Etten"}, {"authorId": "10036923", "name": "Shaoguang Li"}]}, {"paperId": "9e3e1665859d5cef6f793fbde4e35cc778362e46", "title": "Chronic lymphocytic leukemia.", "authors": [{"authorId": "2526905", "name": "C. Rozman"}, {"authorId": "3732675", "name": "E. Montserrat"}]}, {"paperId": "4c367dd3d887f4b03978d93221634c7b8dcfb83a", "title": "AML1/ETO-expressing nonleukemic stem cells in acute myelogenous leukemia with 8;21 chromosomal translocation.", "authors": [{"authorId": "1889571", "name": "T. Miyamoto"}, {"authorId": "2325553", "name": "I. Weissman"}, {"authorId": "3149502", "name": "K. Akashi"}]}, {"paperId": "0767722b019738f53eddac3c6815b99bbe3259bb", "title": "Leukemia and lymphoma in ataxia telangiectasia.", "authors": [{"authorId": "145809527", "name": "A. Taylor"}, {"authorId": "49445695", "name": "J. Metcalfe"}, {"authorId": "4438370", "name": "J. Thick"}, {"authorId": "120446423", "name": "Y. Mak"}]}]}
