{"total": 780807, "offset": 650, "next": 700, "data": [{"paperId": "d7b36b019fca2ff1e4a083c491262d2e5e0ca091", "title": "Leukemia in breast cancer patients following adjuvant chemotherapy or postoperative radiation: the NSABP experience.", "authors": [{"authorId": "145423560", "name": "B. Fisher"}, {"authorId": "2676370", "name": "H. Rockette"}, {"authorId": "2083026795", "name": "E. Fisher"}, {"authorId": "3610914", "name": "D. Wickerham"}, {"authorId": "3006644", "name": "C. Redmond"}, {"authorId": "2107750321", "name": "A. Brown"}]}, {"paperId": "8a3e3e07a9e28fc0a94ce6cbf19d0bcd0d07dfba", "title": "Granulocytic sarcoma in childhood leukemia: imaging features.", "authors": [{"authorId": "5732526", "name": "M. Pui"}, {"authorId": "3952659", "name": "B. Fletcher"}, {"authorId": "2346603", "name": "J. Langston"}]}, {"paperId": "2cdc0d5399b969cce82b2755aeb94fa0da9fe093", "title": "Methods in laboratory investigation. Application of the indirect enzyme-linked immunosorbent assay microtest to the detection and surveillance of human t cell leukemia-lymphoma virus.", "authors": [{"authorId": "3598463", "name": "C. Saxinger"}, {"authorId": "74941680", "name": "R. Gallo"}]}, {"paperId": "c729d46b56f6ff351e7272082722b5d87b7d0d8d", "title": "BAALC, the human member of a novel mammalian neuroectoderm gene lineage, is implicated in hematopoiesis and acute leukemia", "authors": [{"authorId": "34676334", "name": "S. M. Tanner"}, {"authorId": "2086207245", "name": "J. Austin"}, {"authorId": "32624813", "name": "G. Leone"}, {"authorId": "6266752", "name": "L. Rush"}, {"authorId": "3203376", "name": "C. Plass"}, {"authorId": "50389439", "name": "K. Heinonen"}, {"authorId": "1688685", "name": "K. Mr\u00f3zek"}, {"authorId": "144225997", "name": "H. Sill"}, {"authorId": "1847422", "name": "S. Knuutila"}, {"authorId": "6611574", "name": "J. Kolitz"}, {"authorId": "2472086", "name": "K. Archer"}, {"authorId": "6921786", "name": "M. Caligiuri"}, {"authorId": "3411384", "name": "C. Bloomfield"}, {"authorId": "3597724", "name": "A. de la Chapelle"}]}, {"paperId": "862299f4ea397d1b163331b250d2826c8ab25c3a", "title": "Decreasing risk of leukemia with prolonged follow-up after chemotherapy and radiotherapy for Hodgkin's disease.", "authors": [{"authorId": "4778970", "name": "D. Blayney"}, {"authorId": "1943497", "name": "D. Longo"}, {"authorId": "51359821", "name": "R. Young"}, {"authorId": "145594001", "name": "M. Greene"}, {"authorId": "2742935", "name": "S. Hubbard"}, {"authorId": "50103739", "name": "M. Postal"}, {"authorId": "5405693", "name": "P. Duffey"}, {"authorId": "7789714", "name": "V. Devita"}]}, {"paperId": "a6a401f2dba445a6112c6b162986de7a691be00a", "title": "Interaction of acute leukemia cells with the bone marrow microenvironment: implications for control of minimal residual disease.", "authors": [{"authorId": "81661327", "name": "K. Bradstock"}, {"authorId": "31453911", "name": "D. Gottlieb"}]}, {"paperId": "b2d8286854e2a661a0e8ee2623e206bc8dda5078", "title": "Deregulated expression of TCL1 causes T cell leukemia in mice.", "authors": [{"authorId": "6066626", "name": "L. Virgilio"}, {"authorId": "35169910", "name": "C. Lazzeri"}, {"authorId": "15471445", "name": "R. Bichi"}, {"authorId": "145676001", "name": "K. Nibu"}, {"authorId": "5410085", "name": "M. G. Narducci"}, {"authorId": "49440476", "name": "G. Russo"}, {"authorId": "33420516", "name": "J. Rothstein"}, {"authorId": "144749275", "name": "C. Croce"}]}, {"paperId": "1553e7e9d03da55e3ac93fa7099913d5fe7ff544", "title": "Bone marrow transplants may cure patients with acute leukemia never achieving remission with chemotherapy.", "authors": [{"authorId": "2629386", "name": "J. Biggs"}, {"authorId": "34953677", "name": "M. Horowitz"}, {"authorId": "144516652", "name": "R. Gale"}, {"authorId": "2291608", "name": "R. Ash"}, {"authorId": "39212864", "name": "K. Atkinson"}, {"authorId": "1794111", "name": "W. Helbig"}, {"authorId": "1752078", "name": "N. Jacobsen"}, {"authorId": "145717792", "name": "G. Phillips"}, {"authorId": "153669911", "name": "A. Rimm"}, {"authorId": "5560556", "name": "O. Ringd\u00e9n"}]}, {"paperId": "fb74bb1920fde80da5865b8b7afe78050819eea3", "title": "Bcl-2 Cooperates with Promyelocytic Leukemia Retinoic Acid Receptor \u03b1 Chimeric Protein (Pmlrar\u03b1) to Block Neutrophil Differentiation and Initiate Acute Leukemia", "authors": [{"authorId": "144621166", "name": "S. Kogan"}, {"authorId": "49139220", "name": "Diane E. Brown"}, {"authorId": "46942540", "name": "D. Shultz"}, {"authorId": "36048447", "name": "Bao-Tran H. Truong"}, {"authorId": "1397991894", "name": "V. Lallemand-Breitenbach"}, {"authorId": "40506500", "name": "M. Guillemin"}, {"authorId": "6319731", "name": "E. Lagasse"}, {"authorId": "2325553", "name": "I. Weissman"}, {"authorId": "39726344", "name": "J. Bishop"}]}, {"paperId": "79504eb8f33b2b5b0235eb332f6da2409d80a37b", "title": "Fetal and neonatal leukemia.", "authors": [{"authorId": "145694000", "name": "H. Isaacs"}]}, {"paperId": "2111d9108c4c0d770294c55e72e860a4c26469b2", "title": "Constitutive expression of the granulocyte-macrophage colony-stimulating factor gene in acute myeloblastic leukemia.", "authors": [{"authorId": "144152828", "name": "D. Young"}, {"authorId": "2385014", "name": "K. Wagner"}, {"authorId": "46954436", "name": "J. Griffin"}]}, {"paperId": "ba64ee6ab3775f6472c3cb7072dd0bc6e374e068", "title": "Secondary leukemia associated with a conventional dose of etoposide: review of serial germ cell tumor protocols.", "authors": [{"authorId": "2209898", "name": "Craig R. Nichols"}, {"authorId": "32397742", "name": "E. Breeden"}, {"authorId": "4451428", "name": "P. Loehrer"}, {"authorId": "2107719436", "name": "S. Williams"}, {"authorId": "4624547", "name": "L. Einhorn"}]}, {"paperId": "8380c1dd5975800ca9b83d3ff12c2ce64c9fb575", "title": "Occupational and Residential Magnetic Field Exposure and Leukemia and Central Nervous System Tumors", "authors": [{"authorId": "4832136", "name": "M. Feychting"}, {"authorId": "5647826", "name": "U. Forss\u00e9n"}, {"authorId": "3664675", "name": "B. Floderus"}]}, {"paperId": "da1be6693bdfed2df6a691fe4c72966593878954", "title": "BCR/ABL: from molecular mechanisms of leukemia induction to treatment of chronic myelogenous leukemia", "authors": [{"authorId": "6221505", "name": "S. Salesse"}, {"authorId": "1860705", "name": "C. Verfaillie"}]}, {"paperId": "049ce0d559a95a3bbaf204f11cd1228edc39afd7", "title": "Retinoic acid. Inhibition of the clonal growth of human myeloid leukemia cells.", "authors": [{"authorId": "6042582", "name": "D. Douer"}, {"authorId": "144423605", "name": "H. Koeffler"}]}, {"paperId": "7f677311870f7e1645807a260459a03d5f6894af", "title": "Leukemia risk following Hodgkin's disease: relation to cumulative dose of alkylating agents, treatment with teniposide combinations, number of episodes of chemotherapy, and bone marrow damage.", "authors": [{"authorId": "2979096", "name": "F. V. van Leeuwen"}, {"authorId": "6189341", "name": "A. Chorus"}, {"authorId": "1398031831", "name": "A. W. van den Belt-Dusebout"}, {"authorId": "3929196", "name": "A. Hagenbeek"}, {"authorId": "12698853", "name": "R. Noyon"}, {"authorId": "12773925", "name": "E. H. van Kerkhoff"}, {"authorId": "81992313", "name": "H. Pinedo"}, {"authorId": "4867163", "name": "R. Somers"}]}, {"paperId": "399ffb162f7f462205e2c627bf7be851a18cefac", "title": "Pharmacologically directed design of the dose rate and schedule of 2',2'-difluorodeoxycytidine (Gemcitabine) administration in leukemia.", "authors": [{"authorId": "40028747", "name": "R. Grunewald"}, {"authorId": "49096572", "name": "H. Kantarjian"}, {"authorId": "2091897", "name": "M. Keating"}, {"authorId": "5192828", "name": "J. Abbruzzese"}, {"authorId": "11341146", "name": "P. Tarassoff"}, {"authorId": "2702839", "name": "W. Plunkett"}]}, {"paperId": "13105c602a432c6b9b1988e95606fb9b5fb32bfc", "title": "Retinoid differentiation therapy in promyelocytic leukemia", "authors": [{"authorId": "5915667", "name": "C. Chomienne"}, {"authorId": "4545166", "name": "P. Fenaux"}, {"authorId": "2374186", "name": "L. Degos"}]}, {"paperId": "0b50385cb09010f59e24032052aa21d9aaa172c4", "title": "Hoxa9 influences the phenotype but not the incidence of Mll-AF9 fusion gene leukemia.", "authors": [{"authorId": "1409652614", "name": "Ashish Kumar"}, {"authorId": "48766532", "name": "W. Hudson"}, {"authorId": "48994231", "name": "Weili Chen"}, {"authorId": "7330851", "name": "R. Nishiuchi"}, {"authorId": "47421013", "name": "Q. Yao"}, {"authorId": "144691543", "name": "J. Kersey"}]}, {"paperId": "fc2f11da81d5a8196595599c9a01d8a00e1030ea", "title": "FLJ10849, a septin family gene, fuses MLL in a novel leukemia cell line CNLBC1 derived from chronic neutrophilic leukemia in transformation with t(4;11)(q21;q23)", "authors": [{"authorId": "2090496", "name": "K. Kojima"}, {"authorId": "3941708", "name": "I. Sakai"}, {"authorId": "1697066", "name": "A. Hasegawa"}, {"authorId": "50116384", "name": "H. Niiya"}, {"authorId": "35491039", "name": "T. Azuma"}, {"authorId": "2044140", "name": "Y. Matsuo"}, {"authorId": "3671484", "name": "N. Fujii"}, {"authorId": "83419294", "name": "M. Tanimoto"}, {"authorId": "1721803", "name": "S. Fujita"}]}, {"paperId": "4f9ac52f004916a7b4766eb1757fb8174581c836", "title": "Real-time quantitative PCR for detection of minimal residual disease before allogeneic stem cell transplantation predicts outcome in children with acute lymphoblastic leukemia", "authors": [{"authorId": "14679710", "name": "V. V. D. Velden"}, {"authorId": "148068986", "name": "S. Joosten"}, {"authorId": "91020555", "name": "M. Willemse"}, {"authorId": "117232286", "name": "E. V. Wering"}, {"authorId": "2070907571", "name": "AW Lankester"}, {"authorId": "84568133", "name": "J. V. Dongen"}, {"authorId": "123133250", "name": "P. Hoogerbrugge"}]}, {"paperId": "ac1d06230ff7cc7fbcd509a4f598f53b56d81755", "title": "Molecular genetics in acute leukemia", "authors": [{"authorId": "81198053", "name": "J. Rowley"}]}, {"paperId": "b7e7b36fb110a6f48c6344a30ff9837d04fdbc0c", "title": "The synthetic peptide PFWT disrupts AF4\u2013AF9 protein complexes and induces apoptosis in t(4;11) leukemia cells", "authors": [{"authorId": "34172264", "name": "R. Srinivasan"}, {"authorId": "30025081", "name": "J. Nesbit"}, {"authorId": "107895477", "name": "L. Marrero"}, {"authorId": "7805824", "name": "F. Erfurth"}, {"authorId": "10177149", "name": "V. Larussa"}, {"authorId": "4382261", "name": "C. Hemenway"}]}, {"paperId": "27a6e7e9ee72a3fef536f1ac78a404bf8c7aadb8", "title": "The genetics of familial leukemia", "authors": [{"authorId": "3593625", "name": "M. Horwitz"}]}, {"paperId": "b7db71042ad9b9ca6cfc98461b8d987ceb7b20f5", "title": "Induction of differentiation of human myeloid leukemia cells by jasmonates, plant hormones", "authors": [{"authorId": "153291328", "name": "Y. Ishii"}, {"authorId": "6156699", "name": "H. Kiyota"}, {"authorId": "3547222", "name": "S. Sakai"}, {"authorId": "1684627", "name": "Y. Honma"}]}, {"paperId": "fdc82e8e23892353357f9eb47229a9c0d2658839", "title": "Investigation of karyotypic, morphologic and clinical features in patients with acute myeloid leukemia blast cells expressing the neural cell adhesion molecule (CD56).", "authors": [{"authorId": "2593801", "name": "J. Seymour"}, {"authorId": "47415025", "name": "S. Pierce"}, {"authorId": "49096572", "name": "H. Kantarjian"}, {"authorId": "2091897", "name": "M. Keating"}, {"authorId": "47208649", "name": "E. Estey"}]}, {"paperId": "560a8c971db04237908556b435911bc604698df6", "title": "Increased Evi-1 expression is frequently observed in blastic crisis of chronic myelocytic leukemia.", "authors": [{"authorId": "83368858", "name": "S. Ogawa"}, {"authorId": "49682044", "name": "M. Kurokawa"}, {"authorId": "2157345571", "name": "T. Tanaka"}, {"authorId": "144802270", "name": "K. Tanaka"}, {"authorId": "7231153", "name": "A. Hangaishi"}, {"authorId": "34825001", "name": "K. Mitani"}, {"authorId": "4602465", "name": "N. Kamada"}, {"authorId": "2256426", "name": "Y. Yazaki"}, {"authorId": "2651563", "name": "H. Hirai"}]}, {"paperId": "381e89683b49deaba2881a24b1ab4c68aad3f79d", "title": "Vitamin K2 and its derivatives induce apoptosis in leukemia cells and enhance the effect of all-trans retinoic acid", "authors": [{"authorId": "3448551", "name": "M. Yaguchi"}, {"authorId": "35753594", "name": "K. Miyazawa"}, {"authorId": "7367122", "name": "T. Katagiri"}, {"authorId": "8203567", "name": "J. Nishimaki"}, {"authorId": "5615829", "name": "M. Kizaki"}, {"authorId": "35143793", "name": "K. Tohyama"}, {"authorId": "50123795", "name": "K. Toyama"}]}, {"paperId": "92c12062631929724613ea3ad4aa5e010242fa8b", "title": "Secondary acute leukemia and myelodysplastic syndrome with 11q23 abnormalities", "authors": [{"authorId": "1411097376", "name": "L. Secker-Walker"}, {"authorId": "119653402", "name": "A. Moorman"}, {"authorId": "122693495", "name": "B. Bain"}, {"authorId": "2114813598", "name": "A. Mehta"}]}, {"paperId": "653d13103d93e51eacf6a00b0e1a50d03e091e24", "title": "Significantly lower P-glycoprotein expression in acute promyelocytic leukemia than in other types of acute myeloid leukemia: immunological, molecular and functional analyses.", "authors": [{"authorId": "3638156", "name": "E. Paietta"}, {"authorId": "3268828", "name": "J. Andersen"}, {"authorId": "4787167", "name": "J. Racevskis"}, {"authorId": "145137484", "name": "R. Gallagher"}, {"authorId": "143732087", "name": "J. Bennett"}, {"authorId": "47071969", "name": "J. Yunis"}, {"authorId": "32132530", "name": "P. Cassileth"}, {"authorId": "152880441", "name": "P. Wiernik"}]}, {"paperId": "8e72534cf692e3b6420e09ff082f545a037c18a1", "title": "Molecular analysis of the CALM/AF10 fusion: identical rearrangements in acute myeloid leukemia, acute lymphoblastic leukemia and malignant lymphoma patients", "authors": [{"authorId": "2073599671", "name": "S. Bohlander"}, {"authorId": "11541026", "name": "V. Muschinsky"}, {"authorId": "2073935821", "name": "K. Schrader"}, {"authorId": "143863002", "name": "R. Siebert"}, {"authorId": "5318377", "name": "B. Schlegelberger"}, {"authorId": "121492761", "name": "L. Harder"}, {"authorId": "13350102", "name": "V. Schemmel"}, {"authorId": "4366986", "name": "C. Fonatsch"}, {"authorId": "93446559", "name": "W. Ludwig"}, {"authorId": "145630229", "name": "W. Hiddemann"}, {"authorId": "4810797", "name": "M. Dreyling"}]}, {"paperId": "30eb83b871ae49262cecee1ed4617d5730d65a2d", "title": "Lineage commitment in biphenotypic acute leukemia.", "authors": [{"authorId": "3941417", "name": "V. Buccheri"}, {"authorId": "6416325", "name": "E. Matutes"}, {"authorId": "82482689", "name": "M. Dyer"}, {"authorId": "4849492", "name": "D. Catovsky"}]}, {"paperId": "4f91ace1e7a3b989f4df8c18f8edd3c94dd26ddc", "title": "Monoclonal antibody M195: a diagnostic marker for acute myelogenous leukemia.", "authors": [{"authorId": "4864508", "name": "D. Scheinberg"}, {"authorId": "83419294", "name": "M. Tanimoto"}, {"authorId": "2348604", "name": "S. McKenzie"}, {"authorId": "3719757", "name": "A. Strife"}, {"authorId": "145766270", "name": "L. Old"}, {"authorId": "2633470", "name": "B. Clarkson"}]}, {"paperId": "2b53e09d2618ec96249d6761933af3019c0e03c5", "title": "Frequency and clinical significance of the MLL gene rearrangements in infant acute leukemia.", "authors": [{"authorId": "40616689", "name": "T. Taki"}, {"authorId": "3762777", "name": "K. Ida"}, {"authorId": "2433618", "name": "F. Bessho"}, {"authorId": "3522351", "name": "R. Hanada"}, {"authorId": "49226707", "name": "A. Kikuchi"}, {"authorId": "2107575770", "name": "K. Yamamoto"}, {"authorId": "47634683", "name": "M. Sako"}, {"authorId": "3933156", "name": "M. Tsuchida"}, {"authorId": "48683773", "name": "M. Seto"}, {"authorId": "32009139", "name": "R. Ueda"}, {"authorId": "67211903", "name": "Y. Hayashi"}]}, {"paperId": "40b8cac8c2db8a8ba33dd0e91e1563599c24b65d", "title": "The reliability of cytoplasmic CD3 and CD22 antigen expression in the immunodiagnosis of acute leukemia: a study of 500 cases.", "authors": [{"authorId": "1834857", "name": "G. Janossy"}, {"authorId": "1390067028", "name": "E. Coustan-Smith"}, {"authorId": "8965350", "name": "D. Campana"}]}, {"paperId": "96487d508a05f50cbe444bfc55edad8171cf1b5e", "title": "Tumor Growth Need Not Be Driven by Rare Cancer Stem Cells", "authors": [{"authorId": "2723093", "name": "P. Kelly"}, {"authorId": "4846896", "name": "A. Dakic"}, {"authorId": "1950853", "name": "Jerry M. Adams"}, {"authorId": "4164096", "name": "S. Nutt"}, {"authorId": "1992130", "name": "A. Strasser"}]}, {"paperId": "3895592aff966774751f48be9e5c2d2846479263", "title": "Expression of the candidate Wilm's tumor gene, WT1, in human leukemia cells.", "authors": [{"authorId": "1922175488", "name": "T. Miyagi"}, {"authorId": "1960218", "name": "H. Ahuja"}, {"authorId": "7859797", "name": "T. Kubota"}, {"authorId": "7699523", "name": "I. Kubonishi"}, {"authorId": "144423605", "name": "H. Koeffler"}, {"authorId": "2110673", "name": "I. Miyoshi"}]}, {"paperId": "7c794482b268627138e33131827d0209711a0547", "title": "Detection of minimal residual disease in acute leukemia by immunological marker analysis and polymerase chain reaction.", "authors": [{"authorId": "145183636", "name": "J. V. van Dongen"}, {"authorId": "148183643", "name": "T. Breit"}, {"authorId": "9858526", "name": "H. Adriaansen"}, {"authorId": "31714638", "name": "A. Beishuizen"}, {"authorId": "5687202", "name": "H. Hooijkaas"}]}, {"paperId": "0b53cb7c212f20089af59f052ab30cdf5e5fd3ca", "title": "Quantitation of minimal residual disease in acute promyelocytic leukemia patients with t(15;17) translocation using real-time RT-PCR", "authors": [{"authorId": "5244624", "name": "B. Cassinat"}, {"authorId": "10761536", "name": "F. Zassadowski"}, {"authorId": "5530966", "name": "N. Balitrand"}, {"authorId": "7447638", "name": "C. Barbey"}, {"authorId": "2059628706", "name": "J. Rain"}, {"authorId": "4545166", "name": "P. Fenaux"}, {"authorId": "2374186", "name": "L. Degos"}, {"authorId": "4452761", "name": "M. Vidaud"}, {"authorId": "5915667", "name": "C. Chomienne"}]}, {"paperId": "f07d98b4c9bb8f8fc9ba4a749744745eb33156c6", "title": "Therapy-related myelodysplasia and acute myeloid leukemia. Cytogenetic characteristics of 115 consecutive cases and risk in seven cohorts of patients treated intensively for malignant diseases in the Copenhagen series.", "authors": [{"authorId": "1401116506", "name": "J. Pedersen\u2010Bjergaard"}, {"authorId": "50029304", "name": "P. Philip"}, {"authorId": "2509322", "name": "S. Larsen"}, {"authorId": "144935304", "name": "M. Andersson"}, {"authorId": "1986772", "name": "G. Daugaard"}, {"authorId": "12370391", "name": "J. Ersb\u00f8ll"}, {"authorId": "12995345", "name": "S. W. Hansen"}, {"authorId": "1401888505", "name": "K. Hou\u2010Jensen"}, {"authorId": "50485202", "name": "D. Nielsen"}, {"authorId": "144251485", "name": "T. Sigsgaard"}]}, {"paperId": "eded740257d07f6183749aa0540a66a1d3cc180e", "title": "Resistance of Philadelphia-chromosome positive leukemia towards the kinase inhibitor imatinib (STI571, Glivec): a targeted oncoprotein strikes back", "authors": [{"authorId": "16649232", "name": "N. Bubnoff"}, {"authorId": "5281922", "name": "C. Peschel"}, {"authorId": "6414928", "name": "J. Duyster"}]}, {"paperId": "272ec8149fe961de7c95bd2c232017db14846a28", "title": "Megakaryoblastic leukemia and Down's syndrome: a review.", "authors": [{"authorId": "4463186", "name": "A. Zipursky"}, {"authorId": "153881785", "name": "M. Peeters"}, {"authorId": "49242122", "name": "A. Poon"}]}, {"paperId": "f6989f7b639a8e0d431cff705bdff9af0e8b0057", "title": "The incidence of central nervous system leukemia in adults with acute leukemia", "authors": [{"authorId": "122378257", "name": "R. Wolk"}, {"authorId": "39335384", "name": "S. Masse"}, {"authorId": "37109773", "name": "R. Conklin"}, {"authorId": "4251409", "name": "E. Freireich"}]}, {"paperId": "b686278c1be2bee3b799e919741e7029182326e9", "title": "Bullous pyoderma gangrenosum and leukemia.", "authors": [{"authorId": "2262929", "name": "H. Perry"}, {"authorId": "2247496", "name": "R. Winkelmann"}]}, {"paperId": "3054ade426827c1010fa10ea39d0493e6c624e1c", "title": "Quality of life for adult leukemia survivors treated on clinical trials of cancer and leukemia group B during the period 1971\u20101988", "authors": [{"authorId": "46925420", "name": "D. Greenberg"}, {"authorId": "145428185", "name": "A. Kornblith"}, {"authorId": "84365140", "name": "J. Herndon"}, {"authorId": "35581023", "name": "E. Zuckerman"}, {"authorId": "3518135", "name": "C. Schiffer"}, {"authorId": "1791720", "name": "R. Weiss"}, {"authorId": "40048828", "name": "R. Mayer"}, {"authorId": "2087164513", "name": "S. Wolchok"}, {"authorId": "145282903", "name": "J. Holland"}]}, {"paperId": "d6d85b48eed3f0f1c3f77fd5f5a17cc20780676b", "title": "A comparative study of central nervous system irradiation and intensive chemotherapy early in remission of childhood acute lymphocytic leukemia", "authors": [{"authorId": "7679486", "name": "R. Aur"}, {"authorId": "80892341", "name": "J. Simone"}, {"authorId": "8540078", "name": "H. O. Hustu"}, {"authorId": "3951359", "name": "M. Verzosa"}]}, {"paperId": "4f19ad3486dbe5223006492892e86f62164212c6", "title": "Adoptive immunotherapy of acute leukemia: experimental and clinical results.", "authors": [{"authorId": "3641329", "name": "G. Math\u00e9"}, {"authorId": "144518895", "name": "J. Amiel"}, {"authorId": "8340754", "name": "L. Schwarzenberg"}, {"authorId": "145855011", "name": "A. Cattan"}, {"authorId": "2107764036", "name": "M. Schneider"}]}, {"paperId": "eb8b6414f1a552e2146fc6900557f01bccdc008d", "title": "A human thymus-leukemia antigen defined by hybridoma monoclonal antibodies.", "authors": [{"authorId": "2166986421", "name": "R. Levy"}, {"authorId": "145503329", "name": "J. Dilley"}, {"authorId": "31826704", "name": "R. Fox"}, {"authorId": "3120034", "name": "R. Warnke"}]}, {"paperId": "a221f1041bdf2267966085d28aceec58ff3a5d9a", "title": "Clinical, histopathologic, and immunohistochemical correlations in leukemia cutis.", "authors": [{"authorId": "1870084", "name": "W. Su"}]}, {"paperId": "a1668d60cc9841ec2ba8f4a6328dbdff1d79a22d", "title": "Leukemia and Ionizing Radiation", "authors": [{"authorId": "34472926", "name": "E. Lewis"}]}]}
