{"total": 780807, "offset": 400, "next": 450, "data": [{"paperId": "3621cdabda7238b5466657d215695ab7eb242b6f", "title": "NOTCH1-induced T-cell leukemia in transgenic zebrafish", "authors": [{"authorId": "49252703", "name": "J. Chen"}, {"authorId": "5636185", "name": "C. Jette"}, {"authorId": "6122783", "name": "J. Kanki"}, {"authorId": "4788009", "name": "J. Aster"}, {"authorId": "145348521", "name": "A. Look"}, {"authorId": "46954436", "name": "J. Griffin"}]}, {"paperId": "33780ed27bb2b864bc54c53541aa23ca60c9fe2f", "title": "The emerging role of Wnt signaling in the pathogenesis of acute myeloid leukemia", "authors": [{"authorId": "3528686", "name": "Jan-Henrik Mikesch"}, {"authorId": "144060954", "name": "B. Steffen"}, {"authorId": "5482041", "name": "W. Berdel"}, {"authorId": "2557246", "name": "H. Serve"}, {"authorId": "1397412040", "name": "C. M\u00fcller-Tidow"}]}, {"paperId": "be47a65ee29957d839caf626936439ad8a182e36", "title": "Acute myeloid leukemia cells constitutively express the immunoregulatory enzyme indoleamine 2,3-dioxygenase", "authors": [{"authorId": "120546593", "name": "A. Curti"}, {"authorId": "34958021", "name": "M. Aluigi"}, {"authorId": "145777157", "name": "S. Pandolfi"}, {"authorId": "40640708", "name": "E. Ferri"}, {"authorId": "48349880", "name": "A. Isidori"}, {"authorId": "4518084", "name": "V. Salvestrini"}, {"authorId": "9907655", "name": "I. Durelli"}, {"authorId": "5235254", "name": "A. Horenstein"}, {"authorId": "51002226", "name": "F. Fiore"}, {"authorId": "4735084", "name": "M. Massaia"}, {"authorId": "3534865", "name": "M. Piccioli"}, {"authorId": "5217780", "name": "S. Pileri"}, {"authorId": "47841387", "name": "E. Zavatto"}, {"authorId": "1394736271", "name": "A. D\u2019Addio"}, {"authorId": "6295950", "name": "M. Baccarani"}, {"authorId": "153656455", "name": "R. Lemoli"}]}, {"paperId": "c405ea124469b15d268af07310f1464f36caff0e", "title": "Genetic polymorphism of thiopurine methyltransferase and its clinical relevance for childhood acute lymphoblastic leukemia", "authors": [{"authorId": "47253688", "name": "H. Mcleod"}, {"authorId": "4189929", "name": "E. Krynetski"}, {"authorId": "88006718", "name": "M. Relling"}, {"authorId": "144141197", "name": "W. Evans"}]}, {"paperId": "4a4d1247da6d1ca77b045a9e8033ac213314ee82", "title": "Biological and therapeutic aspects of infant leukemia.", "authors": [{"authorId": "144074543", "name": "A. Biondi"}, {"authorId": "144253926", "name": "G. Cimino"}, {"authorId": "87864379", "name": "R. Pieters"}, {"authorId": "143836865", "name": "C. Pui"}]}, {"paperId": "e0c41214e9fa39d9d7d08e9960613753b50246af", "title": "Expression of Polycomb-group (PcG) protein BMI-1 predicts prognosis in patients with acute myeloid leukemia", "authors": [{"authorId": "100582176", "name": "M. Chowdhury"}, {"authorId": "16292498", "name": "K. Mihara"}, {"authorId": "2075856528", "name": "S. Yasunaga"}, {"authorId": "2303421", "name": "M. Ohtaki"}, {"authorId": "32919077", "name": "Y. Takihara"}, {"authorId": "50183941", "name": "A. Kimura"}]}, {"paperId": "0985523e3b4848250969b7e22e9638e4bc9dc1a9", "title": "The t(8;9)(p22;p24) is a recurrent abnormality in chronic and acute leukemia that fuses PCM1 to JAK2.", "authors": [{"authorId": "145065398", "name": "A. Reiter"}, {"authorId": "50086272", "name": "C. Walz"}, {"authorId": "3521318", "name": "A. Watmore"}, {"authorId": "145934200", "name": "C. Schoch"}, {"authorId": "13089583", "name": "I. Blau"}, {"authorId": "5318377", "name": "B. Schlegelberger"}, {"authorId": "144791819", "name": "U. Berger"}, {"authorId": "123936315", "name": "N. Telford"}, {"authorId": "14217247", "name": "S. Aruliah"}, {"authorId": "2116622876", "name": "J. Yin"}, {"authorId": "5257430", "name": "D. Vanstraelen"}, {"authorId": "12243226", "name": "H. F. Barker"}, {"authorId": "143889872", "name": "P. Taylor"}, {"authorId": "1421509638", "name": "A. O'Driscoll"}, {"authorId": "1388508251", "name": "F. Benedetti"}, {"authorId": "50454925", "name": "C. Rudolph"}, {"authorId": "152815108", "name": "H. Kolb"}, {"authorId": "3215981", "name": "A. Hochhaus"}, {"authorId": "3636199", "name": "R. Hehlmann"}, {"authorId": "4497835", "name": "A. Chase"}, {"authorId": "145129586", "name": "N. Cross"}]}, {"paperId": "05848a1421a8785ee7d4a95697fa38b94c3f5878", "title": "Clinical and biological implications of driver mutations in myelodysplastic syndromes.", "authors": [{"authorId": "3058362", "name": "E. Papaemmanuil"}, {"authorId": "2420343", "name": "M. Gerstung"}, {"authorId": "4474269", "name": "L. Malcovati"}, {"authorId": "2810175", "name": "S. Tauro"}, {"authorId": "2612458", "name": "G. Gundem"}, {"authorId": "2358657", "name": "P. Van Loo"}, {"authorId": "10816090", "name": "Christopher J. Yoon"}, {"authorId": "153410218", "name": "Peter Ellis"}, {"authorId": "2824722", "name": "D. Wedge"}, {"authorId": "4157607", "name": "A. Pellagatti"}, {"authorId": "2331769", "name": "A. Shlien"}, {"authorId": "49364426", "name": "M. Groves"}, {"authorId": "12944583", "name": "S. Forbes"}, {"authorId": "25578901", "name": "K. Raine"}, {"authorId": "39429673", "name": "J. Hinton"}, {"authorId": "3549011", "name": "L. Mudie"}, {"authorId": "3846300", "name": "S. McLaren"}, {"authorId": "2715587", "name": "C. Hardy"}, {"authorId": "2398387", "name": "Calli Latimer"}, {"authorId": "122394913", "name": "M. D. Della Porta"}, {"authorId": "1396795633", "name": "S. O'meara"}, {"authorId": "3897309", "name": "I. Ambaglio"}, {"authorId": "143908634", "name": "A. Gall\u00ec"}, {"authorId": "37955611", "name": "A. Butler"}, {"authorId": "14724449", "name": "G. Walldin"}, {"authorId": "1800420", "name": "J. Teague"}, {"authorId": "2702307", "name": "L. Quek"}, {"authorId": "153286691", "name": "A. Sternberg"}, {"authorId": "1400862251", "name": "C. Gambacorti-Passerini"}, {"authorId": "145129586", "name": "N. Cross"}, {"authorId": "144962114", "name": "A. Green"}, {"authorId": "5732447", "name": "J. Boultwood"}, {"authorId": "48041477", "name": "P. Vyas"}, {"authorId": "1400292380", "name": "E. Hellstr\u00f4m-Lindberg"}, {"authorId": "79771681", "name": "D. Bowen"}, {"authorId": "3528412", "name": "M. Cazzola"}, {"authorId": "144693778", "name": "M. Stratton"}, {"authorId": "145761328", "name": "P. Campbell"}]}, {"paperId": "4593e387d2687b477e84c43a997dd081c2643a80", "title": "Levels of selenium, zinc, copper, and antioxidant enzyme activity in patients with leukemia", "authors": [{"authorId": "13706864", "name": "X. Zuo"}, {"authorId": "2152370645", "name": "J. M. Chen"}, {"authorId": "2116446297", "name": "X. Zhou"}, {"authorId": "153010140", "name": "X. Li"}, {"authorId": "2053224973", "name": "G. Mei"}]}, {"paperId": "f415368c09db7324365cf845b9e080b05687107b", "title": "Skin lesions in chronic lymphocytic leukemia", "authors": [{"authorId": "3628959", "name": "E. Robak"}, {"authorId": "5096962", "name": "T. Robak"}]}, {"paperId": "9b95d6411abbe8025e1c50134934a0764657586a", "title": "Modeling the Initiation and Progression of Human Acute Leukemia in Mice", "authors": [{"authorId": "32084251", "name": "F. Barab\u00e9"}, {"authorId": "46268149", "name": "J. Kennedy"}, {"authorId": "36793198", "name": "Kristin J. Hope"}, {"authorId": "3053653", "name": "J. Dick"}]}, {"paperId": "818e7f89671abdef3e59f1725257aaa67e908b27", "title": "Benzene and leukemia: an epidemiologic risk assessment.", "authors": [{"authorId": "66242673", "name": "R. Rinsky"}]}, {"paperId": "7cf6dc0edce51de030c2ea60e1d45edb93150710", "title": "Lineage promiscuity in hemopoietic differentiation and leukemia.", "authors": [{"authorId": "33807869", "name": "M. Greaves"}, {"authorId": "81754203", "name": "L. Chan"}, {"authorId": "6492499", "name": "A. Furley"}, {"authorId": "1903794", "name": "S. Watt"}, {"authorId": "6556722", "name": "H. Molgaard"}]}, {"paperId": "458955c2046cbd7c2baa06e7d458c76138869a6a", "title": "The AML1-ETO fusion gene and the FLT3 length mutation collaborate in inducing acute leukemia in mice.", "authors": [{"authorId": "6844456", "name": "Christina Schessl"}, {"authorId": "103267498", "name": "V. P. Rawat"}, {"authorId": "9610136", "name": "M. Cusan"}, {"authorId": "32435619", "name": "A. Deshpande"}, {"authorId": "2067751338", "name": "T. Kohl"}, {"authorId": "4662228", "name": "P. Rosten"}, {"authorId": "2923965", "name": "K. Spiekermann"}, {"authorId": "144934960", "name": "R. Humphries"}, {"authorId": "2701920", "name": "S. Schnittger"}, {"authorId": "145091281", "name": "W. Kern"}, {"authorId": "145630229", "name": "W. Hiddemann"}, {"authorId": "1397487510", "name": "L. Quintanilla\u2010Martinez"}, {"authorId": "5423048", "name": "S. Bohlander"}, {"authorId": "1397412500", "name": "M. Feuring\u2010Buske"}, {"authorId": "3417231", "name": "C. Buske"}]}, {"paperId": "c1bb40e9a51ce90c7e703ba7bd5df1507870164d", "title": "Cloning and characterization of subunits of the T-cell receptor and murine leukemia virus enhancer core-binding factor", "authors": [{"authorId": "145545745", "name": "S. Wang"}, {"authorId": "2026666700", "name": "Q. Wang"}, {"authorId": "8576637", "name": "B. Crute"}, {"authorId": "49143036", "name": "I. Melnikova"}, {"authorId": "6070143", "name": "S. Keller"}, {"authorId": "4264076", "name": "N. Speck"}]}, {"paperId": "9071f7e7313da1e33792afd289fff457491db53c", "title": "Mutations in KIT and RAS are frequent events in pediatric core-binding factor acute myeloid leukemia", "authors": [{"authorId": "10209287", "name": "B. Goemans"}, {"authorId": "3543907", "name": "C. Zwaan"}, {"authorId": "2107494114", "name": "M. Miller"}, {"authorId": "145341615", "name": "M. Zimmermann"}, {"authorId": "2445784", "name": "A. Harlow"}, {"authorId": "5515125", "name": "S. Meshinchi"}, {"authorId": "152707108", "name": "A. Loonen"}, {"authorId": "3886784", "name": "K. H\u00e4hlen"}, {"authorId": "28758438", "name": "D. Reinhardt"}, {"authorId": "49505313", "name": "U. Creutzig"}, {"authorId": "145826856", "name": "G. Kaspers"}, {"authorId": "2858761", "name": "M. Heinrich"}]}, {"paperId": "a02d2264a967302d13f90a7ab1095b03b9d1f77f", "title": "Organization, distribution, and stability of endogenous ecotropic murine leukemia virus DNA sequences in chromosomes of Mus musculus", "authors": [{"authorId": "1708266", "name": "N. Jenkins"}, {"authorId": "3312579", "name": "N. Copeland"}, {"authorId": "2706317", "name": "B. Taylor"}, {"authorId": "2107498140", "name": "B. K. Lee"}]}, {"paperId": "0df7dcf04762323e97c00de64c6dba5604d65a85", "title": "Induction of a chronic myelogenous leukemia-like syndrome in mice with v-abl and BCR/ABL.", "authors": [{"authorId": "5739575", "name": "M. Kelliher"}, {"authorId": "49910880", "name": "J. McLaughlin"}, {"authorId": "6614731", "name": "O. Witte"}, {"authorId": "3011139", "name": "N. Rosenberg"}]}, {"paperId": "b52d795621162a686ff7d459528d35f400a89e2a", "title": "Chronic myelogenous leukemia: a concise update.", "authors": [{"authorId": "49096572", "name": "H. Kantarjian"}, {"authorId": "3976989", "name": "A. Deisseroth"}, {"authorId": "49319257", "name": "R. Kurzrock"}, {"authorId": "4976314", "name": "Z. Estrov"}, {"authorId": "5321920", "name": "M. Talpaz"}]}, {"paperId": "3279d1b69808f25f4641cd26c8df07efa5dbfdbb", "title": "Lasting remissions in hairy-cell leukemia induced by a single infusion of 2-chlorodeoxyadenosine.", "authors": [{"authorId": "38675765", "name": "L. Piro"}, {"authorId": "7507172", "name": "C. Carrera"}, {"authorId": "2940148", "name": "D. Carson"}, {"authorId": "5355831", "name": "E. Beutler"}]}, {"paperId": "e25d75433d3bff7b665ca34d198a642f92305aa1", "title": "Exposure to residential electric and magnetic fields and risk of childhood leukemia.", "authors": [{"authorId": "4166450", "name": "S. London"}, {"authorId": "39492806", "name": "D. Thomas"}, {"authorId": "15524864", "name": "J. Bowman"}, {"authorId": "50427535", "name": "E. Sobel"}, {"authorId": "93440181", "name": "T. Cheng"}, {"authorId": "143816541", "name": "J. Peters"}]}, {"paperId": "ced86929ac86feadce220e213e57e807453d99d7", "title": "Imatinib therapy in chronic myelogenous leukemia: strategies to avoid and overcome resistance", "authors": [{"authorId": "3215981", "name": "A. Hochhaus"}, {"authorId": "14401955", "name": "P. Rose\u0301e"}]}, {"paperId": "670e57962d8f560e2241168d3f60d496f3273b4e", "title": "The human type\u2010C retrovirus, HTLV, in blacks from the Caribbean region, and relationship to adult T\u2010cell leukemia/lymphoma", "authors": [{"authorId": "5481902", "name": "W. Blattner"}, {"authorId": "1798709", "name": "V. Kalyanaraman"}, {"authorId": "1400031347", "name": "M. Robert-Guroff"}, {"authorId": "144753175", "name": "T. Lister"}, {"authorId": "2068966477", "name": "D. Galton"}, {"authorId": "1811059", "name": "P. Sarin"}, {"authorId": "47266555", "name": "M. Crawford"}, {"authorId": "4849492", "name": "D. Catovsky"}, {"authorId": "2171955290", "name": "Melvin Greaves"}, {"authorId": "74941680", "name": "R. Gallo"}]}, {"paperId": "9118b433bb6d2249ff4ddd530f100f6c012727d7", "title": "Isolation and transmission of human retrovirus (human t-cell leukemia virus).", "authors": [{"authorId": "144398420", "name": "M. Popovi\u010d"}, {"authorId": "1811059", "name": "P. Sarin"}, {"authorId": "1438586604", "name": "M. Robert-Gurroff"}, {"authorId": "1798709", "name": "V. Kalyanaraman"}, {"authorId": "143914667", "name": "D. Mann"}, {"authorId": "5252416", "name": "J. Minowada"}, {"authorId": "74941680", "name": "R. Gallo"}]}, {"paperId": "c1183d0d7a8f64adc549b7c7af03d3f5a820df6f", "title": "Detection of minimal residual disease in acute leukemia: methodologic advances and clinical significance.", "authors": [{"authorId": "8965350", "name": "D. Campana"}, {"authorId": "143836865", "name": "C. Pui"}]}, {"paperId": "b860d547774d8bfdd06b3224f2d437dec0088fe9", "title": "In vivo eradication of human BCR/ABL-positive leukemia cells with an ABL kinase inhibitor.", "authors": [{"authorId": "7337117", "name": "P. le Coutre"}, {"authorId": "5866917", "name": "L. Mologni"}, {"authorId": "6555051", "name": "L. Cleris"}, {"authorId": "40640790", "name": "E. Marchesi"}, {"authorId": "81900810", "name": "E. Buchdunger"}, {"authorId": "6478634", "name": "R. Giardini"}, {"authorId": "5735863", "name": "F. Formelli"}, {"authorId": "1400862251", "name": "C. Gambacorti-Passerini"}]}, {"paperId": "4c1b67145cdf93783dd98ae535a251c7c4ab8ce4", "title": "Mutations in the gene for the granulocyte colony-stimulating-factor receptor in patients with acute myeloid leukemia preceded by severe congenital neutropenia.", "authors": [{"authorId": "47789799", "name": "F. Dong"}, {"authorId": "5825807", "name": "R. Brynes"}, {"authorId": "5834807", "name": "N. Tidow"}, {"authorId": "144353201", "name": "K. Welte"}, {"authorId": "2386963", "name": "B. L\u00f6wenberg"}, {"authorId": "2929345", "name": "I. Touw"}]}, {"paperId": "d7eec9bcbcbc001a9020a28f7e11c0af4f21068c", "title": "A PMLRAR\u03b1 transgene initiates murine acute promyelocytic leukemia", "authors": [{"authorId": "2109369969", "name": "Diane Brown"}, {"authorId": "144621166", "name": "S. Kogan"}, {"authorId": "6319731", "name": "E. Lagasse"}, {"authorId": "2325553", "name": "I. Weissman"}, {"authorId": "48884770", "name": "M. Alcalay"}, {"authorId": "49028750", "name": "P. Pelicci"}, {"authorId": "39984729", "name": "S. Atwater"}, {"authorId": "39726344", "name": "J. Bishop"}]}, {"paperId": "df25075391ddeee2cad29d3a0ee6aef484c796a8", "title": "Transplantation of marrow cells from unrelated donors for treatment of high-risk acute leukemia: the effect of leukemic burden, donor HLA-matching, and marrow cell dose.", "authors": [{"authorId": "145677980", "name": "J. Sierra"}, {"authorId": "4566177", "name": "B. Storer"}, {"authorId": "2107830912", "name": "J. Hansen"}, {"authorId": "35636181", "name": "J. Bjerke"}, {"authorId": "2107713401", "name": "P. Martin"}, {"authorId": "1967825", "name": "E. Petersdorf"}, {"authorId": "6980776", "name": "F. Appelbaum"}, {"authorId": "3212985", "name": "E. Bryant"}, {"authorId": "5674359", "name": "T. Chauncey"}, {"authorId": "144535150", "name": "G. Sale"}, {"authorId": "3159877", "name": "J. Sanders"}, {"authorId": "144479216", "name": "R. Storb"}, {"authorId": "1711248", "name": "K. Sullivan"}, {"authorId": "7844063", "name": "C. Anasetti"}]}, {"paperId": "dd843d5f2a7bd2952382186c679f4abb2913233b", "title": "TEL-AML1 transgenic zebrafish model of precursor B cell acute lymphoblastic leukemia", "authors": [{"authorId": "5322813", "name": "H. Sabaawy"}, {"authorId": "2275889", "name": "M. Azuma"}, {"authorId": "90332735", "name": "L. Embree"}, {"authorId": "6494220", "name": "H. Tsai"}, {"authorId": "6286744", "name": "M. Starost"}, {"authorId": "4954457", "name": "D. Hickstein"}]}, {"paperId": "3ebd0b0ce1190b90a4ae34056abc7cf57282be3e", "title": "Myeloid Leukemia", "authors": [{"authorId": "2110864518", "name": "J. Walker"}]}, {"paperId": "3ee8f906c6364399f57300d497ee82c8ce44565d", "title": "Hematopoietic stem-cell transplantation.", "authors": [{"authorId": "2106003346", "name": "M. Ende"}, {"authorId": "117211973", "name": "F. I. Ende"}]}, {"paperId": "edba30cfabc29151c1ebde9b61ca759806bcecf5", "title": "CD40-ligand (CD154) gene therapy for chronic lymphocytic leukemia.", "authors": [{"authorId": "4731609", "name": "W. Wierda"}, {"authorId": "39723616", "name": "M. Cantwell"}, {"authorId": "47455306", "name": "S. Woods"}, {"authorId": "1871002", "name": "L. Rassenti"}, {"authorId": "4183095", "name": "C. Prussak"}, {"authorId": "2596557", "name": "T. Kipps"}]}, {"paperId": "8d79035c55ab407d65388b4bcf71c81349ca020a", "title": "Arsenic trioxide as an inducer of apoptosis and loss of PML/RAR alpha protein in acute promyelocytic leukemia cells.", "authors": [{"authorId": "34871603", "name": "W. Shao"}, {"authorId": "38754305", "name": "M. Fanelli"}, {"authorId": "35321153", "name": "F. F. Ferrara"}, {"authorId": "34799058", "name": "R. Riccioni"}, {"authorId": "36481022", "name": "A. Rosenauer"}, {"authorId": "47978002", "name": "K. Davison"}, {"authorId": "5371808", "name": "W. Lamph"}, {"authorId": "8345109", "name": "S. Waxman"}, {"authorId": "49028750", "name": "P. Pelicci"}, {"authorId": "122278208", "name": "F. Lo Coco"}, {"authorId": "4357804", "name": "G. Avvisati"}, {"authorId": "51953329", "name": "U. Testa"}, {"authorId": "3049148", "name": "C. Peschle"}, {"authorId": "1400862251", "name": "C. Gambacorti-Passerini"}, {"authorId": "48680756", "name": "C. Nervi"}, {"authorId": "37915237", "name": "W. Miller"}]}, {"paperId": "63c397ff1e9cd1b4faded356154689f680dc1784", "title": "Nilotinib in imatinib-resistant CML and Philadelphia chromosome-positive ALL.", "authors": [{"authorId": "49096572", "name": "H. Kantarjian"}, {"authorId": "144892046", "name": "F. Giles"}, {"authorId": "7998268", "name": "L. Wunderle"}, {"authorId": "34611355", "name": "K. Bhalla"}, {"authorId": "144980953", "name": "S. O'brien"}, {"authorId": "8921925", "name": "B. Wassmann"}, {"authorId": "2857448", "name": "C. Tanaka"}, {"authorId": "3351881", "name": "P. Manley"}, {"authorId": "48868597", "name": "P. Rae"}, {"authorId": "8252199", "name": "W. Mietlowski"}, {"authorId": "10398062", "name": "K. Bochinski"}, {"authorId": "3215981", "name": "A. Hochhaus"}, {"authorId": "46954436", "name": "J. Griffin"}, {"authorId": "145945347", "name": "D. Hoelzer"}, {"authorId": "3710247", "name": "M. Albitar"}, {"authorId": "86896298", "name": "M. Dugan"}, {"authorId": "145576405", "name": "J. Cortes"}, {"authorId": "5761499", "name": "L. Alland"}, {"authorId": "4373699", "name": "O. Ottmann"}]}, {"paperId": "b5bb7903d6fd61a538d1d2fa78dcf282fb541572", "title": "Dasatinib in imatinib-resistant Philadelphia chromosome-positive leukemias.", "authors": [{"authorId": "5321920", "name": "M. Talpaz"}, {"authorId": "34821556", "name": "N. Shah"}, {"authorId": "49096572", "name": "H. Kantarjian"}, {"authorId": "2735432", "name": "N. Donato"}, {"authorId": "143748796", "name": "J. Nicoll"}, {"authorId": "8652461", "name": "R. Paquette"}, {"authorId": "145576405", "name": "J. Cortes"}, {"authorId": "144980953", "name": "S. O'brien"}, {"authorId": "3548953", "name": "C. Nicaise"}, {"authorId": "9048716", "name": "E. Bleickardt"}, {"authorId": "1431416235", "name": "M. Blackwood-Chirchir"}, {"authorId": "145415724", "name": "V. Iyer"}, {"authorId": "153489914", "name": "Tai-Tsang Chen"}, {"authorId": "1937057861", "name": "F. Huang"}, {"authorId": "6260087", "name": "A. DeCillis"}, {"authorId": "4165356", "name": "C. Sawyers"}]}, {"paperId": "541c28faafc8f073dbf54df13944553512ff1a00", "title": "Cytogenetics in acute leukemia.", "authors": [{"authorId": "1688685", "name": "K. Mr\u00f3zek"}, {"authorId": "3352321", "name": "N. Heerema"}, {"authorId": "3411384", "name": "C. Bloomfield"}]}, {"paperId": "512d1900908c21ab9f9657fa43eb77ae67806f4d", "title": "Significant difference in outcome for adolescents with acute lymphoblastic leukemia treated on pediatric vs adult protocols in the Netherlands", "authors": [{"authorId": "52315113", "name": "J. D. Bont"}, {"authorId": "74844234", "name": "B. Holt"}, {"authorId": "1703198", "name": "A. Dekker"}, {"authorId": "123404717", "name": "A. Berg"}, {"authorId": "50859411", "name": "P. Sonneveld"}, {"authorId": "87864379", "name": "R. Pieters"}]}, {"paperId": "eb794f6f22489a1c1074d3ab809167d68092aaf0", "title": "Parental smoking and the risk of childhood leukemia.", "authors": [{"authorId": "143716725", "name": "Jeffrey S. Chang"}, {"authorId": "6733891", "name": "S. Selvin"}, {"authorId": "5258871", "name": "C. Metayer"}, {"authorId": "144155931", "name": "V. Crouse"}, {"authorId": "5466890", "name": "A. Golembesky"}, {"authorId": "4400763", "name": "P. Buffler"}]}, {"paperId": "74fb5d83382ba61e5bf25eeba1bdeb52fa90679e", "title": "Genetic evidence for lineage-related and differentiation stage-related contribution of somatic PTPN11 mutations to leukemogenesis in childhood acute leukemia.", "authors": [{"authorId": "144912867", "name": "M. Tartaglia"}, {"authorId": "2830212", "name": "S. Martinelli"}, {"authorId": "144129657", "name": "G. Cazzaniga"}, {"authorId": "6726894", "name": "V. Cordeddu"}, {"authorId": "3937287", "name": "I. Iavarone"}, {"authorId": "35342445", "name": "M. Spinelli"}, {"authorId": "5427993", "name": "C. Palmi"}, {"authorId": "38987662", "name": "C. Carta"}, {"authorId": "6689157", "name": "A. Pession"}, {"authorId": "47289225", "name": "M. Aric\u00f2"}, {"authorId": "7561363", "name": "G. Masera"}, {"authorId": "144554921", "name": "G. Basso"}, {"authorId": "7154373", "name": "M. Sorcini"}, {"authorId": "5215835", "name": "B. Gelb"}, {"authorId": "146024591", "name": "A. Biondi"}]}, {"paperId": "806b8cb607c678667ea261e868bc14890ef53b18", "title": "Vascular endothelial cell growth factor is an autocrine promoter of abnormal localized immature myeloid precursors and leukemia progenitor formation in myelodysplastic syndromes.", "authors": [{"authorId": "5023988", "name": "W. Bellamy"}, {"authorId": "50578779", "name": "L. Richter"}, {"authorId": "80521781", "name": "D. Sirjani"}, {"authorId": "88222149", "name": "C. Roxas"}, {"authorId": "1403089848", "name": "B. Glinsmann-Gibson"}, {"authorId": "6165723", "name": "Y. Frutiger"}, {"authorId": "2406290", "name": "T. Grogan"}, {"authorId": "4023530", "name": "A. List"}]}, {"paperId": "e4dcada015c8fdccf55c7f4bf38a70dd7d3ccfc5", "title": "Fatal Leukemia in Interleukin 15 Transgenic Mice Follows Early Expansions in Natural Killer and Memory Phenotype Cd8+ T Cells", "authors": [{"authorId": "13138173", "name": "T. Fehniger"}, {"authorId": "2118679255", "name": "Kazuhiro Suzuki"}, {"authorId": "2982317", "name": "A. Ponnappan"}, {"authorId": "5000843", "name": "J. Vandeusen"}, {"authorId": "40253501", "name": "M. Cooper"}, {"authorId": "36072499", "name": "S. Florea"}, {"authorId": "40449246", "name": "A. Freud"}, {"authorId": "2115091315", "name": "Michael L. Robinson"}, {"authorId": "7032561", "name": "J. Durbin"}, {"authorId": "6921786", "name": "M. Caligiuri"}]}, {"paperId": "277512393a861dc51502ada2df5acff8ad409c92", "title": "HLA class I-restricted lysis of leukemia cells by a CD8(+) cytotoxic T-lymphocyte clone specific for WT1 peptide.", "authors": [{"authorId": "6732890", "name": "H. Ohminami"}, {"authorId": "2016701", "name": "M. Yasukawa"}, {"authorId": "1721803", "name": "S. Fujita"}]}, {"paperId": "e6ac4db16f7f9f4a08c1532c0a61f43103fcae72", "title": "5,10-Methylenetetrahydrofolate reductase polymorphisms and leukemia risk: a HuGE minireview.", "authors": [{"authorId": "8256013", "name": "K. Robien"}, {"authorId": "143859373", "name": "C. Ulrich"}]}, {"paperId": "c61397f7c01870c6fbeb10153ec5a0f514b44262", "title": "Methylenetetrahydrofolate reductase (MTHFR) polymorphisms and risk of molecularly defined subtypes of childhood acute leukemia", "authors": [{"authorId": "2556688", "name": "J. Wiemels"}, {"authorId": "2157707526", "name": "Rosalyn N. Smith"}, {"authorId": "1844659", "name": "G. M. Taylor"}, {"authorId": "79035134", "name": "O. Eden"}, {"authorId": "48008536", "name": "F. Alexander"}, {"authorId": "33807869", "name": "M. Greaves"}]}, {"paperId": "2eb97304bb4dd06c24aeba3467d07c12dd807211", "title": "Point mutations in the RUNX1/AML1 gene: another actor in RUNX leukemia", "authors": [{"authorId": "13467918", "name": "Motomi Osato"}]}, {"paperId": "939ee9d4f9b20c71934dae7746c97b4a02f5ca88", "title": "Global approach to the diagnosis of leukemia using gene expression profiling.", "authors": [{"authorId": "2905029", "name": "T. Haferlach"}, {"authorId": "2473934", "name": "A. Kohlmann"}, {"authorId": "2701920", "name": "S. Schnittger"}, {"authorId": "145648033", "name": "M. Dugas"}, {"authorId": "145630229", "name": "W. Hiddemann"}, {"authorId": "145091281", "name": "W. Kern"}, {"authorId": "145934200", "name": "C. Schoch"}]}, {"paperId": "3407d4b147e0a44757d319cd8f6c2d419c82d880", "title": "Elimination of human leukemia cells in NOD/SCID mice by WT1-TCR gene-transduced human T cells.", "authors": [{"authorId": "48609659", "name": "S. Xue"}, {"authorId": "46694116", "name": "Liquan Gao"}, {"authorId": "5029602", "name": "D. Hart"}, {"authorId": "4379928", "name": "R. Gillmore"}, {"authorId": "6110699", "name": "W. Qasim"}, {"authorId": "2602450", "name": "A. Thrasher"}, {"authorId": "5629056", "name": "J. Apperley"}, {"authorId": "3781155", "name": "B. Engels"}, {"authorId": "3590951", "name": "W. Uckert"}, {"authorId": "143658736", "name": "E. Morris"}, {"authorId": "39077695", "name": "H. Stauss"}]}, {"paperId": "d82b97f96fca910b6a881bac4edaf03e91eb2f6c", "title": "Internal tandem duplication of FLT3 associated with leukocytosis in acute promyelocytic leukemia", "authors": [{"authorId": "5392273", "name": "H. Kiyoi"}, {"authorId": "4143060", "name": "T. Naoe"}, {"authorId": "49904956", "name": "S. Yokota"}, {"authorId": "47086244", "name": "M. Nakao"}, {"authorId": "1764092", "name": "S. Minami"}, {"authorId": "47326074", "name": "K. Kuriyama"}, {"authorId": "47347196", "name": "A. Takeshita"}, {"authorId": "2107461411", "name": "K. Saito"}, {"authorId": "2061606538", "name": "S. Hasegawa"}, {"authorId": "47629820", "name": "S. Shimodaira"}, {"authorId": "48994985", "name": "J. Tamura"}, {"authorId": "6732216", "name": "C. Shimazaki"}, {"authorId": "4626217", "name": "K. Matsue"}, {"authorId": "2107284147", "name": "H. Kobayashi"}, {"authorId": "153152956", "name": "N. Arima"}, {"authorId": "33808119", "name": "R. Suzuki"}, {"authorId": "2085262569", "name": "H. Morishita"}, {"authorId": "48382374", "name": "H. Saito"}, {"authorId": "7681625", "name": "R. Ueda"}, {"authorId": "3182215", "name": "R. Ohno"}]}, {"paperId": "d577f656be9a1aa6d951dfd8cb02867d7194f4a8", "title": "MicroRNA profiling reveals distinct signatures in B cell chronic lymphocytic leukemias.", "authors": [{"authorId": "2124909", "name": "G. Calin"}, {"authorId": "16073087", "name": "Chang-gong Liu"}, {"authorId": "6736759", "name": "C. Sevignani"}, {"authorId": "4982531", "name": "M. Ferracin"}, {"authorId": "2034135", "name": "N. Felli"}, {"authorId": "3339336", "name": "C. Dumitru"}, {"authorId": "1803707", "name": "M. Shimizu"}, {"authorId": "4749009", "name": "A. Cimmino"}, {"authorId": "4323365", "name": "S. Zupo"}, {"authorId": "6269652", "name": "M. Dono"}, {"authorId": "1401570872", "name": "M. Dell'aquila"}, {"authorId": "145445510", "name": "H. Alder"}, {"authorId": "1871002", "name": "L. Rassenti"}, {"authorId": "2596557", "name": "T. Kipps"}, {"authorId": "5322065", "name": "F. Bullrich"}, {"authorId": "50381334", "name": "M. Negrini"}, {"authorId": "144749275", "name": "C. Croce"}]}]}
