{"total": 780806, "offset": 950, "next": 1000, "data": [{"paperId": "93e0e63727129415621110c9df00d49df81effc3", "title": "Expression of mdr1 and mdr3 multidrug-resistance genes in human acute and chronic leukemias and association with stimulation of drug accumulation by cyclosporine.", "authors": [{"authorId": "37639029", "name": "H. Herweijer"}, {"authorId": "50859411", "name": "P. Sonneveld"}, {"authorId": "1995886", "name": "F. Baas"}, {"authorId": "3890031", "name": "K. Nooter"}]}, {"paperId": "7d250b8714f7b53d3d30c0f7f0e71b227f3f15ba", "title": "Constitutive activation of extracellular signal-regulated kinase in human acute leukemias: combined role of activation of MEK, hyperexpression of extracellular signal-regulated kinase, and downregulation of a phosphatase, PAC1.", "authors": [{"authorId": "2153592535", "name": "S. C. Kim"}, {"authorId": "31972517", "name": "J. Hahn"}, {"authorId": "6999138", "name": "Y. Min"}, {"authorId": "35122822", "name": "N. Yoo"}, {"authorId": "10180779", "name": "Y. Ko"}, {"authorId": "2107402787", "name": "W. J. Lee"}]}, {"paperId": "df48df98b7983b84690572ffbabaf2e28dddf194", "title": "The reliability and specificity of c-kit for the diagnosis of acute myeloid leukemias and undifferentiated leukemias. The European Group for the Immunological Classification of Leukemias (EGIL).", "authors": [{"authorId": "144544038", "name": "M. B\u00e9n\u00e9"}, {"authorId": "7452001", "name": "M. Bernier"}, {"authorId": "3880652", "name": "R. Casasnovas"}, {"authorId": "7201105", "name": "G. Castoldi"}, {"authorId": "2623239", "name": "W. Knapp"}, {"authorId": "144946784", "name": "F. Lanza"}, {"authorId": "93446559", "name": "W. Ludwig"}, {"authorId": "6416325", "name": "E. Matutes"}, {"authorId": "3328496", "name": "A. \u00d3rf\u00e3o"}, {"authorId": "3112141", "name": "C. Sperling"}, {"authorId": "1398126697", "name": "M. V. van't Veer"}]}, {"paperId": "f8a1a4ca83c0a7ec23eefbdf904cce17e0e257c5", "title": "HRX involvement in de novo and secondary leukemias with diverse chromosome 11q23 abnormalities.", "authors": [{"authorId": "4463822", "name": "S. Hunger"}, {"authorId": "8005053", "name": "D. Tkachuk"}, {"authorId": "7869307", "name": "M. Amylon"}, {"authorId": "8255139", "name": "M. Link"}, {"authorId": "48945990", "name": "A. Carroll"}, {"authorId": "50746504", "name": "J. Welborn"}, {"authorId": "3259776", "name": "C. Willman"}, {"authorId": "3083475", "name": "M. Cleary"}]}, {"paperId": "6041b8249dc025d790e26a90749a1dbf98627395", "title": "NUP98 gene fusions in hematologic malignancies", "authors": [{"authorId": "28129688", "name": "DH Lam"}, {"authorId": "79425484", "name": "P. Aplan"}]}, {"paperId": "49ea6c5ddcf45b01a4aa51364fbdf23bb83e67c0", "title": "Therapy Related Leukemias: Susceptibility, Prevention and Treatment", "authors": [{"authorId": "145066417", "name": "G. Leone"}, {"authorId": "6251200", "name": "M. Voso"}, {"authorId": "4076255", "name": "S. Sica"}, {"authorId": "3529973", "name": "R. Morosetti"}, {"authorId": "34912097", "name": "L. Pagano"}]}, {"paperId": "adbbc8ec41484d16a92bff274413025ade4c4580", "title": "Granulocytic sarcoma (chloroma).", "authors": [{"authorId": "4054588", "name": "P. Wiernik"}, {"authorId": "12706032", "name": "A. Serpick"}]}, {"paperId": "2e470e8ae8ac7e4210f318ba52a33c57a7a94691", "title": "Journal accused of manipulating impact factor", "authors": [{"authorId": "46288970", "name": "Richard Smith"}]}, {"paperId": "069f20a6c181a0c40587ad3da49dcf5ddb115ff2", "title": "Association of the human type C retrovirus with a subset of adult T-cell cancers.", "authors": [{"authorId": "74941680", "name": "R. Gallo"}, {"authorId": "1798709", "name": "V. Kalyanaraman"}, {"authorId": "8487908", "name": "M. Sarngadharan"}, {"authorId": "7948140", "name": "A. Sliski"}, {"authorId": "86965524", "name": "E. Vonderheid"}, {"authorId": "153054300", "name": "M. Maeda"}, {"authorId": "4273740", "name": "Y. Nakao"}, {"authorId": "2107463465", "name": "K. Yamada"}, {"authorId": "2107858202", "name": "Y. Ito"}, {"authorId": "8985959", "name": "N. Gutensohn"}, {"authorId": "1855122", "name": "S. Murphy"}, {"authorId": "2390399", "name": "P. Bunn"}, {"authorId": "4849492", "name": "D. Catovsky"}, {"authorId": "33807869", "name": "M. Greaves"}, {"authorId": "4778970", "name": "D. Blayney"}, {"authorId": "82880873", "name": "W. Blattner"}, {"authorId": "144551355", "name": "W. Jarrett"}, {"authorId": "48353367", "name": "H. zur Hausen"}, {"authorId": "5045771", "name": "M. Seligmann"}, {"authorId": "4697278", "name": "J. Brouet"}, {"authorId": "144280170", "name": "B. Haynes"}, {"authorId": "5144520", "name": "B. Jegasothy"}, {"authorId": "1816938", "name": "E. Jaffe"}, {"authorId": "6016133", "name": "J. Cossman"}, {"authorId": "4525446", "name": "S. Broder"}, {"authorId": "2037143", "name": "R. Fisher"}, {"authorId": "32461937", "name": "D. Golde"}, {"authorId": "1400031347", "name": "M. Robert-Guroff"}]}, {"paperId": "28a81d691861f7d850b81ec2087e36326c4cf364", "title": "HERG potassium channels are constitutively expressed in primary human acute myeloid leukemias and regulate cell proliferation of normal and leukemic hemopoietic progenitors", "authors": [{"authorId": "49578982", "name": "S. Pillozzi"}, {"authorId": "121237586", "name": "M. Brizzi"}, {"authorId": "3769207", "name": "M. Balzi"}, {"authorId": "5209665", "name": "O. Crociani"}, {"authorId": "50258337", "name": "A. Cherubini"}, {"authorId": "34215918", "name": "L. Guasti"}, {"authorId": "5395622", "name": "B. Bartolozzi"}, {"authorId": "3679037", "name": "A. Becchetti"}, {"authorId": "1681914", "name": "E. Wanke"}, {"authorId": "153210915", "name": "P. Bernabei"}, {"authorId": "4849501", "name": "M. Olivotto"}, {"authorId": "3642659", "name": "L. Pegoraro"}, {"authorId": "2835674", "name": "A. Arcangeli"}]}, {"paperId": "6ce807b35275fc3f94fd3c6a23e7eb445faa902f", "title": "Incidence of phenotypic aberrations in a series of 467 patients with B chronic lymphoproliferative disorders: basis for the design of specific four-color stainings to be used for minimal residual disease investigation", "authors": [{"authorId": "123525687", "name": "M.-L. Sanchez"}, {"authorId": "145686317", "name": "J. Almeida"}, {"authorId": "5443259", "name": "B. Vidriales"}, {"authorId": "1412788148", "name": "M. L\u00f3pez-Berges"}, {"authorId": "1412149046", "name": "M. Garc\u00eda-Marcos"}, {"authorId": "2056180613", "name": "M. Moro"}, {"authorId": "48962169", "name": "A. Corrales"}, {"authorId": "1412530338", "name": "M. Calmuntia"}, {"authorId": "1399846923", "name": "J. Miguel"}, {"authorId": "3328496", "name": "A. \u00d3rf\u00e3o"}]}, {"paperId": "3797635e42bb131c9ca3a21b72aea59acbd10431", "title": "Cytogenetic and immunohistochemical evidence for the germ cell origin of a subset of acute leukemias associated with mediastinal germ cell tumors.", "authors": [{"authorId": "3478776", "name": "M. Ladanyi"}, {"authorId": "144378673", "name": "F. Samaniego"}, {"authorId": "30582790", "name": "V. Reuter"}, {"authorId": "5938373", "name": "R. Motzer"}, {"authorId": "4106780", "name": "S. Jhanwar"}, {"authorId": "3837279", "name": "G. Bosl"}, {"authorId": "145716815", "name": "R. Chaganti"}]}, {"paperId": "e8c7c30ff9bd3de1805d5c22b91efdbce54be786", "title": "Diphtheria toxin fused to human interleukin-3 is toxic to blasts from patients with myeloid leukemias", "authors": [{"authorId": "121669857", "name": "A. Frankel"}, {"authorId": "4297554", "name": "J. McCubrey"}, {"authorId": "121424557", "name": "M. Miller"}, {"authorId": "4528581", "name": "S. Delatte"}, {"authorId": "12032305", "name": "J. Ramage"}, {"authorId": "5979732", "name": "M. Kiser"}, {"authorId": "123902356", "name": "G. Kucera"}, {"authorId": "2053063657", "name": "R. Alexander"}, {"authorId": "2042388", "name": "M. Beran"}, {"authorId": "14573669", "name": "E. Tagge"}, {"authorId": "120407016", "name": "R. Kreitman"}, {"authorId": "82227298", "name": "D. Hogge"}]}, {"paperId": "7829b11d71efad7c628dda31daf9ca144e1859dc", "title": "Childhood myelodysplastic syndrome in Denmark: incidence and predisposing conditions.", "authors": [{"authorId": "2813571", "name": "H. Hasle"}, {"authorId": "5234033", "name": "G. Kerndrup"}, {"authorId": "37915106", "name": "B. Jacobsen"}]}, {"paperId": "7c4b7c004873d6926c5e97d79ebf476d248b203b", "title": "Clinical and Biologic Diversity of Leukemias Occurring in Patients with Mastocytosis", "authors": [{"authorId": "4883164", "name": "W. Sperr"}, {"authorId": "46577050", "name": "H. Horny"}, {"authorId": "144743583", "name": "K. Lechner"}, {"authorId": "2330155", "name": "P. Valent"}]}, {"paperId": "d8d733c146c0e1a32165b5ac5646f8a8a363fc01", "title": "Neoplastic Diseases of the Blood", "authors": [{"authorId": "4054588", "name": "P. Wiernik"}]}, {"paperId": "d0c1867da647b021beb6f46ef93efa350c7094b6", "title": "Second malignancies complicating Hodgkin's disease: a Southwest Oncology Group 10-year followup.", "authors": [{"authorId": "51972906", "name": "Coltman Ca"}, {"authorId": "79726339", "name": "Dixon Do"}]}, {"paperId": "8aeec499410f8aaa53cc4a33292098a52e1aadaa", "title": "The expression of the Wilms' tumor gene in acute myelocytic leukemias as a possible marker for leukemic blast cells.", "authors": [{"authorId": "1776396", "name": "J. Brieger"}, {"authorId": "6601301", "name": "E. Weidmann"}, {"authorId": "12797879", "name": "K. Fenchel"}, {"authorId": "6522375", "name": "P. Mitrou"}, {"authorId": "145945347", "name": "D. Hoelzer"}, {"authorId": "145846222", "name": "L. Bergmann"}]}, {"paperId": "1c4f522aebcf9a633c405e39d456d011e01c089e", "title": "Monoclonal antibodies to the myeloid stem cells: therapeutic implications of CMA-676, a humanized anti-CD33 antibody calicheamicin conjugate", "authors": [{"authorId": "47814470", "name": "I. Bernstein"}]}, {"paperId": "730010b4569e1b7d31e5359f82f0638e5bcf3a2a", "title": "Telomerase activity and telomere length in pediatric patients with malignancies undergoing chemotherapy", "authors": [{"authorId": "34002638", "name": "M. Engelhardt"}, {"authorId": "2062980527", "name": "M. Ozkaynak"}, {"authorId": "10204051", "name": "P. Drullinsky"}, {"authorId": "92928678", "name": "C. Sandoval"}, {"authorId": "4569114", "name": "O. Tugal"}, {"authorId": "4696599", "name": "S. Jayabose"}, {"authorId": "2117171878", "name": "M. Moore"}]}, {"paperId": "6487affe99723fb88fef39fe678bd05d02da9f2e", "title": "Leukemogenesis by CBF oncoproteins", "authors": [{"authorId": "121199798", "name": "A. Friedman"}]}, {"paperId": "fda20baaaa2ae337930571828ca6ee51f4c31671", "title": "Isolated granulocytic sarcoma: report of a case and review of the literature.", "authors": [{"authorId": "47155866", "name": "M. Eshghabadi"}, {"authorId": "5175264", "name": "A. Shojania"}, {"authorId": "2137298", "name": "I. Carr"}]}, {"paperId": "12879fe898525696a450de392a86db57d7b36300", "title": "Expression of the multidrug resistance-associated protein (MRP) in acute and chronic leukemias.", "authors": [{"authorId": "48352500", "name": "H. Burger"}, {"authorId": "3890031", "name": "K. Nooter"}, {"authorId": "145640275", "name": "G. Zaman"}, {"authorId": "50859411", "name": "P. Sonneveld"}, {"authorId": "4381267", "name": "K. van Wingerden"}, {"authorId": "34843791", "name": "R. Oostrum"}, {"authorId": "4746214", "name": "G. Stoter"}]}, {"paperId": "bf2740f2a40fd3afa54c023e3f82543214e0aacc", "title": "ANTIGENIC PROPERTIES OF EXPERIMENTAL LEUKEMIAS. I. SEROLOGICAL STUDIES IN VITRO WITH SPONTANEOUS AND RADIATION-INDUCED LEUKEMIAS.", "authors": [{"authorId": "145766270", "name": "L. Old"}, {"authorId": "4669068", "name": "E. Boyse"}]}, {"paperId": "e1e3396ed1b037a1348a67337e7364c2c62dbe3b", "title": "Chronic Lymphoid Leukemias", "authors": [{"authorId": "6615902", "name": "B. Cheson"}]}, {"paperId": "91678e307f2eb228ab3c6af0528a4bee6a5d6d6f", "title": "Consensus protocol for the flow cytometric immunophenotyping of hematopoietic malignancies. Working Group on Flow Cytometry and Image Analysis.", "authors": [{"authorId": "49910772", "name": "G. Rothe"}, {"authorId": "145160997", "name": "G. Schmitz"}]}, {"paperId": "7c5a3119aa63e619e58abb3e45d39258a60026d1", "title": "Telomeres and telomerase in human leukemias.", "authors": [{"authorId": "3892284", "name": "J. Shay"}, {"authorId": "10151200", "name": "H. Werbin"}, {"authorId": "144651557", "name": "W. Wright"}]}, {"paperId": "b4f4786d848c727b0f75d92f66f7c7e5b3295556", "title": "Molecular features of CD34: a hemopoietic progenitor cell-associated molecule.", "authors": [{"authorId": "33807869", "name": "M. Greaves"}, {"authorId": "48840944", "name": "J. Brown"}, {"authorId": "6556722", "name": "H. Molgaard"}, {"authorId": "143951540", "name": "N. Spurr"}, {"authorId": "152245038", "name": "D. Robertson"}, {"authorId": "80840988", "name": "D. Delia"}, {"authorId": "31605447", "name": "D. Sutherland"}]}, {"paperId": "410b5d75b2cab641308ac1cec1b0056e2ce1c3e9", "title": "The product of the proto-oncogene c-kit (P145c-kit) is a human bone marrow surface antigen of hemopoietic precursor cells which is expressed on a subset of acute non-lymphoblastic leukemic cells.", "authors": [{"authorId": "87350125", "name": "H. B\u00fchring"}, {"authorId": "4744255", "name": "A. Ullrich"}, {"authorId": "6880473", "name": "K. Schaudt"}, {"authorId": "2107151373", "name": "C. M\u00fcller"}, {"authorId": "2124145", "name": "F. Busch"}]}, {"paperId": "2abcc793c4112f481015f219e1614dbb14153584", "title": "A comparison of the induction of myeloid and lymphoid leukemias in x-radiated RF mice.", "authors": [{"authorId": "1718909", "name": "A. Upton"}, {"authorId": "2075038861", "name": "F. F. Wolff"}, {"authorId": "2351120", "name": "J. Furth"}, {"authorId": "87180000", "name": "A. Kimball"}]}, {"paperId": "3cabcb495bce593bbf16cbc9aba1db046dcd81f2", "title": "SUPPRESSION OF MURINE LEUKEMIAS BY L-ASPARAGINASE INCIDENCE OF SENSITIVITY AMONG LEUKEMIAS OF VARIOUS TYPES: COMPARATIVE INHIBITORY ACTIVITIES OF GUINEA PIG SERUM L-ASPARAGINASE AND ESCHERICHIA COLI L-ASPARAGINASE", "authors": [{"authorId": "4669068", "name": "E. Boyse"}, {"authorId": "145766270", "name": "L. Old"}, {"authorId": "145989670", "name": "H. Campbell"}, {"authorId": "10320114", "name": "L. Mashburn"}]}, {"paperId": "88bbffa691fc55e8d2325754978d1b01ce12196a", "title": "Expression of costimulatory molecules in human leukemias.", "authors": [{"authorId": "3113616", "name": "N. Hirano"}, {"authorId": "2160689350", "name": "T. Takahashi"}, {"authorId": "47947179", "name": "S. Ohtake"}, {"authorId": "144888579", "name": "K. Hirashima"}, {"authorId": "144157442", "name": "N. Emi"}, {"authorId": "2107461077", "name": "K. Saito"}, {"authorId": "2144052946", "name": "M. Hirano"}, {"authorId": "118533609", "name": "K. Shinohara"}, {"authorId": "39038561", "name": "M. Takeuchi"}, {"authorId": "5446053", "name": "F. Taketazu"}, {"authorId": "2044981313", "name": "S. Tsunoda"}, {"authorId": "143996712", "name": "M. Ogura"}, {"authorId": "6717298", "name": "M. Omine"}, {"authorId": "2107812619", "name": "T. Saito"}, {"authorId": "2256426", "name": "Y. Yazaki"}, {"authorId": "32009139", "name": "R. Ueda"}, {"authorId": "2651563", "name": "H. Hirai"}]}, {"paperId": "7f90975db633c819ecee2f89873158da4ef3a5ae", "title": "Expression of oncoprotein 18 in human leukemias and lymphomas.", "authors": [{"authorId": "145713034", "name": "G. Roos"}, {"authorId": "6299039", "name": "G. Brattsand"}, {"authorId": "4523054", "name": "G. Landberg"}, {"authorId": "3250961", "name": "U. Marklund"}, {"authorId": "3094981", "name": "M. Gullberg"}]}, {"paperId": "bafd0bb4a9603cdff92c3d01a3a23c6bb3d7cf62", "title": "Uptake as a Determinant of Methotrexate Response in Mouse Leukemias", "authors": [{"authorId": "144222093", "name": "D. Kessel"}, {"authorId": "1687527", "name": "T. Hall"}, {"authorId": "47158257", "name": "D. Roberts"}, {"authorId": "1768774159", "name": "Isidore Wodjnsky"}]}, {"paperId": "8ee1da1cd4440ca7820695e7fde024ecd2df34ee", "title": "Identification of CD34+ cells in normal and pathological bone marrow biopsies by QBEND10 monoclonal antibody.", "authors": [{"authorId": "3702068", "name": "D. Soligo"}, {"authorId": "80840988", "name": "D. Delia"}, {"authorId": "6372834", "name": "A. Oriani"}, {"authorId": "6632913", "name": "G. Cattoretti"}, {"authorId": "152583719", "name": "A. Orazi"}, {"authorId": "13523430", "name": "V. Bertolli"}, {"authorId": "13484028", "name": "N. Quirici"}, {"authorId": "80364477", "name": "G. L. Deliliers"}]}, {"paperId": "916d2f3264452b38722c3d5ea1b3d0bbf2f4f032", "title": "Skin manifestations of leukemias and lymphomas.", "authors": [{"authorId": "74753076", "name": "Stawiski Ma"}]}, {"paperId": "af7e149dba6c2ed686a38df65ef99ca25529f909", "title": "Chemotherapy-related \u2013 and late occurring \u2013 Philadelphia chromosome in AML, ALL and CML. Similar events related to treatment with DNA topoisomerase II inhibitors?", "authors": [{"authorId": "1401116506", "name": "J. Pedersen\u2010Bjergaard"}, {"authorId": "1381936098", "name": "K. Br\u00f8ndum\u2010Nielsen"}, {"authorId": "3556270", "name": "H. Karle"}, {"authorId": "145849464", "name": "B. Johansson"}]}, {"paperId": "ac0d8dc752edc2e93d725238f397d320bc443751", "title": "Resistance of t(4;11) (MLL-AF4 fusion gene) leukemias to stress-induced cell death: possible mechanism for extensive extramedullary accumulation of cells and poor prognosis", "authors": [{"authorId": "145285982", "name": "J. Kersey"}, {"authorId": "88869636", "name": "D. Wang"}, {"authorId": "114638676", "name": "M. Oberto"}]}, {"paperId": "785782ee4fd015c9ca8e907e8786dd9da9f6877f", "title": "Classification of acute myeloid leukemias--a comparison of FAB and immunophenotyping.", "authors": [{"authorId": "2370341", "name": "H. Drexler"}]}, {"paperId": "6b845f4917b12d3d7e8cbae9986d468bc1ffd335", "title": "Evi-1 expression in leukemic patients with rearrangements of the 3q25-q28 chromosomal region.", "authors": [{"authorId": "5254323", "name": "S. Fichelson"}, {"authorId": "2071630258", "name": "F. Dreyfus"}, {"authorId": "144532304", "name": "R. Berger"}, {"authorId": "14168867", "name": "J. Melle"}, {"authorId": "6522628", "name": "C. Bastard"}, {"authorId": "7945855", "name": "J. Miclea"}, {"authorId": "2766187", "name": "S. Gisselbrecht"}]}, {"paperId": "91c25951005c73b9f08b2ab873e06f2287e22041", "title": "Lovastatin Induces a Pronounced Differentiation Response in Acute Myeloid Leukemias", "authors": [{"authorId": "3622132", "name": "J. Dimitroulakos"}, {"authorId": "2121020961", "name": "Sandy Thai"}, {"authorId": "2121521200", "name": "Gihane H. Wasfy"}, {"authorId": "32130756", "name": "D. Hedley"}, {"authorId": "3876343", "name": "M. Minden"}, {"authorId": "50588833", "name": "L. Penn"}]}, {"paperId": "02e70a69005abf21219271f460161ea4d1650dd9", "title": "Cancer statistics, 2016", "authors": [{"authorId": "4667051", "name": "R. Siegel"}, {"authorId": "32368708", "name": "K. Miller"}, {"authorId": "144568054", "name": "A. Jemal"}]}, {"paperId": "31659fb87e1de1bae2517fe0d58e4c47c6504a0d", "title": "International Classification of Childhood Cancer, third edition", "authors": [{"authorId": "1398660542", "name": "E. Steliarova-Foucher"}, {"authorId": "4733141", "name": "C. Stiller"}, {"authorId": "3773738", "name": "B. Lacour"}, {"authorId": "3260365", "name": "P. Kaatsch"}]}, {"paperId": "f7f1dcbf36a7f457053671078b4e5d453096a3ab", "title": "Tyrosine kinase activity and transformation potency of bcr-abl oncogene products.", "authors": [{"authorId": "7602080", "name": "T. Lugo"}, {"authorId": "5657877", "name": "A. Pendergast"}, {"authorId": "34665822", "name": "A. Muller"}, {"authorId": "6614731", "name": "O. Witte"}]}, {"paperId": "d6fb81de5398593260f72bd9e665c10c678c53c4", "title": "Essentials of Veterinary Hematology", "authors": [{"authorId": "2283468", "name": "N. Jain"}]}, {"paperId": "3e42cc46db26605cf51d1b0bebdb502aa204bc2c", "title": "The Role of BCL2 Family of Apoptosis Regulator Proteins in Acute and Chronic Leukemias", "authors": [{"authorId": "5507970", "name": "Flora Tzifi"}, {"authorId": "5976656", "name": "C. Economopoulou"}, {"authorId": "3946906", "name": "D. Gourgiotis"}, {"authorId": "46963174", "name": "A. Ardavanis"}, {"authorId": "145054446", "name": "S. Papageorgiou"}, {"authorId": "4213166", "name": "A. Scorilas"}]}, {"paperId": "9d84eb649b8d6bd20043897ac92fd8b6aee632b0", "title": "The molecular genetics of Philadelphia chromosome-positive leukemias.", "authors": [{"authorId": "49319257", "name": "R. Kurzrock"}, {"authorId": "3791397", "name": "J. Gutterman"}, {"authorId": "5321920", "name": "M. Talpaz"}]}, {"paperId": "c940261b2d01669e3e1e76c52b3305ff4fd91d28", "title": "Genetics of myeloid leukemias.", "authors": [{"authorId": "32986672", "name": "L. Kelly"}, {"authorId": "2246160", "name": "D. Gilliland"}]}, {"paperId": "ebf37ba2ad9cf295c9737a7dbd815c31c02cca45", "title": "Blood stem cells compared with bone marrow as a source of hematopoietic cells for allogeneic transplantation. IBMTR Histocompatibility and Stem Cell Sources Working Committee and the European Group for Blood and Marrow Transplantation (EBMT).", "authors": [{"authorId": "144867199", "name": "R. Champlin"}, {"authorId": "1869755", "name": "N. Schmitz"}, {"authorId": "34953677", "name": "M. Horowitz"}, {"authorId": "2964163", "name": "B. Chapuis"}, {"authorId": "47822434", "name": "R. Chopra"}, {"authorId": "2464010", "name": "J. Cornelissen"}, {"authorId": "144516652", "name": "R. Gale"}, {"authorId": "48968929", "name": "J. Goldman"}, {"authorId": "3166016", "name": "F. Loberiza"}, {"authorId": "2752189", "name": "B. Hertenstein"}, {"authorId": "4033024", "name": "J. Klein"}, {"authorId": "3732675", "name": "E. Montserrat"}, {"authorId": "2107447653", "name": "M. Zhang"}, {"authorId": "5560556", "name": "O. Ringd\u00e9n"}, {"authorId": "8106534", "name": "S. Tomany"}, {"authorId": "4290453", "name": "P. Rowlings"}, {"authorId": "8275631", "name": "M. V. van Hoef"}, {"authorId": "5658544", "name": "A. Gratwohl"}]}, {"paperId": "3cd145fba36b7585b2d45e3101f9b1fe2e537c20", "title": "THE AKR THYMIC ANTIGEN AND ITS DISTRIBUTION IN LEUKEMIAS AND NERVOUS TISSUES", "authors": [{"authorId": "33369272", "name": "A. Reif"}, {"authorId": "152236041", "name": "JOAN M. Allen"}]}]}
