{"total": 780808, "offset": 500, "next": 550, "data": [{"paperId": "efbab6d6b9d63197557e489037c0af8414340b3d", "title": "Communication of randomization in childhood leukemia trials.", "authors": [{"authorId": "5624712", "name": "E. Kodish"}, {"authorId": "33944701", "name": "M. Eder"}, {"authorId": "152193976", "name": "R. Noll"}, {"authorId": "46546756", "name": "K. Ruccione"}, {"authorId": "5264210", "name": "B. Lange"}, {"authorId": "35124117", "name": "A. Angiolillo"}, {"authorId": "5587007", "name": "R. Pentz"}, {"authorId": "3877810", "name": "S. Zyzanski"}, {"authorId": "2905079", "name": "L. Siminoff"}, {"authorId": "5338331", "name": "D. Drotar"}]}, {"paperId": "06edc2adfcac498479faabb9d3bb75791d76b7d4", "title": "Clofarabine, a novel nucleoside analog, is active in pediatric patients with advanced leukemia.", "authors": [{"authorId": "4408541", "name": "S. Jeha"}, {"authorId": "2396197", "name": "V. Gandhi"}, {"authorId": "48509486", "name": "K. Chan"}, {"authorId": "46837771", "name": "L. McDonald"}, {"authorId": "47550806", "name": "I. Ramirez"}, {"authorId": "145282024", "name": "R. Madden"}, {"authorId": "1940958", "name": "M. Rytting"}, {"authorId": "145470470", "name": "M. Brandt"}, {"authorId": "2091897", "name": "M. Keating"}, {"authorId": "2702839", "name": "W. Plunkett"}, {"authorId": "49096572", "name": "H. Kantarjian"}]}, {"paperId": "c8006b224a418e70ca425b7af0c3400cce92b343", "title": "Association of CYP3A4 genotype with treatment-related leukemia.", "authors": [{"authorId": "34839573", "name": "C. Felix"}, {"authorId": "29754834", "name": "A. Walker"}, {"authorId": "4862464", "name": "B. Lange"}, {"authorId": "5478626", "name": "T. Williams"}, {"authorId": "4526066", "name": "N. Winick"}, {"authorId": "145983251", "name": "N. Cheung"}, {"authorId": "4046000", "name": "B. D. Lovett"}, {"authorId": "6809070", "name": "P. Nowell"}, {"authorId": "3531968", "name": "I. Blair"}, {"authorId": "1827783", "name": "T. Rebbeck"}]}, {"paperId": "b832caba34de56645ed412a13633a23d77ad64fb", "title": "Pediatric acute myeloid leukemia: international progress and future directions", "authors": [{"authorId": "145826856", "name": "G. Kaspers"}, {"authorId": "49505313", "name": "U. Creutzig"}]}, {"paperId": "498d6995f6fbb47698c9af53ddacc725952ddf24", "title": "Complete nucleotide sequence of the genome of bovine leukemia virus: its evolutionary relationship to other retroviruses.", "authors": [{"authorId": "3894442", "name": "N. Sagata"}, {"authorId": "1787144", "name": "T. Yasunaga"}, {"authorId": "1402093683", "name": "J. Tsuzuku-Kawamura"}, {"authorId": "7849832", "name": "K. Ohishi"}, {"authorId": "2063838500", "name": "Y. Ogawa"}, {"authorId": "2062364", "name": "Y. Ikawa"}]}, {"paperId": "46138618a1e1cf6aea894233577a6ca1ab890b96", "title": "Differentiation of a cell line of myeloid leukemia", "authors": [{"authorId": "152629111", "name": "Y. Ichikawa"}]}, {"paperId": "c2fcbf56beebe68ac6be0196e4184b4c6e5c60c4", "title": "Biology, risk stratification, and therapy of pediatric acute leukemias: an update.", "authors": [{"authorId": "143836865", "name": "C. Pui"}, {"authorId": "143679330", "name": "W. Carroll"}, {"authorId": "5515125", "name": "S. Meshinchi"}, {"authorId": "2042350", "name": "R. Arceci"}]}, {"paperId": "56eaf850a5afda5987e8a5737a7fbb51f87ab2fd", "title": "Human T cell antigens defined by monoclonal antibodies: the 65,000-dalton antigen of T cells (T65) is also found on chronic lymphocytic leukemia cells bearing surface immunoglobulin.", "authors": [{"authorId": "4617053", "name": "I. Royston"}, {"authorId": "40285664", "name": "J. Majda"}, {"authorId": "2510874", "name": "S. Baird"}, {"authorId": "13596440", "name": "B. L. Meserve"}, {"authorId": "46627479", "name": "J. C. Griffiths"}]}, {"paperId": "e24df028528511d5ebfca46be1f71b12c7c3d2ea", "title": "Surface markers on leukemia and lymphoma cells: recent advances.", "authors": [{"authorId": "4232060", "name": "K. Foon"}, {"authorId": "6217962", "name": "R. Schroff"}, {"authorId": "144516652", "name": "R. Gale"}]}, {"paperId": "b0554a74d8495700d692942601f9baabf9a5b493", "title": "Transformation of human leukocytes by cocultivation with an adult T cell leukemia virus producer cell line.", "authors": [{"authorId": "144814965", "name": "N. Yamamoto"}, {"authorId": "2114305995", "name": "M. Okada"}, {"authorId": "33591160", "name": "Y. Koyanagi"}, {"authorId": "5221539", "name": "M. Kannagi"}, {"authorId": "5797015", "name": "Y. Hinuma"}]}, {"paperId": "289ae90d3b5e5b36ea6aab1d39ff7955cba85bd1", "title": "PCM1-JAK2 fusion in myeloproliferative disorders and acute erythroid leukemia with t(8;9) translocation", "authors": [{"authorId": "4889018", "name": "A. Murati"}, {"authorId": "1398029793", "name": "V. Gelsi-Boyer"}, {"authorId": "3924060", "name": "J. Ade\u0301la\u0131\u0308de"}, {"authorId": "4170381", "name": "C. P\u00e9rot"}, {"authorId": "5821156", "name": "P. Talmant"}, {"authorId": "3765796", "name": "S. Giraudier"}, {"authorId": "6373469", "name": "L. Lod\u00e9"}, {"authorId": "6421091", "name": "A. Letessier"}, {"authorId": "5269369", "name": "B. Delaval"}, {"authorId": "74880178", "name": "V. Brunel"}, {"authorId": "120873521", "name": "M. Imbert"}, {"authorId": "7518165", "name": "R. Garand"}, {"authorId": "3550642", "name": "L. Xerri"}, {"authorId": "46771885", "name": "D. Birnbaum"}, {"authorId": "143665253", "name": "M. Mozziconacci"}, {"authorId": "6096986", "name": "M. Chaffanet"}]}, {"paperId": "80fd00cb8016e275cde619cf30f3d4737069efe1", "title": "Downregulation of the large tumor suppressor 2 (LATS2/KPM) gene is associated with poor prognosis in acute lymphoblastic leukemia", "authors": [{"authorId": "1397589142", "name": "A. Jim\u00e9nez-Velasco"}, {"authorId": "1398068691", "name": "J. Rom\u00e1n-G\u00f3mez"}, {"authorId": "3635090", "name": "X. Agirre"}, {"authorId": "38161186", "name": "M. Barrios"}, {"authorId": "143647400", "name": "G. Navarro"}, {"authorId": "145669809", "name": "I. V\u00e1zquez"}, {"authorId": "3970559", "name": "F. Pr\u00f3sper"}, {"authorId": "2132465", "name": "A. Torres"}, {"authorId": "4765616", "name": "A. Heiniger"}]}, {"paperId": "d3e11b0f07cdbaab1890667e1967e93731020dd8", "title": "Insertion of microRNA-125b-1, a human homologue of lin-4, into a rearranged immunoglobulin heavy chain gene locus in a patient with precursor B-cell acute lymphoblastic leukemia", "authors": [{"authorId": "4378122", "name": "T. Sonoki"}, {"authorId": "13924036", "name": "E. Iwanaga"}, {"authorId": "36695944", "name": "H. Mitsuya"}, {"authorId": "6221666", "name": "N. Asou"}]}, {"paperId": "b607d05814a99ca6e1cba93adac5b8f96401cb99", "title": "WHO-defined chronic neutrophilic leukemia: a long-term analysis of 12 cases and a critical review of the literature", "authors": [{"authorId": "121985850", "name": "M. Elliott"}, {"authorId": "113169206", "name": "C. Hanson"}, {"authorId": "120512061", "name": "G. Dewald"}, {"authorId": "14142942", "name": "S. Smoley"}, {"authorId": "46412600", "name": "T. Lasho"}, {"authorId": "6386349", "name": "A. Tefferi"}]}, {"paperId": "7e54e334f7be478b16fcad5982c2c72943e5dff9", "title": "Gene expression profile reveals deregulation of genes with relevant functions in the different subclasses of acute myeloid leukemia", "authors": [{"authorId": "113721370", "name": "N. Guti\u00e9rrez"}, {"authorId": "1402257041", "name": "R. L\u00f3pez-P\u00e9rez"}, {"authorId": "145110674", "name": "J. Hern\u00e1ndez"}, {"authorId": "83548326", "name": "I. Isidro"}, {"authorId": "104856966", "name": "B. Gonzalez"}, {"authorId": "120526573", "name": "M. Delgado"}, {"authorId": "5196999", "name": "E. Fermi\u00f1\u00e1n"}, {"authorId": "144006950", "name": "J. Garc\u00eda"}, {"authorId": "144517280", "name": "L. V\u00e1zquez"}, {"authorId": "152586863", "name": "M. Gonz\u00e1lez"}, {"authorId": "145163150", "name": "J. Miguel"}]}, {"paperId": "829b0acdf0bb160734fdd61088d9748beeb3347f", "title": "The quantitative relation between platelet count and hemorrhage in patients with acute leukemia.", "authors": [{"authorId": "50380687", "name": "L. Gaydos"}, {"authorId": "46564224", "name": "E. Freireich"}, {"authorId": "6964430", "name": "N. Mantel"}]}, {"paperId": "299eee8475c860872ad3b1002c95a631dd1975eb", "title": "Rearrangement and expression of immunoglobulin genes and expression of Tac antigen in hairy cell leukemia.", "authors": [{"authorId": "3869477", "name": "S. Korsmeyer"}, {"authorId": "6554400", "name": "W. Greene"}, {"authorId": "6016133", "name": "J. Cossman"}, {"authorId": "31105050", "name": "S. Hsu"}, {"authorId": "152180545", "name": "J. Jensen"}, {"authorId": "31713182", "name": "L. Neckers"}, {"authorId": "145797532", "name": "S. Marshall"}, {"authorId": "1858638", "name": "A. Bakhshi"}, {"authorId": "5485724", "name": "J. Depper"}, {"authorId": "28398252", "name": "W. Leonard"}, {"authorId": "145301398", "name": "E. Jaffe"}, {"authorId": "3566159", "name": "T. Waldmann"}]}, {"paperId": "1b65cf27add120aa8e110bd109a45de6247a8f35", "title": "Lineage infidelity in acute leukemia.", "authors": [{"authorId": "2107558597", "name": "L. Smith"}, {"authorId": "35238500", "name": "J. Curtis"}, {"authorId": "6328319", "name": "H. Messner"}, {"authorId": "2944426", "name": "J. Senn"}, {"authorId": "6042608", "name": "H. Furthmayr"}, {"authorId": "1421487189", "name": "E. McCulloch"}]}, {"paperId": "4fb6bd7fd415c87d80351a30714a1844bd843be9", "title": "Overexpression of Shp2 tyrosine phosphatase is implicated in leukemogenesis in adult human leukemia.", "authors": [{"authorId": "36714752", "name": "R. Xu"}, {"authorId": "7877388", "name": "Ying-zi Yu"}, {"authorId": "46633052", "name": "Shu Zheng"}, {"authorId": "48551200", "name": "Xiaoying Zhao"}, {"authorId": "40424769", "name": "Q. Dong"}, {"authorId": "15364551", "name": "Zhi-wen He"}, {"authorId": "1410319093", "name": "Yun Liang"}, {"authorId": "145114226", "name": "Q. Lu"}, {"authorId": "10193103", "name": "Yong-ming Fang"}, {"authorId": "5327330", "name": "X. Gan"}, {"authorId": "50180736", "name": "Xiaohua Xu"}, {"authorId": "2108243755", "name": "Su-zhan Zhang"}, {"authorId": "143965329", "name": "Qi Dong"}, {"authorId": "2128027830", "name": "Xiao-hong Zhang"}, {"authorId": "1911684", "name": "G. Feng"}]}, {"paperId": "1e5f944673490117fab9febaf56cdaed003ec7f9", "title": "RAS mutation is associated with hyperdiploidy and parental characteristics in pediatric acute lymphoblastic leukemia", "authors": [{"authorId": "2556688", "name": "J. Wiemels"}, {"authorId": "10729243", "name": "Y. Zhang"}, {"authorId": "2107320132", "name": "J. Chang"}, {"authorId": "2107304734", "name": "S. Zheng"}, {"authorId": "5258871", "name": "C. Metayer"}, {"authorId": "66456425", "name": "L. Zhang"}, {"authorId": "143918104", "name": "M. Smith"}, {"authorId": "2157477446", "name": "X. Ma"}, {"authorId": "6733891", "name": "S. Selvin"}, {"authorId": "1397516463", "name": "P. Buffler"}, {"authorId": "2704556", "name": "J. Wiencke"}]}, {"paperId": "8abcfeaf7cc1f7554e5b9f32435bd538e5f900f9", "title": "Antigen-specific cellular immunotherapy of leukemia", "authors": [{"authorId": "144508252", "name": "A. V. Driessche"}, {"authorId": "2107457251", "name": "L. Gao"}, {"authorId": "39077695", "name": "H. Stauss"}, {"authorId": "2039439", "name": "P. Ponsaerts"}, {"authorId": "6725868", "name": "D. R. Bockstaele"}, {"authorId": "113819111", "name": "Z. Berneman"}, {"authorId": "122770947", "name": "V. V. Tendeloo"}]}, {"paperId": "22bb11c569e9b316292e2fe287a5cab45d9b2e43", "title": "Effect of granulocyte colony-stimulating factor after intensive induction therapy in relapsed or refractory acute leukemia.", "authors": [{"authorId": "3182215", "name": "R. Ohno"}, {"authorId": "4852363", "name": "M. Tomonaga"}, {"authorId": "48648888", "name": "T. Kobayashi"}, {"authorId": "5429328", "name": "A. Kanamaru"}, {"authorId": "2929695", "name": "S. Shirakawa"}, {"authorId": "69470776", "name": "T. Masaoka"}, {"authorId": "6717298", "name": "M. Omine"}, {"authorId": "5290579", "name": "H. Oh"}, {"authorId": "47621982", "name": "T. Nomura"}, {"authorId": "91652110", "name": "Y. Sakai"}]}, {"paperId": "a788bbf3a6a7c0b3d03e2c93a0ce1ff9545462c4", "title": "Pre-B-cell leukemia. A new phenotype of childhood lymphoblastic leukemia.", "authors": [{"authorId": "4252322", "name": "L. Vogler"}, {"authorId": "144999185", "name": "W. Crist"}, {"authorId": "5603585", "name": "D. Bockman"}, {"authorId": "34616038", "name": "E. R. Pearl"}, {"authorId": "143661555", "name": "A. Lawton"}, {"authorId": "145279913", "name": "M. Cooper"}]}, {"paperId": "1be1966b75f7c0aa1ee3b51425ddb795b52f0545", "title": "Leukemia in benzene workers.", "authors": [{"authorId": "66242673", "name": "R. Rinsky"}, {"authorId": "2114078787", "name": "R. Young"}, {"authorId": "48962051", "name": "A. B. Smith"}]}, {"paperId": "89920dd56939add12b634d627a0b7a5f633c75b0", "title": "Human myeloid leukemia cell lines: a review.", "authors": [{"authorId": "144423605", "name": "H. Koeffler"}, {"authorId": "32461937", "name": "D. Golde"}]}, {"paperId": "b3b8763cef68cc2c1bdbf9f6d6df86fc7a6ccd77", "title": "Histone deacetylase-targeted treatment restores retinoic acid signaling and differentiation in acute myeloid leukemia.", "authors": [{"authorId": "35321153", "name": "F. F. Ferrara"}, {"authorId": "32414055", "name": "F. Fazi"}, {"authorId": "35039956", "name": "A. Bianchini"}, {"authorId": "35623557", "name": "F. Padula"}, {"authorId": "4917788", "name": "V. Gelmetti"}, {"authorId": "4406801", "name": "S. Minucci"}, {"authorId": "143965497", "name": "M. Mancini"}, {"authorId": "49028750", "name": "P. Pelicci"}, {"authorId": "122278208", "name": "F. Lo Coco"}, {"authorId": "48680756", "name": "C. Nervi"}]}, {"paperId": "22796f8defd16505a7b12f6f942888ef7f89d1a6", "title": "Pesticide exposures and other agricultural risk factors for leukemia among men in Iowa and Minnesota.", "authors": [{"authorId": "144393187", "name": "L. Brown"}, {"authorId": "32648541", "name": "A. Blair"}, {"authorId": "34841110", "name": "R. Gibson"}, {"authorId": "2084172932", "name": "G. Everett"}, {"authorId": "4880732", "name": "K. Cantor"}, {"authorId": "3932621", "name": "L. Schuman"}, {"authorId": "4826125", "name": "L. Burmeister"}, {"authorId": "15987770", "name": "S. V. Van Lier"}, {"authorId": "37504738", "name": "F. Dick"}]}, {"paperId": "49344313a6aca37ea941d97529f6d82e95bcbdca", "title": "Retinoic acid-induced granulocytic differentiation of HL-60 myeloid leukemia cells is mediated directly through the retinoic acid receptor (RAR-alpha).", "authors": [{"authorId": "50280902", "name": "S. Collins"}, {"authorId": "3228196", "name": "K. Robertson"}, {"authorId": "88878421", "name": "L. Mueller"}]}, {"paperId": "51144d80cee73283a7be669fde5583e929a58f92", "title": "Biotherapy of B-cell precursor leukemia by targeting genistein to CD19-associated tyrosine kinases", "authors": [{"authorId": "153639269", "name": "F. Uckun"}, {"authorId": "144141201", "name": "W. Evans"}, {"authorId": "2060622910", "name": "C. Forsyth"}, {"authorId": "2111495951", "name": "KG Waddick"}, {"authorId": "2111495332", "name": "LT Ahlgren"}, {"authorId": "49554981", "name": "L. Chelstrom"}, {"authorId": "2924203", "name": "A. Burkhardt"}, {"authorId": "3713834", "name": "J. Bolen"}, {"authorId": "145702621", "name": "D. Myers"}]}, {"paperId": "47e71a1f883d8dd0a529ff150cdb105170c44cfd", "title": "Secondary leukemia or myelodysplastic syndrome after treatment with epipodophyllotoxins.", "authors": [{"authorId": "144937935", "name": "M. Smith"}, {"authorId": "39070108", "name": "L. Rubinstein"}, {"authorId": "152737247", "name": "J. Anderson"}, {"authorId": "144626829", "name": "D. Arthur"}, {"authorId": "3247381", "name": "P. Catalano"}, {"authorId": "2893076", "name": "B. Freidlin"}, {"authorId": "6977644", "name": "R. Heyn"}, {"authorId": "78424879", "name": "A. Khayat"}, {"authorId": "3756633", "name": "M. Krailo"}, {"authorId": "2826283", "name": "V. Land"}, {"authorId": "2262264", "name": "J. Miser"}, {"authorId": "145589848", "name": "J. Shuster"}, {"authorId": "35096766", "name": "D. Vena"}]}, {"paperId": "97edc3f5fbcfc81bbb0e98ee32b41f60e6dc9b4d", "title": "ATM mutations in B-cell chronic lymphocytic leukemia.", "authors": [{"authorId": "5322065", "name": "F. Bullrich"}, {"authorId": "4473640", "name": "D. Rasio"}, {"authorId": "4151190", "name": "S. Kitada"}, {"authorId": "4287359", "name": "P. Starostik"}, {"authorId": "2596557", "name": "T. Kipps"}, {"authorId": "147505138", "name": "M. Keating"}, {"authorId": "3710247", "name": "M. Albitar"}, {"authorId": "29485276", "name": "John Calvin Reed"}, {"authorId": "144749275", "name": "C. Croce"}]}, {"paperId": "0e67d7630471cde5c11c54735dc49344d4182676", "title": "The t(3;5)(q25.1;q34) of myelodysplastic syndrome and acute myeloid leukemia produces a novel fusion gene, NPM-MLF1.", "authors": [{"authorId": "1398764430", "name": "N. Yoneda\u2010Kato"}, {"authorId": "145348521", "name": "A. Look"}, {"authorId": "32828382", "name": "M. Kirstein"}, {"authorId": "38788604", "name": "M. Valentine"}, {"authorId": "3080705", "name": "S. Raimondi"}, {"authorId": "5215612", "name": "K. Cohen"}, {"authorId": "48945990", "name": "A. Carroll"}, {"authorId": "38406583", "name": "S. Morris"}]}, {"paperId": "5494971c74cdaa6aba498af6394725f066386903", "title": "p15(INK4B) CpG island methylation in primary acute leukemia is heterogeneous and suggests density as a critical factor for transcriptional silencing.", "authors": [{"authorId": "40379236", "name": "E. E. Cameron"}, {"authorId": "35066027", "name": "S. Baylin"}, {"authorId": "144455255", "name": "J. Herman"}]}, {"paperId": "5c46ce25c3a692257c2fd35d5b67913f8ecc87ec", "title": "A novel fusion between MOZ and the nuclear receptor coactivator TIF2 in acute myeloid leukemia.", "authors": [{"authorId": "4291098", "name": "M. Carapeti"}, {"authorId": "145391395", "name": "R. Aguiar"}, {"authorId": "48968929", "name": "J. Goldman"}, {"authorId": "145129586", "name": "N. Cross"}]}, {"paperId": "dca69fc1a05e820dabc4d9faf7f4bd9037ecd65b", "title": "Gene transfer of CD40-ligand induces autologous immune recognition of chronic lymphocytic leukemia B cells.", "authors": [{"authorId": "49568720", "name": "K. Kato"}, {"authorId": "39723616", "name": "M. Cantwell"}, {"authorId": "4781884", "name": "S. Sharma"}, {"authorId": "2596557", "name": "T. Kipps"}]}, {"paperId": "06e50938f1d659c0a2c6ef6567f112a757955419", "title": "Chronic myelogenous leukemia", "authors": [{"authorId": "3092258", "name": "M. Mauro"}, {"authorId": "144082761", "name": "B. Druker"}]}, {"paperId": "08429c05f477c35e19a9b70b4b30aba3c44f28f0", "title": "Clinical importance of lymphoblasts with T markers in childhood acute leukemia.", "authors": [{"authorId": "144832565", "name": "L. Sen"}, {"authorId": "3581479", "name": "L. Borella"}]}, {"paperId": "d18e6e79601ebd339da2d20a5a27e31a14bdae1c", "title": "Oncogenic transcription factors in the human acute leukemias.", "authors": [{"authorId": "145348521", "name": "A. Look"}]}, {"paperId": "0d1249201823716d6aba846120d004674f469a4b", "title": "Induction of morphological and functional differentiation of human promyelocytic leukemia cells (HL\u201060) by compounds which induce differentiation of murine leukemia cells", "authors": [{"authorId": "50280902", "name": "S. Collins"}, {"authorId": "143983718", "name": "A. Bodner"}, {"authorId": "153891716", "name": "R. Ting"}, {"authorId": "74941680", "name": "R. Gallo"}]}, {"paperId": "b5466868a475d769c21c1f300888d78fec8c1b2d", "title": "Selective inhibition of leukemia cell proliferation by BCR-ABL antisense oligodeoxynucleotides.", "authors": [{"authorId": "5900855", "name": "C. Szczylik"}, {"authorId": "4781220", "name": "T. Skorski"}, {"authorId": "6039597", "name": "N. Nicolaides"}, {"authorId": "2496576", "name": "L. Manzella"}, {"authorId": "3556162", "name": "L. Malaguarnera"}, {"authorId": "2626720", "name": "D. Venturelli"}, {"authorId": "3720630", "name": "A. Gewirtz"}, {"authorId": "5940582", "name": "B. Calabretta"}]}, {"paperId": "f9d7e18468d6c03a67c03c22985745ab47fbc514", "title": "Classification and diagnosis of myeloproliferative neoplasms: The 2008 World Health Organization criteria and point-of-care diagnostic algorithms", "authors": [{"authorId": "6386349", "name": "A. Tefferi"}, {"authorId": "39514906", "name": "J. Vardiman"}]}, {"paperId": "958666a04e47f19b7f2ab22bf0f97eb99e522c77", "title": "Complete nucleotide sequence of an infectious clone of human T-cell leukemia virus type II: an open reading frame for the protease gene.", "authors": [{"authorId": "5757780", "name": "K. Shimotohno"}, {"authorId": "2107352473", "name": "Y. Takahashi"}, {"authorId": "2075367077", "name": "N. Shimizu"}, {"authorId": "1758302", "name": "T. Gojobori"}, {"authorId": "32461937", "name": "D. Golde"}, {"authorId": "1381604471", "name": "I. Chen"}, {"authorId": "2811675", "name": "M. Miwa"}, {"authorId": "145300957", "name": "T. Sugimura"}]}, {"paperId": "b2c4000c67bbad1c0af2df0f56de4cd645c0dd62", "title": "Secondary acute myeloid leukemia in children with acute lymphoblastic leukemia treated with etoposide.", "authors": [{"authorId": "4526066", "name": "N. Winick"}, {"authorId": "1866104", "name": "R. Mckenna"}, {"authorId": "145589848", "name": "J. Shuster"}, {"authorId": "23221349", "name": "N. Schneider"}, {"authorId": "4019536", "name": "M. Borowitz"}, {"authorId": "144975799", "name": "W. Bowman"}, {"authorId": "11579808", "name": "D. Jacaruso"}, {"authorId": "5438519", "name": "B. Kamen"}, {"authorId": "1771667", "name": "G. Buchanan"}]}, {"paperId": "353cf220821662b7d0eeaad47de48a3a3ded5928", "title": "Distribution of 11q23 breakpoints within the MLL breakpoint cluster region in de novo acute leukemia and in treatment-related acute myeloid leukemia: correlation with scaffold attachment regions and topoisomerase II consensus binding sites.", "authors": [{"authorId": "12171571", "name": "P. Broeker"}, {"authorId": "122845463", "name": "H. Super"}, {"authorId": "1417856672", "name": "M. Thirman"}, {"authorId": "4897405", "name": "H. Pomykala"}, {"authorId": "92442495", "name": "Y. Yonebayashi"}, {"authorId": "8134364", "name": "S. Tanabe"}, {"authorId": "1401940318", "name": "N. Zeleznik-Le"}, {"authorId": "81198053", "name": "J. Rowley"}]}, {"paperId": "f1ba914dfdfeec3b010f38235af67cc99c12da68", "title": "Leukemia after therapy with alkylating agents for childhood cancer.", "authors": [{"authorId": "32172793", "name": "M. Tucker"}, {"authorId": "3188948", "name": "A. Meadows"}, {"authorId": "50405665", "name": "J. Boice"}, {"authorId": "4513830", "name": "M. Stovall"}, {"authorId": "32886872", "name": "O. Oberlin"}, {"authorId": "122859324", "name": "B. Stone"}, {"authorId": "145606631", "name": "J. Birch"}, {"authorId": "4018070", "name": "P. Vo\u00fbte"}, {"authorId": "1928980", "name": "R. Hoover"}, {"authorId": "4054421", "name": "J. Fraumeni"}]}, {"paperId": "0b80819f50041467b1f2b2cdca59c766ea526328", "title": "Cyclosporin A reverses vincristine and daunorubicin resistance in acute lymphatic leukemia in vitro.", "authors": [{"authorId": "3619062", "name": "L. Slater"}, {"authorId": "4281839", "name": "P. Sweet"}, {"authorId": "6925749", "name": "M. Stupecky"}, {"authorId": "144172087", "name": "S. Gupta"}]}, {"paperId": "c8e70755684c9365004676186d5681caa03c0702", "title": "Bone marrow transplantation for leukemia following a new busulfan and cyclophosphamide regimen.", "authors": [{"authorId": "4961115", "name": "P. Tutschka"}, {"authorId": "4662384", "name": "E. Copelan"}, {"authorId": "4033024", "name": "J. Klein"}]}, {"paperId": "79fa58eba47789d6f1d922652901d4ba0aef3e5d", "title": "Treatment of acute lymphoblastic leukemia. 30 years' experience at St. Jude Children's Research Hospital.", "authors": [{"authorId": "144898982", "name": "G. Rivera"}, {"authorId": "47466001", "name": "D. Pinkel"}, {"authorId": "80892341", "name": "J. Simone"}, {"authorId": "50164552", "name": "M. Hancock"}, {"authorId": "144999185", "name": "W. Crist"}]}, {"paperId": "776a10dbe959efa3b232f0a98aceb1ab7062f1d9", "title": "Natural antibodies to human retrovirus HTLV in a cluster of Japanese patients with adult T cell leukemia.", "authors": [{"authorId": "1400031347", "name": "M. Robert-Guroff"}, {"authorId": "4273740", "name": "Y. Nakao"}, {"authorId": "8285313", "name": "K. Notake"}, {"authorId": "2107858202", "name": "Y. Ito"}, {"authorId": "7948140", "name": "A. Sliski"}, {"authorId": "74941680", "name": "R. Gallo"}]}, {"paperId": "910827e4af2a0dedeee5161d88267144892a1445", "title": "Clonal development, stem-cell differentiation, and clinical remissions in acute nonlymphocytic leukemia.", "authors": [{"authorId": "1421091780", "name": "P. Fialkow"}, {"authorId": "82676872", "name": "J. Singer"}, {"authorId": "6865684", "name": "W. Raskind"}, {"authorId": "20399621", "name": "J. Adamson"}, {"authorId": "35530500", "name": "R. Jacobson"}, {"authorId": "4220607", "name": "I. Bernstein"}, {"authorId": "2970941", "name": "L. Dow"}, {"authorId": "4530230", "name": "V. Najfeld"}, {"authorId": "2073252689", "name": "R. Veith"}]}]}
