{"total": 780808, "offset": 600, "next": 650, "data": [{"paperId": "80c0a2e2bfac94f734cb7ae8afd46bea2f1fd9e3", "title": "A novel natural killer cell line (KHYG-1) from a patient with aggressive natural killer cell leukemia carrying a p53 point mutation", "authors": [{"authorId": "89045737", "name": "M. Yagita"}, {"authorId": "2110514112", "name": "C-l Huang"}, {"authorId": "7914604", "name": "H. Umehara"}, {"authorId": "2044140", "name": "Y. Matsuo"}, {"authorId": "1454473586", "name": "R. Tabata"}, {"authorId": "2094951764", "name": "M. Miyake"}, {"authorId": "2776881", "name": "Y. Konaka"}, {"authorId": "4509583", "name": "K. Takatsuki"}]}, {"paperId": "6740cfa4feadadafc30c4d6fee4b64399067ccff", "title": "11q23 rearrangements in acute leukemia.", "authors": [{"authorId": "3134358", "name": "J. Rubnitz"}, {"authorId": "4101875", "name": "F. Behm"}, {"authorId": "151435580", "name": "J. Downing"}]}, {"paperId": "4ad2edde9cba70690cdd0f4089d975ef6aece80b", "title": "Chronic myelogenous leukemia: mechanisms underlying disease progression", "authors": [{"authorId": "40415134", "name": "A. Shet"}, {"authorId": "32481594", "name": "B. Jahagirdar"}, {"authorId": "88588937", "name": "C. Verfaillie"}]}, {"paperId": "6b6e4672128a84e47abcb3a7f9d41aa97fe60349", "title": "\u201cSpontaneous\u201d Leukemia Developing in G3H Mice Following Inoculation, In Infancy, with AK-Emkemic.\u2217", "authors": [{"authorId": "145108462", "name": "L. Gross"}]}, {"paperId": "2d592c7f33406ea4bdd1609ad534cff76adb0718", "title": "Rescue of the defective genome of Moloney sarcoma virus from a noninfectious hamster tumor and the production of pseudotype sarcoma viruses with various murine leukemia viruses.", "authors": [{"authorId": "2463529", "name": "R. Huebner"}, {"authorId": "1745592", "name": "J. Hartley"}, {"authorId": "5631668", "name": "W. Rowe"}, {"authorId": "6317715", "name": "W. T. Lane"}, {"authorId": "17027328", "name": "W. Capps"}]}, {"paperId": "f823fcc937674ab2125c6a483af66eab8cec7cfb", "title": "Age- and sex-specific incidence of childhood leukemia by immunophenotype in the Nordic countries.", "authors": [{"authorId": "4420014", "name": "L. Hjalgrim"}, {"authorId": "4282120", "name": "K. Rostgaard"}, {"authorId": "5197155", "name": "K. Schmiegelow"}, {"authorId": "4873668", "name": "S. So\u0308derha\u0308ll"}, {"authorId": "9894632", "name": "S. Kolmannskog"}, {"authorId": "4361046", "name": "K. Vettenranta"}, {"authorId": "143697696", "name": "J. Kristinsson"}, {"authorId": "6732667", "name": "N. Clausen"}, {"authorId": "6708777", "name": "M. Melbye"}, {"authorId": "6981864", "name": "H. Hjalgrim"}, {"authorId": "1816915", "name": "G. Gustafsson"}]}, {"paperId": "00bfda449a74faeb97e88454bd8c84f29dcbaf96", "title": "Definition of acute biphenotypic leukemia.", "authors": [{"authorId": "6416325", "name": "E. Matutes"}, {"authorId": "4552470", "name": "R. Morilla"}, {"authorId": "7281902", "name": "N. Farahat"}, {"authorId": "145649400", "name": "F. Carbonell"}, {"authorId": "5231567", "name": "J. Swansbury"}, {"authorId": "82482689", "name": "M. Dyer"}, {"authorId": "4849492", "name": "D. Catovsky"}]}, {"paperId": "d4720d9957cdf759788cbd4e40af375abde8b295", "title": "MSF (MLL septin-like fusion), a fusion partner gene of MLL, in a therapy-related acute myeloid leukemia with a t(11;17)(q23;q25).", "authors": [{"authorId": "114442138", "name": "M. Osaka"}, {"authorId": "39226319", "name": "J. Rowley"}, {"authorId": "1401940318", "name": "N. Zeleznik-Le"}]}, {"paperId": "1515e44d6f60c96e1a566255a0f08ca90e0636d6", "title": "Wilms' tumor (WT1) gene mutations occur mainly in acute myeloid leukemia and may confer drug resistance.", "authors": [{"authorId": "1420029517", "name": "L. King-Underwood"}, {"authorId": "1437007733", "name": "K. Pritchard-Jones"}]}, {"paperId": "439d0da9a41bc7173a0aa32ce2cc3a17f6d277e5", "title": "Chemokine Receptors and Stromal Cells in the Homing and Homeostasis of Chronic Lymphocytic Leukemia B Cells", "authors": [{"authorId": "144507282", "name": "J. Burger"}, {"authorId": "2596557", "name": "T. Kipps"}]}, {"paperId": "3dce7b93ae7beb1fe2a931e067703d4749d92da0", "title": "Parental alcohol consumption, cigarette smoking, and risk of infant leukemia: a Childrens Cancer Group study.", "authors": [{"authorId": "2363552", "name": "X. Shu"}, {"authorId": "144858609", "name": "J. Ross"}, {"authorId": "3447746", "name": "T. Pendergrass"}, {"authorId": "49600470", "name": "G. Reaman"}, {"authorId": "47671116", "name": "B. Lampkin"}, {"authorId": "145267672", "name": "L. Robison"}]}, {"paperId": "3bb8d5b51aa8e771a29ba1f604079286149b42c2", "title": "Breast-feeding and risk of childhood acute leukemia.", "authors": [{"authorId": "2363552", "name": "X. Shu"}, {"authorId": "143759976", "name": "M. Linet"}, {"authorId": "50642938", "name": "M. Steinbuch"}, {"authorId": "2909007", "name": "W. Wen"}, {"authorId": "31800086", "name": "J. Buckley"}, {"authorId": "47861977", "name": "J. Neglia"}, {"authorId": "144462022", "name": "J. Potter"}, {"authorId": "49600470", "name": "G. Reaman"}, {"authorId": "145267672", "name": "L. Robison"}]}, {"paperId": "679beb316625d89505071cb5561aaf52bf6ef1fe", "title": "Measurement of residual leukemia during remission in childhood acute lymphoblastic leukemia.", "authors": [{"authorId": "145926843", "name": "W. Roberts"}, {"authorId": "4976314", "name": "Z. Estrov"}, {"authorId": "118512807", "name": "M. Ouspenskaia"}, {"authorId": "2604302", "name": "D. Johnston"}, {"authorId": "2088873", "name": "K. McClain"}, {"authorId": "3977549", "name": "T. Zipf"}]}, {"paperId": "27b5ff78bdfb4b7dbd6136589ca3bf7ebf880bd2", "title": "CD8(+) minor histocompatibility antigen-specific cytotoxic T lymphocyte clones eliminate human acute myeloid leukemia stem cells.", "authors": [{"authorId": "49963527", "name": "D. Bonnet"}, {"authorId": "5061451", "name": "E. Warren"}, {"authorId": "31152618", "name": "P. Greenberg"}, {"authorId": "3053653", "name": "J. Dick"}, {"authorId": "3907851", "name": "S. Riddell"}]}, {"paperId": "ece334dcd61bd205676e3b7be79b51d4b27c1d26", "title": "Risk of secondary leukemia after a solid tumor in childhood according to the dose of epipodophyllotoxins and anthracyclines: a case-control study by the Soci\u00e9t\u00e9 Fran\u00e7aise d'Oncologie P\u00e9diatrique.", "authors": [{"authorId": "3814132", "name": "M. Le Deley"}, {"authorId": "145427464", "name": "T. Leblanc"}, {"authorId": "15101893", "name": "A. Shamsaldin"}, {"authorId": "3652287", "name": "M. Raquin"}, {"authorId": "3773738", "name": "B. Lacour"}, {"authorId": "3585303", "name": "D. Sommelet"}, {"authorId": "6022095", "name": "A. Chompret"}, {"authorId": "78004104", "name": "J. Cayuela"}, {"authorId": "6637084", "name": "C. Bayle"}, {"authorId": "2007166", "name": "A. Bernheim"}, {"authorId": "6804768", "name": "F. de Vathaire"}, {"authorId": "5385745", "name": "G. Vassal"}, {"authorId": "1813092", "name": "C. Hill"}]}, {"paperId": "aaaf57c755813b833650ed6fccef4ed1600df939", "title": "Cytotoxic T lymphocytes specific for a nonpolymorphic proteinase 3 peptide preferentially inhibit chronic myeloid leukemia colony-forming units.", "authors": [{"authorId": "2552860", "name": "J. Molldrem"}, {"authorId": "4539956", "name": "E. Clave"}, {"authorId": "1924654963", "name": "Y. Z. Jiang"}, {"authorId": "49744165", "name": "D. Mavroudis"}, {"authorId": "5486529", "name": "A. Raptis"}, {"authorId": "4049337", "name": "N. Hensel"}, {"authorId": "2093018880", "name": "V. Agarwala"}, {"authorId": "145226749", "name": "A. Barrett"}]}, {"paperId": "a82357938d531a527480007dc2d5d5bb40d83e99", "title": "Review of the incidence and clinical relevance of myeloid antigen-positive acute lymphoblastic leukemia.", "authors": [{"authorId": "2370341", "name": "H. Drexler"}, {"authorId": "143732314", "name": "E. Thiel"}, {"authorId": "93446559", "name": "W. Ludwig"}]}, {"paperId": "d4714fe80c6d5150340b2daa32d24a6bf9782b1f", "title": "Fusion of MOZ and p300 histone acetyltransferases in acute monocytic leukemia with a t(8;22)(p11;q13) chromosome translocation", "authors": [{"authorId": "5416874", "name": "I. Kitabayashi"}, {"authorId": "3604906", "name": "Y. Aikawa"}, {"authorId": "2049359845", "name": "A. Yokoyama"}, {"authorId": "2414862", "name": "F. Hosoda"}, {"authorId": "39347231", "name": "M. Nagai"}, {"authorId": "4617637", "name": "N. Kakazu"}, {"authorId": "39755327", "name": "T. Abe"}, {"authorId": "145627129", "name": "M. Ohki"}]}, {"paperId": "750f791733303515cc87940fb0a7a1f30494f961", "title": "The EVI1 gene in myeloid leukemia", "authors": [{"authorId": "47835481", "name": "G. Nucifora"}]}, {"paperId": "09ba9f9aeb0bea7726250142909db95a6d3d8497", "title": "Possible dominant-negative mutation of the SHIP gene in acute myeloid leukemia", "authors": [{"authorId": "2111696609", "name": "J-M Luo"}, {"authorId": "2107331829", "name": "H. Yoshida"}, {"authorId": "49186613", "name": "S. Komura"}, {"authorId": "5552051", "name": "N. Ohishi"}, {"authorId": "48869458", "name": "L. Pan"}, {"authorId": "32499668", "name": "K. Shigeno"}, {"authorId": "5898985", "name": "I. Hanamura"}, {"authorId": "2053852432", "name": "K. Miura"}, {"authorId": "34805414", "name": "S. Iida"}, {"authorId": "7681625", "name": "R. Ueda"}, {"authorId": "4143060", "name": "T. Naoe"}, {"authorId": "3838727", "name": "Y. Akao"}, {"authorId": "3182215", "name": "R. Ohno"}, {"authorId": "2275399", "name": "K. Ohnishi"}]}, {"paperId": "0e6cc6ae61c0e3c30f13f8a9e933cd942c234eb2", "title": "Constitutive activation of mitogen-activated protein kinase pathway in acute leukemia cells", "authors": [{"authorId": "3771950", "name": "M. Towatari"}, {"authorId": "2053493182", "name": "H. Iida"}, {"authorId": "83419294", "name": "M. Tanimoto"}, {"authorId": "49516145", "name": "H. Iwata"}, {"authorId": "3950838", "name": "M. Hamaguchi"}, {"authorId": "48382374", "name": "H. Saito"}]}, {"paperId": "dfadc6c5cde476a7e8cc6fc47c37f0d8aced777c", "title": "Histone deacetylase inhibitors are the potent inducer/enhancer of differentiation in acute myeloid leukemia: a new approach to anti-leukemia therapy", "authors": [{"authorId": "50674837", "name": "H. Kosugi"}, {"authorId": "3771950", "name": "M. Towatari"}, {"authorId": "32361867", "name": "S. Hatano"}, {"authorId": "153544539", "name": "K. Kitamura"}, {"authorId": "5392273", "name": "H. Kiyoi"}, {"authorId": "83612951", "name": "T. Kinoshita"}, {"authorId": "83419294", "name": "M. Tanimoto"}, {"authorId": "3842900", "name": "T. Murate"}, {"authorId": "49189496", "name": "K. Kawashima"}, {"authorId": "48382374", "name": "H. Saito"}, {"authorId": "4143060", "name": "T. Naoe"}]}, {"paperId": "f9608d21339914398c6b4dac1e992951da063e4e", "title": "Cytogenetic pattern in acute myelogenous leukemia: a major reproducible determinant of outcome.", "authors": [{"authorId": "2091897", "name": "M. Keating"}, {"authorId": "153580437", "name": "T. Smith"}, {"authorId": "49096572", "name": "H. Kantarjian"}, {"authorId": "4692148", "name": "A. Cork"}, {"authorId": "145637622", "name": "R. Walters"}, {"authorId": "145194132", "name": "J. Trujillo"}, {"authorId": "4093800", "name": "K. McCredie"}, {"authorId": "4905393", "name": "E. Gehan"}, {"authorId": "4251409", "name": "E. Freireich"}]}, {"paperId": "9facc2eb616d0dfa670b54c71f5814b45272487c", "title": "Clinical significance of minimal residual disease in childhood acute lymphoblastic leukemia after first relapse", "authors": [{"authorId": "1390067028", "name": "E. Coustan-Smith"}, {"authorId": "3732235", "name": "A. Gajjar"}, {"authorId": "37925284", "name": "N. Hijiya"}, {"authorId": "3564566", "name": "B. Razzouk"}, {"authorId": "145517478", "name": "R. Ribeiro"}, {"authorId": "144898982", "name": "G. Rivera"}, {"authorId": "3134358", "name": "J. Rubnitz"}, {"authorId": "2501185", "name": "J. Sandlund"}, {"authorId": "13666081", "name": "M. Andre\u00e1nsky"}, {"authorId": "50164552", "name": "M. Hancock"}, {"authorId": "143836865", "name": "C. Pui"}, {"authorId": "8965350", "name": "D. Campana"}]}, {"paperId": "6dde767d69ab27cb7c720f11533f48f3efda000a", "title": "Betulinic acid-induced apoptosis in leukemia cells", "authors": [{"authorId": "2062807437", "name": "H. Ehrhardt"}, {"authorId": "5810637", "name": "S. Fulda"}, {"authorId": "15581218", "name": "M. F\u00fchrer"}, {"authorId": "143640879", "name": "K. Debatin"}, {"authorId": "4021076", "name": "I. Jeremias"}]}, {"paperId": "31bbbc5616cd87541983ce3a5e1f5f49adf11e89", "title": "Axl expression is associated with adverse prognosis and with expression of Bcl-2 and CD34 in de novo acute myeloid leukemia (AML): results from a multicenter trial of the Swiss Group for Clinical Cancer Research (SAKK)", "authors": [{"authorId": "3802289", "name": "C. Rochlitz"}, {"authorId": "6686113", "name": "A. Lohri"}, {"authorId": "4049838", "name": "M. Bacchi"}, {"authorId": "2107374493", "name": "M. Schmidt"}, {"authorId": "2204585", "name": "S. Nagel"}, {"authorId": "3505572", "name": "M. Fopp"}, {"authorId": "2065797981", "name": "M. Fey"}, {"authorId": "1799215", "name": "R. Herrmann"}, {"authorId": "48972461", "name": "A. Neubauer"}]}, {"paperId": "59f2b3f505db69cf7c7939fe8a32179fdfafb220", "title": "Acute promyelocytic leukemia: a curable disease", "authors": [{"authorId": "7401213", "name": "F. Coco"}, {"authorId": "48680756", "name": "C. Nervi"}, {"authorId": "4357804", "name": "G. Avvisati"}, {"authorId": "4727924", "name": "F. Mandelli"}]}, {"paperId": "2953a92c0475573fadcab8094f26680f2d3f3e6f", "title": "Early lymphocyte recovery is a predictive factor for prolonged survival after autologous hematopoietic stem cell transplantation for acute myelogenous leukemia", "authors": [{"authorId": "34695666", "name": "L. Porrata"}, {"authorId": "4033510", "name": "M. Litzow"}, {"authorId": "6386349", "name": "A. Tefferi"}, {"authorId": "7941092", "name": "L. Letendre"}, {"authorId": "49596488", "name": "Santhosh K. P. Kumar"}, {"authorId": "1752948", "name": "S. Geyer"}, {"authorId": "145641603", "name": "S. Markovi\u0107"}]}, {"paperId": "282fbcf379dd70d6ad4e5d61dfb70f6fe86b2deb", "title": "Telomerase inhibition enhances apoptosis in human acute leukemia cells: possibility of antitelomerase therapy", "authors": [{"authorId": "4674523", "name": "A. Nakajima"}, {"authorId": "2630468", "name": "T. Tauchi"}, {"authorId": "3674077", "name": "G. Sashida"}, {"authorId": "89017861", "name": "M. Sumi"}, {"authorId": "145000543", "name": "K. Abe"}, {"authorId": "2107576071", "name": "K. Yamamoto"}, {"authorId": "4990345", "name": "J. Ohyashiki"}, {"authorId": "6449215", "name": "K. Ohyashiki"}]}, {"paperId": "9f7e90738c76184aca24cc722bed6cef64de5ea3", "title": "Hypothesis: Phenol and hydroquinone derived mainly from diet and gastrointestinal flora activity are causal factors in leukemia", "authors": [{"authorId": "103814729", "name": "T. McDonald"}, {"authorId": "120324669", "name": "N. Holland"}, {"authorId": "5125588", "name": "C. Skibola"}, {"authorId": "5059831", "name": "P. Duramad"}, {"authorId": "2111134610", "name": "MT Smith"}]}, {"paperId": "0a3fb7037e8f71c35856be68970ef280238d15a3", "title": "Arginine deiminase inhibits proliferation of human leukemia cells more potently than asparaginase by inducing cell cycle arrest and apoptosis", "authors": [{"authorId": "152856283", "name": "H. Gong"}, {"authorId": "47537595", "name": "F. Z\u00f6lzer"}, {"authorId": "20682767", "name": "G. Recklinghausen"}, {"authorId": "5042300", "name": "W. Havers"}, {"authorId": "48895596", "name": "Lothar Schweigerer"}]}, {"paperId": "30642fc5636172c90c49f13b841159a01da83333", "title": "The Hsp90 inhibitor geldanamycin selectively sensitizes Bcr-Abl-expressing leukemia cells to cytotoxic chemotherapy", "authors": [{"authorId": "120282333", "name": "M. Blagosklonny"}, {"authorId": "5136618", "name": "T. Fojo"}, {"authorId": "2093122766", "name": "K. Bhalla"}, {"authorId": "4556856", "name": "J.S. Kim"}, {"authorId": "91760154", "name": "J. Trepel"}, {"authorId": "153397717", "name": "W. Figg"}, {"authorId": "50470532", "name": "Y. Rivera"}, {"authorId": "152632173", "name": "L. Neckers"}]}, {"paperId": "1b98954dcc2e691f395d66be92091c0cfd7d333a", "title": "Expression of a human endogenous retrovirus, HERV-K, in the blood cells of leukemia patients", "authors": [{"authorId": "4522114", "name": "S. Depil"}, {"authorId": "3053813", "name": "C. Roche"}, {"authorId": "40157683", "name": "P. Dussart"}, {"authorId": "3242351", "name": "L. Prin"}]}, {"paperId": "456f96c4eedc07b18ad8ba89cbc9e0fcf9c50063", "title": "Incidence and prognostic value of respiratory events in acute leukemia", "authors": [{"authorId": "4597638", "name": "D. Chaoui"}, {"authorId": "5558570", "name": "O. Legrand"}, {"authorId": "4078332", "name": "N. Roche"}, {"authorId": "145554288", "name": "M. Cornet"}, {"authorId": "47726786", "name": "A. Lefebvre"}, {"authorId": "12320534", "name": "R. Latour"}, {"authorId": "4882717", "name": "L. Sanhes"}, {"authorId": "4129179", "name": "G. Huchon"}, {"authorId": "50526323", "name": "J. Marie"}, {"authorId": "5810940", "name": "A. Rabbat"}]}, {"paperId": "1f1c8a451e1fc0f76ed9f17d1c746ac13b0612cc", "title": "Chronic myelomonocytic leukemia", "authors": [{"authorId": "143732087", "name": "J. Bennett"}]}, {"paperId": "89d841bed834e6b8ad0bbe71504e10ee478a1d4d", "title": "WT1 in acute leukemia, chronic myelogenous leukemia and myelodysplastic syndrome: therapeutic potential of WT1 targeted therapies", "authors": [{"authorId": "46519879", "name": "C. Rosenfeld"}, {"authorId": "5089938", "name": "M. Cheever"}, {"authorId": "6348919", "name": "A. Gaiger"}]}, {"paperId": "1129d9a69fb6c1b51d81b0623b9d5ce62c411e75", "title": "The natural history and clinico-pathological features of the variant form of hairy cell leukemia", "authors": [{"authorId": "6416325", "name": "E. Matutes"}, {"authorId": "48464562", "name": "A. Wotherspoon"}, {"authorId": "1404685114", "name": "V. Brito-Babapulle"}, {"authorId": "4849492", "name": "D. Catovsky"}]}, {"paperId": "b07ab09a969c8d90875660e3e4f1f47a14cd9f4f", "title": "Chronic myelogenous leukemia: biology and therapy.", "authors": [{"authorId": "144516652", "name": "R. Gale"}, {"authorId": "5561617", "name": "G. Grosveld"}, {"authorId": "5777707", "name": "E. Canaani"}, {"authorId": "48968929", "name": "J. Goldman"}]}, {"paperId": "1abdf5aac6615d48594171614cac1802216e9c5e", "title": "Myelodysplasia and acute myelogenous leukemia in Down's syndrome. A report of 40 children of the AML-BFM Study Group.", "authors": [{"authorId": "49505313", "name": "U. Creutzig"}, {"authorId": "1735268", "name": "J. Ritter"}, {"authorId": "6602362", "name": "J. Vormoor"}, {"authorId": "93446559", "name": "W. Ludwig"}, {"authorId": "152497423", "name": "C. Niemeyer"}, {"authorId": "12394123", "name": "I. Reinisch"}, {"authorId": "1398161469", "name": "B. Stollmann-Gibbels"}, {"authorId": "145341615", "name": "M. Zimmermann"}, {"authorId": "3615395", "name": "J. Harbott"}]}, {"paperId": "cfcabf9ea8fcb3a529a604e3c459621b2c58daeb", "title": "An infectious etiology for common acute lymphoblastic leukemia in childhood?", "authors": [{"authorId": "33807869", "name": "M. Greaves"}, {"authorId": "48008536", "name": "F. Alexander"}]}, {"paperId": "3433b10848fd9d713a18f94ca2872fa2e67fcb96", "title": "Activation of Apoptosis in Vivo by a Hydrocarbon-Stapled BH3 Helix", "authors": [{"authorId": "3588889", "name": "L. Walensky"}, {"authorId": "145326814", "name": "A. Kung"}, {"authorId": "7906051", "name": "I. Escher"}, {"authorId": "47618080", "name": "T. Malia"}, {"authorId": "8200048", "name": "S. Barbuto"}, {"authorId": "46955683", "name": "R. Wright"}, {"authorId": "145241228", "name": "G. Wagner"}, {"authorId": "2664088", "name": "G. Verdine"}, {"authorId": "3869477", "name": "S. Korsmeyer"}]}, {"paperId": "9ad01fb9dfa84cde63bd057dda2c2e689543c104", "title": "Gemcitabine in leukemia: a phase I clinical, plasma, and cellular pharmacology study.", "authors": [{"authorId": "40028747", "name": "R. Grunewald"}, {"authorId": "49096572", "name": "H. Kantarjian"}, {"authorId": "49082684", "name": "M. Du"}, {"authorId": "48214120", "name": "K. Faucher"}, {"authorId": "11341146", "name": "P. Tarassoff"}, {"authorId": "2702839", "name": "W. Plunkett"}]}, {"paperId": "e6d4f9be0535e69eb2e3f4438cd8b2b05576215f", "title": "Granulocytic sarcoma preceding acute leukemia. A report of six cases", "authors": [{"authorId": "144535891", "name": "J. Krause"}]}, {"paperId": "a6a401f2dba445a6112c6b162986de7a691be00a", "title": "Interaction of acute leukemia cells with the bone marrow microenvironment: implications for control of minimal residual disease.", "authors": [{"authorId": "81661327", "name": "K. Bradstock"}, {"authorId": "31453911", "name": "D. Gottlieb"}]}, {"paperId": "ba64ee6ab3775f6472c3cb7072dd0bc6e374e068", "title": "Secondary leukemia associated with a conventional dose of etoposide: review of serial germ cell tumor protocols.", "authors": [{"authorId": "2209898", "name": "Craig R. Nichols"}, {"authorId": "32397742", "name": "E. Breeden"}, {"authorId": "4451428", "name": "P. Loehrer"}, {"authorId": "2107719436", "name": "S. Williams"}, {"authorId": "4624547", "name": "L. Einhorn"}]}, {"paperId": "8380c1dd5975800ca9b83d3ff12c2ce64c9fb575", "title": "Occupational and Residential Magnetic Field Exposure and Leukemia and Central Nervous System Tumors", "authors": [{"authorId": "4832136", "name": "M. Feychting"}, {"authorId": "5647826", "name": "U. Forss\u00e9n"}, {"authorId": "3664675", "name": "B. Floderus"}]}, {"paperId": "7f677311870f7e1645807a260459a03d5f6894af", "title": "Leukemia risk following Hodgkin's disease: relation to cumulative dose of alkylating agents, treatment with teniposide combinations, number of episodes of chemotherapy, and bone marrow damage.", "authors": [{"authorId": "2979096", "name": "F. V. van Leeuwen"}, {"authorId": "6189341", "name": "A. Chorus"}, {"authorId": "1398031831", "name": "A. W. van den Belt-Dusebout"}, {"authorId": "3929196", "name": "A. Hagenbeek"}, {"authorId": "12698853", "name": "R. Noyon"}, {"authorId": "12773925", "name": "E. H. van Kerkhoff"}, {"authorId": "81992313", "name": "H. Pinedo"}, {"authorId": "4867163", "name": "R. Somers"}]}, {"paperId": "79504eb8f33b2b5b0235eb332f6da2409d80a37b", "title": "Fetal and neonatal leukemia.", "authors": [{"authorId": "145694000", "name": "H. Isaacs"}]}, {"paperId": "ccdf24374a93dce658509b352b3b728a7773bd3f", "title": "Tyrosine phosphorylation of CRKL in Philadelphia+ leukemia.", "authors": [{"authorId": "32574924", "name": "J. ten Hoeve"}, {"authorId": "4814431", "name": "R. Arlinghaus"}, {"authorId": "152251733", "name": "J. Guo"}, {"authorId": "6747860", "name": "N. Heisterkamp"}, {"authorId": "3857914", "name": "J. Groffen"}]}, {"paperId": "fb74bb1920fde80da5865b8b7afe78050819eea3", "title": "Bcl-2 Cooperates with Promyelocytic Leukemia Retinoic Acid Receptor \u03b1 Chimeric Protein (Pmlrar\u03b1) to Block Neutrophil Differentiation and Initiate Acute Leukemia", "authors": [{"authorId": "144621166", "name": "S. Kogan"}, {"authorId": "49139220", "name": "Diane E. Brown"}, {"authorId": "46942540", "name": "D. Shultz"}, {"authorId": "36048447", "name": "Bao-Tran H. Truong"}, {"authorId": "1397991894", "name": "V. Lallemand-Breitenbach"}, {"authorId": "40506500", "name": "M. Guillemin"}, {"authorId": "6319731", "name": "E. Lagasse"}, {"authorId": "2325553", "name": "I. Weissman"}, {"authorId": "39726344", "name": "J. Bishop"}]}]}
