{"total": 780808, "offset": 700, "next": 750, "data": [{"paperId": "851a16edacc3faf94afe1f4b2dee6d0a64e5256e", "title": "Parental cigarette smoking and the risk of acute leukemia in children", "authors": [{"authorId": "6093273", "name": "J. Brondum"}, {"authorId": "2363552", "name": "X. Shu"}, {"authorId": "50642938", "name": "M. Steinbuch"}, {"authorId": "2472432", "name": "R. Severson"}, {"authorId": "144462022", "name": "J. Potter"}, {"authorId": "145267672", "name": "L. Robison"}]}, {"paperId": "272ec8149fe961de7c95bd2c232017db14846a28", "title": "Megakaryoblastic leukemia and Down's syndrome: a review.", "authors": [{"authorId": "4463186", "name": "A. Zipursky"}, {"authorId": "153881785", "name": "M. Peeters"}, {"authorId": "49242122", "name": "A. Poon"}]}, {"paperId": "3bb1c6609575fd87e8b9f2eb872d253a1123ec0d", "title": "Large granular lymphocyte leukemia. A heterogeneous lymphocytic leukemia in F344 rats.", "authors": [{"authorId": "2075644", "name": "J. Ward"}, {"authorId": "30613168", "name": "Craig W. Reynolds"}]}, {"paperId": "e4993e4df5a041e8ab96e3a052c3c617b86ebd89", "title": "Graft-versus-leukemia following bone marrow transplantation.", "authors": [{"authorId": "2799725", "name": "A. Butturini"}, {"authorId": "1820280", "name": "M. Bortin"}, {"authorId": "2073592730", "name": "R. Gale"}]}, {"paperId": "d6d85b48eed3f0f1c3f77fd5f5a17cc20780676b", "title": "A comparative study of central nervous system irradiation and intensive chemotherapy early in remission of childhood acute lymphocytic leukemia", "authors": [{"authorId": "7679486", "name": "R. Aur"}, {"authorId": "80892341", "name": "J. Simone"}, {"authorId": "8540078", "name": "H. O. Hustu"}, {"authorId": "3951359", "name": "M. Verzosa"}]}, {"paperId": "20c7bb195b1c76419e1fe1befda4cd2a0ab47df2", "title": "Acute leukemia with Burkitt's tumor cells: A study of six cases with special reference to lymphocyte surface markers.", "authors": [{"authorId": "1910512", "name": "G. Flandrin"}, {"authorId": "4697278", "name": "J. Brouet"}, {"authorId": "1911320", "name": "M. Daniel"}, {"authorId": "48867559", "name": "J. Preud\u2019homme"}]}, {"paperId": "fe16d4cc43743d467c5fb43cdef7c44fb158c0d2", "title": "Discrimination of human leukemia subtypes by flow cytometric analysis of cellular DNA and RNA.", "authors": [{"authorId": "5043564", "name": "M. Andreeff"}, {"authorId": "4994351", "name": "Z. Dar\u017cynkiewicz"}, {"authorId": "2126189", "name": "T. Sharpless"}, {"authorId": "2633470", "name": "B. Clarkson"}, {"authorId": "6381683", "name": "M. Melamed"}]}, {"paperId": "a1668d60cc9841ec2ba8f4a6328dbdff1d79a22d", "title": "Leukemia and Ionizing Radiation", "authors": [{"authorId": "34472926", "name": "E. Lewis"}]}, {"paperId": "7313872314f06a67a177dfce3a0ee479b2fd1a09", "title": "Glucocorticoid resistance in childhood leukemia.", "authors": [{"authorId": "1938752916", "name": "G. Kaspers"}, {"authorId": "15607990", "name": "R. Pieters"}, {"authorId": "6065684", "name": "E. Klumper"}, {"authorId": "3993576", "name": "F. D. de Waal"}, {"authorId": "34492554", "name": "A. Veerman"}]}, {"paperId": "4f19ad3486dbe5223006492892e86f62164212c6", "title": "Adoptive immunotherapy of acute leukemia: experimental and clinical results.", "authors": [{"authorId": "3641329", "name": "G. Math\u00e9"}, {"authorId": "144518895", "name": "J. Amiel"}, {"authorId": "8340754", "name": "L. Schwarzenberg"}, {"authorId": "145855011", "name": "A. Cattan"}, {"authorId": "2107764036", "name": "M. Schneider"}]}, {"paperId": "b686278c1be2bee3b799e919741e7029182326e9", "title": "Bullous pyoderma gangrenosum and leukemia.", "authors": [{"authorId": "2262929", "name": "H. Perry"}, {"authorId": "2247496", "name": "R. Winkelmann"}]}, {"paperId": "eb8b6414f1a552e2146fc6900557f01bccdc008d", "title": "A human thymus-leukemia antigen defined by hybridoma monoclonal antibodies.", "authors": [{"authorId": "2166986421", "name": "R. Levy"}, {"authorId": "145503329", "name": "J. Dilley"}, {"authorId": "31826704", "name": "R. Fox"}, {"authorId": "3120034", "name": "R. Warnke"}]}, {"paperId": "a221f1041bdf2267966085d28aceec58ff3a5d9a", "title": "Clinical, histopathologic, and immunohistochemical correlations in leukemia cutis.", "authors": [{"authorId": "1870084", "name": "W. Su"}]}, {"paperId": "3054ade426827c1010fa10ea39d0493e6c624e1c", "title": "Quality of life for adult leukemia survivors treated on clinical trials of cancer and leukemia group B during the period 1971\u20101988", "authors": [{"authorId": "46925420", "name": "D. Greenberg"}, {"authorId": "145428185", "name": "A. Kornblith"}, {"authorId": "84365140", "name": "J. Herndon"}, {"authorId": "35581023", "name": "E. Zuckerman"}, {"authorId": "3518135", "name": "C. Schiffer"}, {"authorId": "1791720", "name": "R. Weiss"}, {"authorId": "40048828", "name": "R. Mayer"}, {"authorId": "2087164513", "name": "S. Wolchok"}, {"authorId": "145282903", "name": "J. Holland"}]}, {"paperId": "f6989f7b639a8e0d431cff705bdff9af0e8b0057", "title": "The incidence of central nervous system leukemia in adults with acute leukemia", "authors": [{"authorId": "122378257", "name": "R. Wolk"}, {"authorId": "39335384", "name": "S. Masse"}, {"authorId": "37109773", "name": "R. Conklin"}, {"authorId": "4251409", "name": "E. Freireich"}]}, {"paperId": "bb1d8f912a1c615d055ff9e6d4a3d85d6e4e21a8", "title": "CD19 antigen in leukemia and lymphoma diagnosis and immunotherapy.", "authors": [{"authorId": "145125922", "name": "R. Scheuermann"}, {"authorId": "7409207", "name": "E. Racila"}]}, {"paperId": "652783e4c3a643405a40f48b99d44d36861289f8", "title": "Leukemia and occupational exposure to electromagnetic fields: review of epidemiologic surveys.", "authors": [{"authorId": "4688986", "name": "D. Savitz"}, {"authorId": "3642857", "name": "E. Calle"}]}, {"paperId": "b9ae46bb48026ffc3960c8065b9fb241e8bf729d", "title": "Epipodophyllotoxin\u2010related leukemia. Identification of a new subset of secondary leukemia", "authors": [{"authorId": "6382284", "name": "J. Whitlock"}, {"authorId": "2817478", "name": "J. Greer"}, {"authorId": "3265180", "name": "J. Lukens"}]}, {"paperId": "2e6a84836e198247d389314d7a222602300a3a77", "title": "Leukemia following chemotherapy for ovarian cancer", "authors": [{"authorId": "153786076", "name": "J. Kaldor"}, {"authorId": "83606089", "name": "N. Day"}, {"authorId": "143670515", "name": "F. Pettersson"}, {"authorId": "1953663189", "name": "E. Clarke"}, {"authorId": "32217349", "name": "D. Pedersen"}, {"authorId": "82313955", "name": "W. Mehnert"}, {"authorId": "2113295461", "name": "J. Bell"}, {"authorId": "1411054446", "name": "H. H\u00f8st"}, {"authorId": "144650784", "name": "P. Prior"}, {"authorId": "19069100", "name": "S. Karjalainen"}, {"authorId": "123942549", "name": "F. Neal"}, {"authorId": "40381584", "name": "M. Koch"}, {"authorId": "79510353", "name": "P. Band"}, {"authorId": "2107255682", "name": "W. Choi"}, {"authorId": "15062565", "name": "V. Pompe Kirn"}, {"authorId": "9820388", "name": "A. Arslan"}, {"authorId": "1953658929", "name": "B. Zar\u00e9n"}, {"authorId": "152818100", "name": "A. Belch"}, {"authorId": "116778455", "name": "H. Storm"}]}, {"paperId": "45607301a53338e22e0465f6934ac7cbddacbe66", "title": "ALL-1 gene rearrangements in DNA topoisomerase II inhibitor-related leukemia in children.", "authors": [{"authorId": "34839573", "name": "C. Felix"}, {"authorId": "5143596", "name": "M. R. Hosler"}, {"authorId": "4526066", "name": "N. Winick"}, {"authorId": "145738760", "name": "M. Masterson"}, {"authorId": "2107541620", "name": "A. Wilson"}, {"authorId": "4862464", "name": "B. Lange"}]}, {"paperId": "51b6eb7ac3b4a06c356c403556ed237662094a43", "title": "Differentiation patterns in the blastic phase of chronic myeloid leukemia.", "authors": [{"authorId": "46954436", "name": "J. Griffin"}, {"authorId": "2010783", "name": "R. Todd"}, {"authorId": "144718230", "name": "J. Ritz"}, {"authorId": "5779969", "name": "L. Nadler"}, {"authorId": "6722651", "name": "G. Canellos"}, {"authorId": "145791241", "name": "D. Rosenthal"}, {"authorId": "7264202", "name": "M. Gallivan"}, {"authorId": "120978796", "name": "R. Beveridge"}, {"authorId": "32357600", "name": "H. Weinstein"}, {"authorId": "1855793", "name": "D. Karp"}, {"authorId": "5745927", "name": "S. Schlossman"}]}, {"paperId": "1883c081f451d7b250ab734864f36f93d3873025", "title": "Acute promyelocytic leukemia following mitoxantrone as single agent for the treatment of multiple sclerosis", "authors": [{"authorId": "121811121", "name": "A. Vicari"}, {"authorId": "2599880", "name": "F. Ciceri"}, {"authorId": "2340922", "name": "F. Folli"}, {"authorId": "50532176", "name": "R. Lanzi"}, {"authorId": "2070395318", "name": "B. Colombo"}, {"authorId": "143818396", "name": "G. Comi"}, {"authorId": "7468021", "name": "L. Camba"}]}, {"paperId": "ead48ccf363f19e8be033f200aeafd9d0bb774b1", "title": "Detection of acute leukemia cells with mixed lineage leukemia (MLL) gene rearrangements by flow cytometry using monoclonal antibody 7.1", "authors": [{"authorId": "6517030", "name": "C. Wuchter"}, {"authorId": "3615395", "name": "J. Harbott"}, {"authorId": "145934200", "name": "C. Schoch"}, {"authorId": "2701920", "name": "S. Schnittger"}, {"authorId": "2091682", "name": "A. Borkhardt"}, {"authorId": "1875724", "name": "L. Karawajew"}, {"authorId": "2864648", "name": "R. Ratei"}, {"authorId": "47671190", "name": "V. Ruppert"}, {"authorId": "2905029", "name": "T. Haferlach"}, {"authorId": "49505313", "name": "U. Creutzig"}, {"authorId": "145413869", "name": "B. Do\u0308rken"}, {"authorId": "93446559", "name": "W. Ludwig"}]}, {"paperId": "c8427b17f8bf09cc3aaf3d98ab736588c992bd36", "title": "In vivo treatment of mutant FLT3-transformed murine leukemia with a tyrosine kinase inhibitor", "authors": [{"authorId": "2143514277", "name": "M. Zhao"}, {"authorId": "5392273", "name": "H. Kiyoi"}, {"authorId": "49076865", "name": "Y. Yamamoto"}, {"authorId": "2108941526", "name": "M. Ito"}, {"authorId": "3771950", "name": "M. Towatari"}, {"authorId": "2130346", "name": "S. \u014cmura"}, {"authorId": "35147720", "name": "T. Kitamura"}, {"authorId": "7681625", "name": "R. Ueda"}, {"authorId": "48382374", "name": "H. Saito"}, {"authorId": "4143060", "name": "T. Naoe"}]}, {"paperId": "96b15adb688e56a050ecf4177cdb435278056ff6", "title": "Cell cycle arrest and apoptosis of leukemia cells induced by L-asparaginase", "authors": [{"authorId": "46529890", "name": "T. Ueno"}, {"authorId": "2709442", "name": "K. Ohtawa"}, {"authorId": "48459707", "name": "K. Mitsui"}, {"authorId": "46656303", "name": "Y. Kodera"}, {"authorId": "13151664", "name": "M. Hiroto"}, {"authorId": "2486199", "name": "A. Matsushima"}, {"authorId": "2655286", "name": "Y. Inada"}, {"authorId": "2099828210", "name": "H. Nishimura"}]}, {"paperId": "4da783e4695b185ad7302245a216255d8a1a6d4e", "title": "Acute promyelocytic leukemia: PML/RAR\u03b1 and the leukemic stem cell", "authors": [{"authorId": "4141183", "name": "E. Puccetti"}, {"authorId": "5956690", "name": "M. Ruthardt"}]}, {"paperId": "33cb5be17141c35cb10675084f181af94a1c75c6", "title": "Molecular analysis of 13 cases of MLL/11q23 secondary acute leukemia and identification of topoisomerase II consensus-binding sequences near the chromosomal breakpoint of a secondary leukemia with the t(4;11).", "authors": [{"authorId": "46311280", "name": "P. Domer"}, {"authorId": "19602009", "name": "D. Head"}, {"authorId": "144284685", "name": "N. Renganathan"}, {"authorId": "81524196", "name": "S. Raimondi"}, {"authorId": "2028650166", "name": "E. Yang"}, {"authorId": "46377954", "name": "M. Atlas"}]}, {"paperId": "b8992b518e83ea3cb6eafd44263a0f788039b578", "title": "Phenotypic and genotypic heterogeneity in infant acute leukemia. II. Acute nonlymphoblastic leukemia.", "authors": [{"authorId": "8312989", "name": "U. K\u00f6ller"}, {"authorId": "1851132", "name": "O. Haas"}, {"authorId": "93446559", "name": "W. Ludwig"}, {"authorId": "79072079", "name": "C. Bartram"}, {"authorId": "3615395", "name": "J. Harbott"}, {"authorId": "1384081943", "name": "R. Panzer\u2010Gr\u00fcmayer"}, {"authorId": "1411245979", "name": "T. Hansen-Hagge"}, {"authorId": "1735268", "name": "J. Ritter"}, {"authorId": "49505313", "name": "U. Creutzig"}, {"authorId": "2623239", "name": "W. Knapp"}]}, {"paperId": "82213352341a0716b52bc590a8eba7eb005e758a", "title": "Acute promyelocytic leukemia: where does it stem from?", "authors": [{"authorId": "6558031", "name": "D. Grimwade"}, {"authorId": "2691948", "name": "T. Enver"}]}, {"paperId": "abddc605197d76ceb4c4a0b002eadcd0abfc6370", "title": "Donor leukocyte infusions in 140 patients with relapsed malignancy after allogeneic bone marrow transplantation.", "authors": [{"authorId": "144549557", "name": "R. Collins"}, {"authorId": "4703629", "name": "O. Shpilberg"}, {"authorId": "7021512", "name": "W. Drobyski"}, {"authorId": "2678454", "name": "D. Porter"}, {"authorId": "50657464", "name": "S. Giralt"}, {"authorId": "144867199", "name": "R. Champlin"}, {"authorId": "145293691", "name": "S. Goodman"}, {"authorId": "40482466", "name": "S. Wolff"}, {"authorId": "152250931", "name": "W. Hu"}, {"authorId": "88588937", "name": "C. Verfaillie"}, {"authorId": "4023530", "name": "A. List"}, {"authorId": "6230610", "name": "W. Dalton"}, {"authorId": "15786676", "name": "N. Ognoskie"}, {"authorId": "47601561", "name": "A. Chetrit"}, {"authorId": "1708074", "name": "J. Antin"}, {"authorId": "3858703", "name": "J. Nemunaitis"}]}, {"paperId": "8af282e9447a7e1bcbca75abfb811dd3d011a126", "title": "Chronic neutrophilic leukemia (CNL): a clinical, pathologic and cytogenetic study", "authors": [{"authorId": "121985850", "name": "M. Elliott"}, {"authorId": "120512061", "name": "G. Dewald"}, {"authorId": "6386349", "name": "A. Tefferi"}, {"authorId": "144086171", "name": "C. Hanson"}]}, {"paperId": "7ebfd4141d55e077f3f21fd0daa124d6f7055e74", "title": "Leukemia cutis : Cutaneous lymphomas", "authors": [{"authorId": "145563145", "name": "K. V. Ratnam"}, {"authorId": "2588565", "name": "C. Khor"}, {"authorId": "1870084", "name": "W. Su"}]}, {"paperId": "55a9dfd1dade90e847ffd006d3252aa61c92f826", "title": "Human B-lymphocyte antigens expressed by lymphocytic and myelocytic leukemia cells. I. Detection by rabbit antisera", "authors": [{"authorId": "6416752", "name": "R. Billing"}, {"authorId": "48006018", "name": "B. Rafizadeh"}, {"authorId": "5137139", "name": "I. Drew"}, {"authorId": "1946911624", "name": "G. Hartman"}, {"authorId": "2143216234", "name": "R. Gale"}, {"authorId": "144903097", "name": "P. Terasaki"}]}, {"paperId": "2af4dab96c1c777466c82ad38e4ae1e31b0ec3dd", "title": "LEUKEMIA-ASSOCIATED TRANSPLANTATION ANTIGENS RELATED TO MURINE LEUKEMIA VIRUS", "authors": [{"authorId": "2107336775", "name": "H. Sato"}, {"authorId": "4669068", "name": "E. Boyse"}, {"authorId": "46949539", "name": "T. Aoki"}, {"authorId": "16777804", "name": "C. Iritani"}, {"authorId": "145766270", "name": "L. Old"}]}, {"paperId": "362b670a3270788a764b09baee9f19eae2198fe5", "title": "Long term follow up of the italian trial of Interferon-A versus conventional chemotherapy in Chronic Myeloid Leukemia", "authors": [{"authorId": "88206649", "name": "I. Leukemia"}]}, {"paperId": "998928b15483a22c2c509f4187772e430152ce86", "title": "\"Microgranular\" acute promyelocytic leukemia: a distinct clinical, ultrastructural, and cytogenetic entity.", "authors": [{"authorId": "7471564", "name": "H. Golomb"}, {"authorId": "39226319", "name": "J. Rowley"}, {"authorId": "39514906", "name": "J. Vardiman"}, {"authorId": "4501422", "name": "J. Testa"}, {"authorId": "153468594", "name": "A. Butler"}]}, {"paperId": "fe266651d3a753eabc0fa7275f8babdcfb1cb1e3", "title": "Activation of human natural killer cells cytotoxic for human leukemia cells by purified interferon.", "authors": [{"authorId": "6494280", "name": "J. Zarling"}, {"authorId": "3603932", "name": "L. Eskra"}, {"authorId": "4827374", "name": "E. Borden"}, {"authorId": "8095731", "name": "J. Horoszewicz"}, {"authorId": "144445825", "name": "W. Carter"}]}, {"paperId": "226b0d3db96275ec2b7b6fc64b11cc94abebc664", "title": "LEUKEMIA ASSOCIATED WITH BENZENE EXPOSURE", "authors": [{"authorId": "6527710", "name": "E. Vigliani"}]}, {"paperId": "beced0b23c2bd16b5ba93751652066f0cd83d479", "title": "In vitro and in vivo killing of acute lymphoblastic leukemia cells by L-asparaginase.", "authors": [{"authorId": "6084439", "name": "B. Asselin"}, {"authorId": "144901134", "name": "D. Ryan"}, {"authorId": "1824603", "name": "C. Frantz"}, {"authorId": "2116432", "name": "S. Bernal"}, {"authorId": "119842447", "name": "P. Leavitt"}, {"authorId": "4456606", "name": "S. Sallan"}, {"authorId": "152516593", "name": "H. Cohen"}]}, {"paperId": "52c721473454bae9cebfda4c787dba19ba059b39", "title": "Correlation of clinical findings with quinacrine-banded chromosomes in 90 adults with acute nonlymphocytic leukemia: an eight-year study (1970-1977).", "authors": [{"authorId": "7471564", "name": "H. Golomb"}, {"authorId": "39514906", "name": "J. Vardiman"}, {"authorId": "39226319", "name": "J. Rowley"}, {"authorId": "4501422", "name": "J. Testa"}, {"authorId": "10429133", "name": "U. Mintz"}]}, {"paperId": "d007c256c36d19385a262a569483044dc8599e96", "title": "Speculations on the cause of childhood acute lymphoblastic leukemia.", "authors": [{"authorId": "33807869", "name": "M. Greaves"}]}, {"paperId": "9598fdd75b5af92c9d3a053271af2a476ec0fcdb", "title": "Leptin Receptor and Leukemia", "authors": [{"authorId": "3392786", "name": "M. Hino"}, {"authorId": "47207376", "name": "T. Nakao"}, {"authorId": "2183334", "name": "T. Yamane"}, {"authorId": "1933103", "name": "K. Ohta"}, {"authorId": "2458771", "name": "T. Takubo"}, {"authorId": "1812492", "name": "N. Tatsumi"}]}, {"paperId": "e87a5cd838b4fa99597193bfa971217a643061c8", "title": "5-Azacytidine: a new active agent for the treatment of acute leukemia.", "authors": [{"authorId": "8229773", "name": "M. Karon"}, {"authorId": "8211536", "name": "L. Sieger"}, {"authorId": "12297223", "name": "S. Leimbrock"}, {"authorId": "3976405", "name": "J. Finklestein"}, {"authorId": "2068612", "name": "M. Nesbit"}, {"authorId": "8786530", "name": "J. Swaney"}]}, {"paperId": "6c52a6cd345a8a1ea53ad0785d3a37203748ee5f", "title": "Identification and molecular characterization of CALM/AF10fusion products in T cell acute lymphoblastic leukemia and acute myeloid leukemia", "authors": [{"authorId": "119826293", "name": "K. Carlson"}, {"authorId": "6740217", "name": "C. Vignon"}, {"authorId": "5423048", "name": "S. Bohlander"}, {"authorId": "1411476498", "name": "J. Mart\u00ednez-Climent"}, {"authorId": "3401554", "name": "M. L. Beau"}, {"authorId": "81198053", "name": "J. Rowley"}]}, {"paperId": "38a7a5a8db649b503a01de2ba390ddf4b5d47167", "title": "Cytogenetic heterogeneity in t(11;19) acute leukemia: clinical, hematological and cytogenetic analyses of 48 patients--updated published cases and 16 new observations.", "authors": [{"authorId": "50056832", "name": "J. Huret"}, {"authorId": "9808919", "name": "A. Brizard"}, {"authorId": "143711997", "name": "R. Slater"}, {"authorId": "10052154", "name": "C. Charrin"}, {"authorId": "2099271723", "name": "M. Bertheas"}, {"authorId": "3823672", "name": "F. Guilhot"}, {"authorId": "3886784", "name": "K. H\u00e4hlen"}, {"authorId": "90749170", "name": "W. Kroes"}, {"authorId": "2499029", "name": "E. van Leeuwen"}, {"authorId": "15253530", "name": "E. Schoot"}]}, {"paperId": "0fa7744a691f8465a4ca2095f7a74ebf7817c94d", "title": "A novel monoclonal antibody, KOR-SA3544 which reacts to Philadelphia chromosome-positive acute lymphoblastic leukemia cells with high sensitivity.", "authors": [{"authorId": "2107383378", "name": "T. Mori"}, {"authorId": "32540824", "name": "K. Sugita"}, {"authorId": "52066424", "name": "T. Suzuki"}, {"authorId": "2068666266", "name": "T. Okazaki"}, {"authorId": "35238401", "name": "A. Manabe"}, {"authorId": "2178777", "name": "R. Hosoya"}, {"authorId": "35154665", "name": "S. Mizutani"}, {"authorId": "2596156", "name": "A. Kinoshita"}, {"authorId": "144572999", "name": "S. Nakazawa"}]}, {"paperId": "eadde583c111b05e590de97b67808563ae48ae9c", "title": "Chemotherapeutic drug sensitivity testing of human leukemia cells in vitro using a semiautomated fluorometric assay.", "authors": [{"authorId": "144368047", "name": "R. Larsson"}, {"authorId": "145512979", "name": "P. Nygren"}, {"authorId": "114871300", "name": "M. Ekberg"}, {"authorId": "121732786", "name": "L. Slater"}]}, {"paperId": "23acbea12fe1e64f8fade33cc0f2a508b3a7569e", "title": "Increase therapy-related leukemia secondary to breast cancer", "authors": [{"authorId": "152980724", "name": "P. Carli"}, {"authorId": "48768932", "name": "C. Sgro"}, {"authorId": "1423482056", "name": "N. Parchin-Geneste"}, {"authorId": "6590159", "name": "N. Isambert"}, {"authorId": "79423797", "name": "F. Mugneret"}, {"authorId": "5472072", "name": "F. Girodon"}, {"authorId": "116236802", "name": "M. Maynadi\u00e9"}]}, {"paperId": "44ca38c7e738f63efb690292e7f143ec8fc7d6a7", "title": "Apoptosis/differentiation-inducing effects of vitamin K2 on HL-60 cells: dichotomous nature of vitamin K2 in leukemia cells", "authors": [{"authorId": "35753594", "name": "K. Miyazawa"}, {"authorId": "3448551", "name": "M. Yaguchi"}, {"authorId": "49502591", "name": "K. Funato"}, {"authorId": "35080933", "name": "A. Gotoh"}, {"authorId": "48965437", "name": "Y. Kawanishi"}, {"authorId": "48297080", "name": "Y. Nishizawa"}, {"authorId": "5589387", "name": "A. Yuo"}, {"authorId": "6449215", "name": "K. Ohyashiki"}]}, {"paperId": "0d79251fb86de9727d2663bf403791cef3be840e", "title": "Es nucleoside transporter content of acute leukemia cells: role in cell sensitivity to cytarabine (araC).", "authors": [{"authorId": "2070635550", "name": "W. Gati"}, {"authorId": "123185428", "name": "A. Paterson"}, {"authorId": "4161326", "name": "A. Belch"}, {"authorId": "4828573", "name": "V. Chlumecky"}, {"authorId": "82809280", "name": "L. Larratt"}, {"authorId": "5990436", "name": "M. Mant"}, {"authorId": "2726407", "name": "A. Turner"}]}]}
