{"total": 780808, "offset": 550, "next": 600, "data": [{"paperId": "d38cb1c1958903cd8f7d72234d56058af048c3ad", "title": "Laboratory determination of chemotherapeutic drug resistance in tumor cells from patients with leukemia, using a fluorometric microculture cytotoxicity assay (FMCA)", "authors": [{"authorId": "2058978620", "name": "Rolf Larsson"}, {"authorId": "2065384295", "name": "J. Kristensen"}, {"authorId": "2120569112", "name": "Charlotta Sandberg"}, {"authorId": "145512979", "name": "P. Nygren"}]}, {"paperId": "89df7d2f9ca25b08c5201dd391d6e3b4adcadca5", "title": "Rearrangements of the MLL gene in therapy-related acute myeloid leukemia in patients previously treated with agents targeting DNA- topoisomerase II", "authors": [{"authorId": "1995496021", "name": "H. G. Super"}, {"authorId": "143621207", "name": "N. McCabe"}, {"authorId": "8947769", "name": "M. Thirman"}, {"authorId": "81243702", "name": "R. Larson"}, {"authorId": "3401554", "name": "M. L. Beau"}, {"authorId": "1401116506", "name": "J. Pedersen\u2010Bjergaard"}, {"authorId": "50029304", "name": "P. Philip"}, {"authorId": "2107359950", "name": "M. Diaz"}, {"authorId": "39226319", "name": "J. Rowley"}]}, {"paperId": "99ba2030c06300c90c29117addfffcd99fbd33ef", "title": "Childhood leukemia and parents' occupational and home exposures.", "authors": [{"authorId": "15239012", "name": "R. Lowengart"}, {"authorId": "143816541", "name": "J. Peters"}, {"authorId": "12339066", "name": "C. Cicioni"}, {"authorId": "2064981923", "name": "J. Buckley"}, {"authorId": "145024832", "name": "L. Bernstein"}, {"authorId": "1398821883", "name": "S. Preston\u2010Martin"}, {"authorId": "48337336", "name": "E. Rappaport"}]}, {"paperId": "48300fb795778a1ebd09e38a9c995d8a2285f839", "title": "Leukemia in Down syndrome: a review.", "authors": [{"authorId": "4463186", "name": "A. Zipursky"}, {"authorId": "49242122", "name": "A. Poon"}, {"authorId": "34718598", "name": "J. Doyle"}]}, {"paperId": "9ab8862ed89f41ee83909e9ceb46d737e49b639e", "title": "Second acute leukemia and other malignancies following treatment for Hodgkin's disease.", "authors": [{"authorId": "5497338", "name": "P. Valagussa"}, {"authorId": "144114589", "name": "A. Santoro"}, {"authorId": "1399231202", "name": "F. Fossati\u2010Bellani"}, {"authorId": "5031573", "name": "A. Banfi"}, {"authorId": "3559167", "name": "G. Bonadonna"}]}, {"paperId": "6da3f4d2e575d9233732b2fa525bc28cb2aa60e7", "title": "Detection of mRNA for the tax1/rex1 gene of human T-cell leukemia virus type I in fresh peripheral blood mononuclear cells of adult T-cell leukemia patients and viral carriers by using the polymerase chain reaction.", "authors": [{"authorId": "83612951", "name": "T. Kinoshita"}, {"authorId": "47692295", "name": "M. Shimoyama"}, {"authorId": "4044594", "name": "K. Tobinai"}, {"authorId": "145258302", "name": "M. Ito"}, {"authorId": "50983852", "name": "S. Ito"}, {"authorId": "48442861", "name": "S. Ikeda"}, {"authorId": "32521709", "name": "K. Tajima"}, {"authorId": "32205971", "name": "K. Shimotohno"}, {"authorId": "145300957", "name": "T. Sugimura"}]}, {"paperId": "8c41bd838a21e9a8e558b3442f5f65bd46129c2e", "title": "Chronic lymphocytic leukemia: new insights into biology and therapy.", "authors": [{"authorId": "4232060", "name": "K. Foon"}, {"authorId": "3989263", "name": "K. Rai"}, {"authorId": "144516652", "name": "R. Gale"}]}, {"paperId": "fdea70c6a50a1c8e6f6e2f53c4897b5726b2b428", "title": "Proposals for the immunological classification of acute leukemias. European Group for the Immunological Characterization of Leukemias (EGIL).", "authors": [{"authorId": "144544038", "name": "M. B\u00e9n\u00e9"}, {"authorId": "7201105", "name": "G. Castoldi"}, {"authorId": "2623239", "name": "W. Knapp"}, {"authorId": "93446559", "name": "W. Ludwig"}, {"authorId": "6416325", "name": "E. Matutes"}, {"authorId": "3328496", "name": "A. \u00d3rf\u00e3o"}, {"authorId": "1398126697", "name": "M. V. van't Veer"}]}, {"paperId": "372b483704af539a3d067ecc47bb94f0d5d9e971", "title": "Quantitative assessment of WT1 expression by real time quantitative PCR may be a useful tool for monitoring minimal residual disease in acute leukemia patients", "authors": [{"authorId": "5020190", "name": "D. Cilloni"}, {"authorId": "11694306", "name": "E. Gottardi"}, {"authorId": "2082031872", "name": "D. Micheli"}, {"authorId": "145113277", "name": "A. Serra"}, {"authorId": "36940170", "name": "G. Volpe"}, {"authorId": "3797422", "name": "F. Messa"}, {"authorId": "1398188216", "name": "G. Rege\u2010Cambrin"}, {"authorId": "6541698", "name": "A. Guerrasio"}, {"authorId": "6143544", "name": "M. Divona"}, {"authorId": "7401213", "name": "F. Coco"}, {"authorId": "31607682", "name": "G. Saglio"}]}, {"paperId": "9758655d231394d209889aa9479b115acbfa1f5a", "title": "Aggressive natural killer-cell leukemia revisited: large granular lymphocyte leukemia of cytotoxic NK cells", "authors": [{"authorId": "33808119", "name": "R. Suzuki"}, {"authorId": "3633596", "name": "J. Suzumiya"}, {"authorId": "2107528030", "name": "S. Nakamura"}, {"authorId": "27524745", "name": "S. Aoki"}, {"authorId": "8218487", "name": "A. Notoya"}, {"authorId": "34621850", "name": "S. Ozaki"}, {"authorId": "7656446", "name": "H. Gondo"}, {"authorId": "4732347", "name": "N. Hino"}, {"authorId": "2115183301", "name": "H. Mori"}, {"authorId": "2068959910", "name": "H. Sugimori"}, {"authorId": "1815090", "name": "K. Kawa"}, {"authorId": "4522793", "name": "K. Oshimi"}]}, {"paperId": "1577cd1d8be9061955a5f83a2211774c5c62e0fb", "title": "Complete remission in a patient with recurrent acute myeloid leukemia induced by vaccination with WT1 peptide in the absence of hematological or renal toxicity", "authors": [{"authorId": "4149442", "name": "V. Mail\u00e4nder"}, {"authorId": "4336093", "name": "C. Scheibenbogen"}, {"authorId": "143732314", "name": "E. Thiel"}, {"authorId": "5493770", "name": "A. Letsch"}, {"authorId": "2806988", "name": "I. Blau"}, {"authorId": "6093317", "name": "U. Keilholz"}]}, {"paperId": "901a653bbb6ac164b45bafdfdec00f977c19b5a9", "title": "Differentiation of leukemia cells to polymorphonuclear leukocytes in patients with acute nonlymphocytic leukemia.", "authors": [{"authorId": "2728512", "name": "E. Fearon"}, {"authorId": "50511886", "name": "P. J. Burke"}, {"authorId": "3518135", "name": "C. Schiffer"}, {"authorId": "49306595", "name": "B. Zehnbauer"}, {"authorId": "1965563", "name": "B. Vogelstein"}]}, {"paperId": "401c601849ae6f3c0695a512e3e8691b46aee94a", "title": "Treatment-associated leukemia following testicular cancer.", "authors": [{"authorId": "7278131", "name": "L. Travis"}, {"authorId": "145441357", "name": "M. Andersson"}, {"authorId": "6239556", "name": "M. Gospodarowicz"}, {"authorId": "2979096", "name": "F. V. van Leeuwen"}, {"authorId": "8595196", "name": "K. Bergfeldt"}, {"authorId": "2142325", "name": "C. Lynch"}, {"authorId": "144639710", "name": "R. Curtis"}, {"authorId": "34297731", "name": "B. Kohler"}, {"authorId": "5425421", "name": "T. Wiklund"}, {"authorId": "145115603", "name": "H. Storm"}, {"authorId": "3598613", "name": "E. Holowaty"}, {"authorId": "144549954", "name": "P. Hall"}, {"authorId": "4310010", "name": "E. Pukkala"}, {"authorId": "47382118", "name": "D. Sleijfer"}, {"authorId": "1953663189", "name": "E. Clarke"}, {"authorId": "50405665", "name": "J. Boice"}, {"authorId": "4513830", "name": "M. Stovall"}, {"authorId": "145862532", "name": "E. Gilbert"}]}, {"paperId": "497797fec9d8f0d6e77e5c8ce04388f0ee34a948", "title": "Power-frequency electric and magnetic fields and risk of childhood leukemia in Canada.", "authors": [{"authorId": "31582070", "name": "M. McBride"}, {"authorId": "1984148", "name": "R. Gallagher"}, {"authorId": "143775060", "name": "G. Th\u00e9riault"}, {"authorId": "144314196", "name": "B. Armstrong"}, {"authorId": "6096848", "name": "S. Tamaro"}, {"authorId": "4947110", "name": "J. Spinelli"}, {"authorId": "39203863", "name": "J. Deadman"}, {"authorId": "5520725", "name": "S. Fincham"}, {"authorId": "1800670", "name": "D. Robson"}, {"authorId": "2115121711", "name": "W. Choi"}]}, {"paperId": "3b729a59828caafe864e7cf4961952494b059268", "title": "Germline mutations in BRCA2: shared genetic susceptibility to breast cancer, early onset leukemia, and Fanconi anemia.", "authors": [{"authorId": "143695503", "name": "J. Wagner"}, {"authorId": "2003865", "name": "J. Tolar"}, {"authorId": "4218067", "name": "O. Levran"}, {"authorId": "2007457", "name": "T. Scholl"}, {"authorId": "47970886", "name": "Amie Deffenbaugh"}, {"authorId": "3672578", "name": "J. Satagopan"}, {"authorId": "12887370", "name": "L. Ben-Porat"}, {"authorId": "39609338", "name": "K. Mah"}, {"authorId": "1887798", "name": "S. Batish"}, {"authorId": "4370905", "name": "D. Kutler"}, {"authorId": "2230170", "name": "M. MacMillan"}, {"authorId": "5424876", "name": "H. Hanenberg"}, {"authorId": "6986313", "name": "A. Auerbach"}]}, {"paperId": "9ca60bb89db7119a668d5e9592d8a14bf6d3d961", "title": "Birth weight as a risk factor for childhood leukemia: a meta-analysis of 18 epidemiologic studies.", "authors": [{"authorId": "4420014", "name": "L. Hjalgrim"}, {"authorId": "5259921", "name": "T. Westergaard"}, {"authorId": "4282120", "name": "K. Rostgaard"}, {"authorId": "5197155", "name": "K. Schmiegelow"}, {"authorId": "6708777", "name": "M. Melbye"}, {"authorId": "6981864", "name": "H. Hjalgrim"}, {"authorId": "144573542", "name": "E. Engels"}]}, {"paperId": "c36e026e415a7af7d34d667c62dc06f80eb7ab49", "title": "Chronic myelogenous leukemia shapes host immunity by selective deletion of high-avidity leukemia-specific T cells.", "authors": [{"authorId": "2552860", "name": "J. Molldrem"}, {"authorId": "143672420", "name": "Peter P. Lee"}, {"authorId": "11784598", "name": "Shreya Kant"}, {"authorId": "3535776", "name": "E. Wieder"}, {"authorId": "47896920", "name": "Weidong Jiang"}, {"authorId": "9709108", "name": "Sijie Lu"}, {"authorId": "2146408103", "name": "Changqing Wang"}, {"authorId": "144806165", "name": "Mark M. Davis"}]}, {"paperId": "c5facd5297786830983d0a1edfd5a6bb7461cddb", "title": "Acute promyelocytic leukemia.", "authors": [{"authorId": "15919063", "name": "L. Hillestad"}]}, {"paperId": "e2a22f186fdd6cbccda8819ba65746aa12538795", "title": "The central nervous system in childhood leukemia: I. The arachnoid", "authors": [{"authorId": "145923853", "name": "R. Price"}, {"authorId": "47515633", "name": "W. Johnson"}]}, {"paperId": "ed9012b6f7b00d089f559f988e24d1398ec210c0", "title": "The chromosomes and causation of human cancer and leukemia.", "authors": [{"authorId": "2394586", "name": "A. Sandberg"}]}, {"paperId": "7a730082889dc45e9c665adfc381b90e02c2775a", "title": "Xenotropic Viruses: Murine Leukemia Viruses Associated with NIH Swiss, NZB, and Other Mouse Strains", "authors": [{"authorId": "2108886519", "name": "Jay A. Levy"}]}, {"paperId": "70de931560c6287ba109d689b8fcb2a71410e4b9", "title": "Chromosomal banding patterns in acute nonlymphocytic leukemia.", "authors": [{"authorId": "39226319", "name": "J. Rowley"}, {"authorId": "2082285181", "name": "D. Potter"}]}, {"paperId": "0846c70703a99d0fca791be6a967af3ae0cae854", "title": "Evidence of a new chimeric bcr/c-abl mRNA in patients with chronic myelocytic leukemia and the Philadelphia chromosome.", "authors": [{"authorId": "2088035", "name": "K. Stam"}, {"authorId": "6747860", "name": "N. Heisterkamp"}, {"authorId": "5561617", "name": "G. Grosveld"}, {"authorId": "82182013", "name": "A. de Klein"}, {"authorId": "1731728", "name": "R. Verma"}, {"authorId": "144611470", "name": "M. Coleman"}, {"authorId": "6754954", "name": "H. Dosik"}, {"authorId": "3857914", "name": "J. Groffen"}]}, {"paperId": "108e2c345a98de0a429791d1ee1a0e49c8930564", "title": "Autopsy study of granulocytic sarcoma (chloroma) in patients with myelogenous leukemia, hiroshima\u2010nagasaki 1949\u20101969", "authors": [{"authorId": "2112418697", "name": "Paul I. Liu"}, {"authorId": "81918428", "name": "T. Ishimaru"}, {"authorId": "47794448", "name": "D. Mcgregor"}, {"authorId": "1921052078", "name": "H. Okada"}, {"authorId": "145886148", "name": "A. Steer"}]}, {"paperId": "11b936fa93bbeffd9f24c6d3bfa627c4946f2367", "title": "Central nervous system therapy and combination chemotherapy of childhood lymphocytic leukemia.", "authors": [{"authorId": "7679486", "name": "R. Aur"}, {"authorId": "80892341", "name": "J. Simone"}, {"authorId": "8540078", "name": "H. O. Hustu"}, {"authorId": "47694068", "name": "T. Walters"}, {"authorId": "3581479", "name": "L. Borella"}, {"authorId": "145469706", "name": "C. Pratt"}, {"authorId": "47466001", "name": "D. Pinkel"}]}, {"paperId": "0cc45526b0483a85c865094436bcbdf6c2be1ed8", "title": "Mixed culture cytopathogenicity: a new test for growth of murine leukemia viruses in tissue culture.", "authors": [{"authorId": "145102565", "name": "V. Klement"}, {"authorId": "5631668", "name": "W. Rowe"}, {"authorId": "1745592", "name": "J. Hartley"}, {"authorId": "39729930", "name": "W. E. Pugh"}]}, {"paperId": "d0bc28f7449bb272a11bc08ba3e8b78460d98f8d", "title": "Acute promyelocytic leukemia: results of treatment by daunorubicin.", "authors": [{"authorId": "144049439", "name": "J. Bernard"}, {"authorId": "144267945", "name": "M. Weil"}, {"authorId": "144858466", "name": "M. Boiron"}, {"authorId": "7276616", "name": "C. Jacquillat"}, {"authorId": "1910512", "name": "G. Flandrin"}, {"authorId": "16829177", "name": "M. F. G\u00e9mon"}]}, {"paperId": "29198168cfd6ee12261da9eabe0458976a92a64c", "title": "Therapy-related leukemia and myelodysplastic syndrome: clinical, cytogenetic, and prognostic features.", "authors": [{"authorId": "49096572", "name": "H. Kantarjian"}, {"authorId": "2091897", "name": "M. Keating"}, {"authorId": "145637622", "name": "R. Walters"}, {"authorId": "153580437", "name": "T. Smith"}, {"authorId": "4692148", "name": "A. Cork"}, {"authorId": "4093800", "name": "K. McCredie"}, {"authorId": "4251409", "name": "E. Freireich"}]}, {"paperId": "1e94bdd8af8bc08e4384973cbab540fef9c04015", "title": "Classification of Acute Leukemia", "authors": [{"authorId": "6706858", "name": "H. Gralnick"}, {"authorId": "3311258", "name": "D. Galton"}, {"authorId": "4849492", "name": "D. Catovsky"}, {"authorId": "48560207", "name": "C. Sultan"}, {"authorId": "143732087", "name": "J. Bennett"}]}, {"paperId": "1110fd1c0ad9bb9869e664ea1c8b2af937b41ac8", "title": "Clinical evaluation of a new antimetabolite, 6-mercaptopurine, in the treatment of leukemia and allied diseases.", "authors": [{"authorId": "6571865", "name": "J. Burchenal"}, {"authorId": "143905453", "name": "M. Murphy"}, {"authorId": "39668779", "name": "R. Ellison"}, {"authorId": "35472815", "name": "M. P. Sykes"}, {"authorId": "47361004", "name": "T. C. Tan"}, {"authorId": "38480666", "name": "L. Leone"}, {"authorId": "12610140", "name": "D. Karnofsky"}, {"authorId": "4225111", "name": "L. Craver"}, {"authorId": "16908140", "name": "H. Dargeon"}, {"authorId": "4590183", "name": "C. P. Rhoads"}]}, {"paperId": "3787e3d28907e3b2133e6fc3ce2262ed6cfcafa4", "title": "L-asparaginase therapy for leukemia and other malignant neoplasms. Remission in human leukemia.", "authors": [{"authorId": "1736839", "name": "J. Hill"}, {"authorId": "2107415041", "name": "J. Roberts"}, {"authorId": "3819976", "name": "E. Loeb"}, {"authorId": "118303117", "name": "A. Khan"}, {"authorId": "145525673", "name": "A. Maclellan"}, {"authorId": "2115057189", "name": "R. W. Hill"}]}, {"paperId": "cf2c94c7ca69ffe75f29d94bd58c6541d049029a", "title": "The increasing incidence of central nervous system leukemia in children. (Children's cancer study group a)", "authors": [{"authorId": "48201593", "name": "A. Evans"}, {"authorId": "145862532", "name": "E. Gilbert"}, {"authorId": "2157160420", "name": "Richard Zandstra"}]}, {"paperId": "6dfd94ab803c603c2b6d8d00f2820ccde49755ff", "title": "ANTIGENS OF LEUKEMIAS INDUCED BY NATURALLY OCCURRING MURINE LEUKEMIA VIRUS: THEIR RELATION TO THE ANTIGENS OF GROSS VIRUS AND OTHER MURINE LEUKEMIA VIRUSES", "authors": [{"authorId": "15488897", "name": "G. Geering"}, {"authorId": "145766270", "name": "L. Old"}, {"authorId": "4669068", "name": "E. Boyse"}]}, {"paperId": "f8b749199ef483e3ea501a70ed94f720d0661113", "title": "Bone-marrow ablation and allogeneic marrow transplantation in acute leukemia.", "authors": [{"authorId": "82026003", "name": "K. Blume"}, {"authorId": "40436181", "name": "E. Beutler"}, {"authorId": "88535586", "name": "K. J. Bross"}, {"authorId": "2470030", "name": "R. Chillar"}, {"authorId": "8130982", "name": "O. B. Ellington"}, {"authorId": "2047705188", "name": "J. Fahey"}, {"authorId": "33829753", "name": "M. Farbstein"}, {"authorId": "3918179", "name": "S. Forman"}, {"authorId": "153129766", "name": "G. M. Schmidt"}, {"authorId": "3677143", "name": "E. Scott"}, {"authorId": "12205837", "name": "W. Spruce"}, {"authorId": "152352594", "name": "M. Turner"}, {"authorId": "66435821", "name": "J. Wolf"}]}, {"paperId": "13ab7c9401e9059062ec5f9934ab38b834a22e24", "title": "Leukemia in shoe-workers exposed chronically to benzene.", "authors": [{"authorId": "1742350", "name": "M. Aksoy"}, {"authorId": "2286296", "name": "S. Erdem"}, {"authorId": "4999891", "name": "G. Di\u0307n\u00e7ol"}]}, {"paperId": "3e549d63f1ca00061856962167b460fee623e26c", "title": "Natural antibodies to the structural core protein (p24) of the human T-cell leukemia (lymphoma) retrovirus found in sera of leukemia patients in Japan.", "authors": [{"authorId": "1798709", "name": "V. Kalyanaraman"}, {"authorId": "8487908", "name": "M. Sarngadharan"}, {"authorId": "4273740", "name": "Y. Nakao"}, {"authorId": "2107858202", "name": "Y. Ito"}, {"authorId": "46949539", "name": "T. Aoki"}, {"authorId": "74941680", "name": "R. Gallo"}]}, {"paperId": "f37531f171f39518f14ea95dda3158b7438d9380", "title": "Alterations of the FLT3 gene in acute promyelocytic leukemia: association with diagnostic characteristics and analysis of clinical outcome in patients treated with the Italian AIDA protocol", "authors": [{"authorId": "1423422795", "name": "N. Noguera"}, {"authorId": "6449685", "name": "M. Breccia"}, {"authorId": "6143544", "name": "M. Divona"}, {"authorId": "4849661", "name": "D. Diverio"}, {"authorId": "145119291", "name": "V. Costa"}, {"authorId": "1925685", "name": "S. Santis"}, {"authorId": "4357804", "name": "G. Avvisati"}, {"authorId": "1423422705", "name": "M. Pinazzi"}, {"authorId": "78756739", "name": "M. Petti"}, {"authorId": "4727924", "name": "F. Mandelli"}, {"authorId": "7401213", "name": "F. Coco"}]}, {"paperId": "3d25c81c91f66a3f84a4daa052e720c3b9631761", "title": "Novel mechanisms of drug resistance in leukemia", "authors": [{"authorId": "80505410", "name": "D. Ross"}]}, {"paperId": "7f18566943fd2c2140c79277b47c9b297ecd768e", "title": "The G (Gross) leukemia antigen.", "authors": [{"authorId": "145766270", "name": "L. Old"}, {"authorId": "4669068", "name": "E. Boyse"}, {"authorId": "6809668", "name": "E. Stockert"}]}, {"paperId": "f33804058a856da28b99c06d1c661ac6c875af0c", "title": "Preleukemic acute human leukemia.", "authors": [{"authorId": "47421904", "name": "M. Block"}, {"authorId": "37528335", "name": "L. Jacobson"}, {"authorId": "16855877", "name": "W. Bethard"}]}, {"paperId": "42e10ce1309162e39d8f7e6c7e4f543622ec45f9", "title": "Intratesticular transplantation of testicular cells from leukemic rats causes transmission of leukemia.", "authors": [{"authorId": "3841292", "name": "K. Jahnukainen"}, {"authorId": "1728251", "name": "M. Hou"}, {"authorId": "48549384", "name": "C. Petersen"}, {"authorId": "4580975", "name": "B. Setchell"}, {"authorId": "4638711", "name": "O. S\u00f6der"}]}, {"paperId": "6fe3e66fb3ff6a7ec87ead7734b9eeb05f764a22", "title": "Folate receptor type \u03b2 is a neutrophilic lineage marker and is differentially expressed in myeloid leukemia", "authors": [{"authorId": "2150934446", "name": "J. Ross"}, {"authorId": "2155656985", "name": "Hui Wang"}, {"authorId": "4101875", "name": "F. Behm"}, {"authorId": "2093849656", "name": "P. Mathew"}, {"authorId": "90934062", "name": "Marietta Wu"}, {"authorId": "152452447", "name": "R. Booth"}, {"authorId": "34751833", "name": "M. Ratnam"}]}, {"paperId": "9a9f2e7aaaa5ac0d9faef859cf857a2d92466ae8", "title": "STAT-related transcription factors are constitutively activated in peripheral blood cells from acute leukemia patients", "authors": [{"authorId": "1398265665", "name": "V. Gouilleux-Gruart"}, {"authorId": "5962711", "name": "F. Gouilleux"}, {"authorId": "5822472", "name": "C. Desaint"}, {"authorId": "152350978", "name": "Claisse Jf"}, {"authorId": "145239661", "name": "J. Capiod"}, {"authorId": "4825017", "name": "J. Delobel"}, {"authorId": "1436308441", "name": "R. Weber-Nordt"}, {"authorId": "1400904471", "name": "I. Dusanter-Fourt"}, {"authorId": "34109876", "name": "F. Dreyfus"}, {"authorId": "1971948", "name": "B. Groner"}, {"authorId": "3242351", "name": "L. Prin"}]}, {"paperId": "e8c95b8f52d23624949d0037e1a601fe4adf9978", "title": "Extramedullary leukemia adversely affects hematologic complete remission rate and overall survival in patients with t(8;21)(q22;q22): results from Cancer and Leukemia Group B 8461.", "authors": [{"authorId": "2820011", "name": "J. Byrd"}, {"authorId": "1791720", "name": "R. Weiss"}, {"authorId": "144626829", "name": "D. Arthur"}, {"authorId": "153306545", "name": "D. Lawrence"}, {"authorId": "1845090", "name": "M. Baer"}, {"authorId": "4334641", "name": "F. Davey"}, {"authorId": "15923995", "name": "E. S. Trikha"}, {"authorId": "48945990", "name": "A. Carroll"}, {"authorId": "6755040", "name": "R. Tantravahi"}, {"authorId": "1847746", "name": "M. Qumsiyeh"}, {"authorId": "48779543", "name": "S. Patil"}, {"authorId": "2722260", "name": "J. Moore"}, {"authorId": "40048828", "name": "R. Mayer"}, {"authorId": "3518135", "name": "C. Schiffer"}, {"authorId": "3411384", "name": "C. Bloomfield"}]}, {"paperId": "753f241f94f5b8e8fd5cb8447187d97881ee210a", "title": "Immunophenotypic evidence of leukemia after induction therapy predicts relapse: results from a prospective Children's Cancer Group study of 252 patients with acute myeloid leukemia.", "authors": [{"authorId": "4798383", "name": "E. Sievers"}, {"authorId": "4862464", "name": "B. Lange"}, {"authorId": "6709309", "name": "T. Alonzo"}, {"authorId": "4063436", "name": "R. Gerbing"}, {"authorId": "4220607", "name": "I. Bernstein"}, {"authorId": "3003637", "name": "F. Smith"}, {"authorId": "2042350", "name": "R. Arceci"}, {"authorId": "145331322", "name": "W. Woods"}, {"authorId": "2268286", "name": "M. Loken"}]}, {"paperId": "f2605cad52382ce5cc71f3193f8523c5b220c50b", "title": "Complete remission of accelerated phase chronic myeloid leukemia by treatment with leukemia-reactive cytotoxic T lymphocytes.", "authors": [{"authorId": "144649632", "name": "J. Falkenburg"}, {"authorId": "7146786", "name": "A. Wafelman"}, {"authorId": "144349706", "name": "P. Joosten"}, {"authorId": "144943149", "name": "W. M. Smit"}, {"authorId": "32169878", "name": "C. V. van Bergen"}, {"authorId": "11285206", "name": "R. Bongaerts"}, {"authorId": "28098885", "name": "E. Lurvink"}, {"authorId": "9923074", "name": "M. A. van der Hoorn"}, {"authorId": "12634774", "name": "P. Kluck"}, {"authorId": "2684918", "name": "J. Landegent"}, {"authorId": "1393668247", "name": "H. Kluin-Nelemans"}, {"authorId": "143779327", "name": "W. Fibbe"}, {"authorId": "1390435170", "name": "R. Willemze"}]}, {"paperId": "918b89163973bb08993a3e719fec71deec3cdba4", "title": "An early phase II study of CPT-11: a new derivative of camptothecin, for the treatment of leukemia and lymphoma.", "authors": [{"authorId": "3182215", "name": "R. Ohno"}, {"authorId": "28078917", "name": "K. Okada"}, {"authorId": "69470776", "name": "T. Masaoka"}, {"authorId": "2116930", "name": "A. Kuramoto"}, {"authorId": "32407411", "name": "T. Arima"}, {"authorId": "47821225", "name": "Y. Yoshida"}, {"authorId": "46777666", "name": "H. Ariyoshi"}, {"authorId": "5533717", "name": "M. Ichimaru"}, {"authorId": "48889271", "name": "Y. Sakai"}, {"authorId": "2291560", "name": "M. Oguro"}]}, {"paperId": "d9b78a479f70aa403cae14265f77a9e25ae3fd8b", "title": "Multiple myeloma and acute myelomonocytic leukemia.", "authors": [{"authorId": "144479576", "name": "R. Kyle"}, {"authorId": "11947913", "name": "R. Pierre"}, {"authorId": "11777951", "name": "E. Bayrd"}]}, {"paperId": "80c0a2e2bfac94f734cb7ae8afd46bea2f1fd9e3", "title": "A novel natural killer cell line (KHYG-1) from a patient with aggressive natural killer cell leukemia carrying a p53 point mutation", "authors": [{"authorId": "89045737", "name": "M. Yagita"}, {"authorId": "2110514112", "name": "C-l Huang"}, {"authorId": "7914604", "name": "H. Umehara"}, {"authorId": "2044140", "name": "Y. Matsuo"}, {"authorId": "1454473586", "name": "R. Tabata"}, {"authorId": "2094951764", "name": "M. Miyake"}, {"authorId": "2776881", "name": "Y. Konaka"}, {"authorId": "4509583", "name": "K. Takatsuki"}]}, {"paperId": "ac2aec096fd7634a6301e5564e58f3788218ad45", "title": "Inhibition of human leukemia in an animal model with human antibodies directed against vascular endothelial growth factor receptor 2. Correlation between antibody affinity and biological activity", "authors": [{"authorId": "1687914", "name": "Zhen-ping Zhu"}, {"authorId": "33774548", "name": "K. Hattori"}, {"authorId": "2108784354", "name": "Haifan Zhang"}, {"authorId": "134880387", "name": "X. Jimenez"}, {"authorId": "3900912", "name": "D. Ludwig"}, {"authorId": "145051928", "name": "S. Dias"}, {"authorId": "3537552", "name": "P. Kussie"}, {"authorId": "8232304", "name": "H. Koo"}, {"authorId": "52038330", "name": "H. Kim"}, {"authorId": "144053024", "name": "D. Lu"}, {"authorId": "2152968818", "name": "Meilin Liu"}, {"authorId": "90781789", "name": "Rafael E. Tejada"}, {"authorId": "48535509", "name": "M. Friedrich"}, {"authorId": "4540511", "name": "P. Bohlen"}, {"authorId": "48982837", "name": "L. Witte"}, {"authorId": "10102747", "name": "S. Rafii"}]}]}
