{"total": 780807, "offset": 200, "next": 250, "data": [{"paperId": "d4067319177ba49f44ac95a388067eabfeddf4f0", "title": "Effective and selective targeting of leukemia cells using a TORC1/2 kinase inhibitor", "authors": [{"authorId": "36229593", "name": "M. R. Janes"}, {"authorId": "50577234", "name": "J. J. Limon"}, {"authorId": "2451365", "name": "Lomon So"}, {"authorId": "40337424", "name": "Jing Chen"}, {"authorId": "48755749", "name": "R. Lim"}, {"authorId": "2053292567", "name": "Melissa Chavez"}, {"authorId": "2070472277", "name": "C. Vu"}, {"authorId": "122368536", "name": "M. Lilly"}, {"authorId": "40527716", "name": "S. Mallya"}, {"authorId": "145873042", "name": "S. Ong"}, {"authorId": "144022230", "name": "M. Konopleva"}, {"authorId": "2110608375", "name": "Michael B Martin"}, {"authorId": "50410102", "name": "P. Ren"}, {"authorId": "49420930", "name": "Yi Liu"}, {"authorId": "2892041", "name": "C. Rommel"}, {"authorId": "6241317", "name": "D. Fruman"}]}, {"paperId": "3999178c6f6cf6c2e8904df050aa171c97927829", "title": "Hematopoietic stem-cell transplantation for acute leukemia in relapse or primary induction failure.", "authors": [{"authorId": "80276003", "name": "M. Duval"}, {"authorId": "4033024", "name": "J. Klein"}, {"authorId": "51490395", "name": "Wensheng He"}, {"authorId": "81411338", "name": "J. Cahn"}, {"authorId": "6623745", "name": "M. Cairo"}, {"authorId": "4458461", "name": "B. Camitta"}, {"authorId": "145159288", "name": "R. Kamble"}, {"authorId": "4662384", "name": "E. Copelan"}, {"authorId": "145098945", "name": "M. de Lima"}, {"authorId": "2110651367", "name": "Vikas Gupta"}, {"authorId": "145907721", "name": "A. Keating"}, {"authorId": "39443277", "name": "H. Lazarus"}, {"authorId": "4033510", "name": "M. Litzow"}, {"authorId": "145195174", "name": "D. Marks"}, {"authorId": "6978697", "name": "R. Maziarz"}, {"authorId": "3586817", "name": "D. Rizzieri"}, {"authorId": "3099345", "name": "G. Schiller"}, {"authorId": "3038290", "name": "K. Schultz"}, {"authorId": "4913380", "name": "M. Tallman"}, {"authorId": "4006430", "name": "D. Weisdorf"}]}, {"paperId": "e88ce282c8b92f0f2e73a47bcf1b953bd91e59e7", "title": "PHF6 mutations in adult acute myeloid leukemia", "authors": [{"authorId": "9762332", "name": "P. V. Vlierberghe"}, {"authorId": "1405996848", "name": "J. Patel"}, {"authorId": "32311671", "name": "O. Abdel-Wahab"}, {"authorId": "1969695", "name": "C. Lobry"}, {"authorId": "145693544", "name": "C. Hedvat"}, {"authorId": "3800980", "name": "M. Balb\u00edn"}, {"authorId": "4490651", "name": "C. Nicolas"}, {"authorId": "36511009", "name": "\u00c1. Payer"}, {"authorId": "3805020", "name": "H. Fernandez"}, {"authorId": "4913380", "name": "M. Tallman"}, {"authorId": "3638156", "name": "E. Paietta"}, {"authorId": "145150236", "name": "A. Melnick"}, {"authorId": "5273497", "name": "P. Vandenberghe"}, {"authorId": "144960904", "name": "F. Speleman"}, {"authorId": "5712182", "name": "I. Aifantis"}, {"authorId": "144981526", "name": "J. Cools"}, {"authorId": "8669017", "name": "R. Levine"}, {"authorId": "3249653", "name": "A. Ferrando"}]}, {"paperId": "0c688451503fc3d834839d8c638868d8456b9dba", "title": "Involvement of the CD95 (APO\u20131/Fas) receptor/ligand system in drug\u2013induced apoptosis in leukemia cells", "authors": [{"authorId": "2393599", "name": "C. Friesen"}, {"authorId": "6618083", "name": "I. Herr"}, {"authorId": "2750708", "name": "P. Krammer"}, {"authorId": "143640879", "name": "K. Debatin"}]}, {"paperId": "1de35fab52d4afe408add76f94e5b95314ff8871", "title": "Expression of CD34 and CD7 on human T-cell acute lymphoblastic leukemia discriminates functionally heterogeneous cell populations", "authors": [{"authorId": "3942375", "name": "B. Gerby"}, {"authorId": "6393738", "name": "E. Clappier"}, {"authorId": "50379848", "name": "F. Armstrong"}, {"authorId": "5240484", "name": "C. Deswarte"}, {"authorId": "145732735", "name": "J. Calvo"}, {"authorId": "5155560", "name": "S. Poglio"}, {"authorId": "145571946", "name": "J. Soulier"}, {"authorId": "4992695", "name": "N. Boissel"}, {"authorId": "1680832", "name": "T. Leblanc"}, {"authorId": "4193103", "name": "A. Baruchel"}, {"authorId": "1398462152", "name": "J. Landman-Parker"}, {"authorId": "47643304", "name": "P. Romeo"}, {"authorId": "3772327", "name": "P. Ballerini"}, {"authorId": "4889330", "name": "F. Pflumio"}]}, {"paperId": "f146f62f57dd0794a70a26f1d5fb9c067f98f6c4", "title": "High levels of the adhesion molecule CD44 on leukemic cells generate acute myeloid leukemia relapse after withdrawal of the initial transforming event", "authors": [{"authorId": "48153813", "name": "R. Qu\u00e9r\u00e9"}, {"authorId": "46673684", "name": "S. Andradott\u00edr"}, {"authorId": "3201732", "name": "A. Brun"}, {"authorId": "3099664", "name": "R. Zubarev"}, {"authorId": "143867011", "name": "G. Karlsson"}, {"authorId": "144068942", "name": "K. Olsson"}, {"authorId": "38392641", "name": "M. Magnusson"}, {"authorId": "6453840", "name": "J. Cammenga"}, {"authorId": "144235503", "name": "S. Karlsson"}]}, {"paperId": "478c1c2c0151da1c088f1381b632c2e7bde1268b", "title": "CXCR4 antagonists: targeting the microenvironment in leukemia and other cancers", "authors": [{"authorId": "144507282", "name": "J. Burger"}, {"authorId": "6809232", "name": "A. Peled"}]}, {"paperId": "232cb9a48d79d2a944dc072695bdbee0d815e95c", "title": "Graft-versus-leukemia effects of transplantation and donor lymphocytes.", "authors": [{"authorId": "152815108", "name": "H. Kolb"}]}, {"paperId": "c81fe100d791302eb1bf51c586126f73c3b03258", "title": "Integration of murine leukemia virus DNA depends on mitosis.", "authors": [{"authorId": "50004384", "name": "T. Roe"}, {"authorId": "35835213", "name": "T. Reynolds"}, {"authorId": "2107281668", "name": "G. Yu"}, {"authorId": "32037613", "name": "P. Brown"}]}, {"paperId": "a56c12a5e9b2c10d6c820834dd7a8d56db5819f6", "title": "MicroRNA 29b functions in acute myeloid leukemia.", "authors": [{"authorId": "152341923", "name": "R. Garzon"}, {"authorId": "15993799", "name": "Catherine E. A. Heaphy"}, {"authorId": "4115122", "name": "V. Havelange"}, {"authorId": "34996971", "name": "M. Fabbri"}, {"authorId": "1906416", "name": "S. Volinia"}, {"authorId": "38630498", "name": "T. Tsao"}, {"authorId": "3828738", "name": "N. Zanesi"}, {"authorId": "2684688", "name": "S. Kornblau"}, {"authorId": "144806477", "name": "G. Marcucci"}, {"authorId": "2124909", "name": "G. Calin"}, {"authorId": "5043564", "name": "M. Andreeff"}, {"authorId": "144749275", "name": "C. Croce"}]}, {"paperId": "95fd674582a20da5faba3a62b2122544cabf90a4", "title": "MicroRNA miR-125b causes leukemia", "authors": [{"authorId": "145315121", "name": "M. Bousquet"}, {"authorId": "4027329", "name": "M. Harris"}, {"authorId": "4953117", "name": "Beiyan Zhou"}, {"authorId": "7757698", "name": "H. Lodish"}]}, {"paperId": "1542a45b35c55f9ff03f4ef55b2012761eee68b9", "title": "Variation in CDKN2A at 9p21.3 influences childhood acute lymphoblastic leukemia risk", "authors": [{"authorId": "5216927", "name": "A. Sherborne"}, {"authorId": "6373532", "name": "F. Hosking"}, {"authorId": "49197928", "name": "R. Prasad"}, {"authorId": "2145732407", "name": "Rajiv Kumar"}, {"authorId": "40303404", "name": "R. Koehler"}, {"authorId": "3882483", "name": "J. Vijayakrishnan"}, {"authorId": "3058362", "name": "E. Papaemmanuil"}, {"authorId": "12741217", "name": "C. Bartram"}, {"authorId": "2738278", "name": "M. Stanulla"}, {"authorId": "34956227", "name": "M. Schrappe"}, {"authorId": "38704116", "name": "A. Gast"}, {"authorId": "2865760", "name": "Sara E. Dobbins"}, {"authorId": "5359526", "name": "Yussanne Ma"}, {"authorId": "4528141", "name": "E. Sheridan"}, {"authorId": "145276440", "name": "Malcolm Taylor"}, {"authorId": "144743913", "name": "S. Kinsey"}, {"authorId": "4196170", "name": "T. Lightfoot"}, {"authorId": "2379263", "name": "E. Roman"}, {"authorId": "145234356", "name": "J. Irving"}, {"authorId": "35002726", "name": "J. Allan"}, {"authorId": "6085927", "name": "A. Moorman"}, {"authorId": "2681392", "name": "C. Harrison"}, {"authorId": "48944941", "name": "I. Tomlinson"}, {"authorId": "36712523", "name": "S. Richards"}, {"authorId": "145341615", "name": "M. Zimmermann"}, {"authorId": "2697845", "name": "C. Szalai"}, {"authorId": "4592118", "name": "\u00c1. Semsei"}, {"authorId": "6512902", "name": "D. Erd\u00e9lyi"}, {"authorId": "5808691", "name": "M. Krajinovic"}, {"authorId": "144069609", "name": "D. Sinnett"}, {"authorId": "153266498", "name": "Jasmine Healy"}, {"authorId": "41199853", "name": "A. G. Neira"}, {"authorId": "6322658", "name": "N. Kawamata"}, {"authorId": "145589229", "name": "S. Ogawa"}, {"authorId": "144423605", "name": "H. Koeffler"}, {"authorId": "4171054", "name": "K. Hemminki"}, {"authorId": "33807869", "name": "M. Greaves"}, {"authorId": "145675371", "name": "R. Houlston"}]}, {"paperId": "18fc438174e6f71d500629ac9741d347fec8662a", "title": "Array-based genomic resequencing of human leukemia", "authors": [{"authorId": "2071625001", "name": "Y. Yamashita"}, {"authorId": "2107676891", "name": "J. Yuan"}, {"authorId": "6361831", "name": "I. Suetake"}, {"authorId": "4488794", "name": "H. Suzuki"}, {"authorId": "2067673669", "name": "Y. Ishikawa"}, {"authorId": "2157752249", "name": "Y. L. Choi"}, {"authorId": "2474272", "name": "T. Ueno"}, {"authorId": "40460076", "name": "M. Soda"}, {"authorId": "2060146860", "name": "T. Hamada"}, {"authorId": "5493867", "name": "H. Haruta"}, {"authorId": "20884618", "name": "S. Takada"}, {"authorId": "34998098", "name": "Y. Miyazaki"}, {"authorId": "5392273", "name": "H. Kiyoi"}, {"authorId": "2058285912", "name": "E. Ito"}, {"authorId": "4143060", "name": "T. Naoe"}, {"authorId": "4852363", "name": "M. Tomonaga"}, {"authorId": "27929238", "name": "M. Toyota"}, {"authorId": "94390005", "name": "S. Tajima"}, {"authorId": "6499732", "name": "A. Iwama"}, {"authorId": "1873203", "name": "H. Mano"}]}, {"paperId": "093b09ce08cb1b795185ee13acdc56d2f83407cf", "title": "Epigenomics of leukemia: from mechanisms to therapeutic applications.", "authors": [{"authorId": "4206197", "name": "Cristina Florean"}, {"authorId": "4072792", "name": "M. Schnekenburger"}, {"authorId": "5626883", "name": "Cindy Grandjenette"}, {"authorId": "6593868", "name": "M. Dicato"}, {"authorId": "145582403", "name": "M. Diederich"}]}, {"paperId": "57bef1962f4107f1481ba9240e0df110d2f931c0", "title": "Acute myelogenous leukemia.", "authors": [{"authorId": "50064907", "name": "J. Shipley"}, {"authorId": "6616391", "name": "J. Butera"}]}, {"paperId": "2a83cd0677345689f007f546d8091904762fa052", "title": "A comparison of low\u2010dose cytarabine and hydroxyurea with or without all\u2010trans retinoic acid for acute myeloid leukemia and high\u2010risk myelodysplastic syndrome in patients not considered fit for intensive treatment", "authors": [{"authorId": "12173065", "name": "A. Burnett"}, {"authorId": "3511463", "name": "D. Milligan"}, {"authorId": "5251252", "name": "A. Prentice"}, {"authorId": "6649467", "name": "A. Goldstone"}, {"authorId": "3226725", "name": "M. McMullin"}, {"authorId": "7490330", "name": "R. Hills"}, {"authorId": "145330537", "name": "K. Wheatley"}]}, {"paperId": "13c6f1dbdb0f8794e46bd0fb885342e524f78c92", "title": "Anti-leukemia activity of alloreactive NK cells in KIR ligand-mismatched haploidentical HSCT for pediatric patients: evaluation of the functional role of activating KIR and redefinition of inhibitory KIR specificity.", "authors": [{"authorId": "4165013", "name": "D. Pende"}, {"authorId": "6962041", "name": "S. Marcenaro"}, {"authorId": "49817898", "name": "M. Falco"}, {"authorId": "153322179", "name": "S. Martini"}, {"authorId": "33971976", "name": "M. Bernardo"}, {"authorId": "3824785", "name": "D. Montagna"}, {"authorId": "3527912", "name": "E. Romeo"}, {"authorId": "4232692", "name": "C. Cognet"}, {"authorId": "3838776", "name": "M. Martinetti"}, {"authorId": "6441965", "name": "R. Maccario"}, {"authorId": "4191792", "name": "M. Mingari"}, {"authorId": "145034654", "name": "\u00c9. Vivier"}, {"authorId": "52166904", "name": "L. Moretta"}, {"authorId": "30091661", "name": "F. Locatelli"}, {"authorId": "145908198", "name": "A. Moretta"}]}, {"paperId": "8368b375e12e30100e1c4157b62b2bc457be7c93", "title": "Chronic myeloid leukemia.", "authors": [{"authorId": "144700336", "name": "R. Silver"}, {"authorId": "144516652", "name": "R. Gale"}]}, {"paperId": "6d023599892a5466226fae8d57b270e926b1444a", "title": "Role of the PI3K/AKT and mTOR signaling pathways in acute myeloid leukemia", "authors": [{"authorId": "2107881297", "name": "Sophie Park"}, {"authorId": "6903205", "name": "N. Chapuis"}, {"authorId": "5471845", "name": "J. Tamburini"}, {"authorId": "5425287", "name": "V. Bardet"}, {"authorId": "1398070727", "name": "P. Cornillet\u2010Lef\u00e8bvre"}, {"authorId": "4768875", "name": "L. Willems"}, {"authorId": "6072649", "name": "A. Green"}, {"authorId": "1875957", "name": "P. Mayeux"}, {"authorId": "2200940", "name": "C. Lacombe"}, {"authorId": "5341314", "name": "D. Bouscary"}]}, {"paperId": "9c57644c267df898247632c7f4ec91b4c5c3380b", "title": "Plaque assay techniques for murine leukemia viruses.", "authors": [{"authorId": "5631668", "name": "W. Rowe"}, {"authorId": "39729930", "name": "W. E. Pugh"}, {"authorId": "1745592", "name": "J. Hartley"}]}, {"paperId": "ee0e93b834497a54d9707e18689c2bcfc48a342c", "title": "Drug therapy for acute myeloid leukemia.", "authors": [{"authorId": "4913380", "name": "M. Tallman"}, {"authorId": "2246160", "name": "D. Gilliland"}, {"authorId": "1691423", "name": "J. Rowe"}]}, {"paperId": "7ab02efcbce52b33809971f195997952f6d25a81", "title": "Acute myeloid leukemia carrying cytoplasmic/mutated nucleophosmin (NPMc+ AML): biologic and clinical features.", "authors": [{"authorId": "2485573", "name": "B. Falini"}, {"authorId": "2003828", "name": "I. Nicoletti"}, {"authorId": "1737630", "name": "M. Martelli"}, {"authorId": "6004982", "name": "C. Mecucci"}]}, {"paperId": "88ec579c09a590ebde83e53c066eeabfdecb74a9", "title": "A \"NEW\" ANTIGEN IN LEUKEMIA SERA.", "authors": [{"authorId": "145214599", "name": "B. Blumberg"}, {"authorId": "144339659", "name": "H. Alter"}, {"authorId": "15676676", "name": "S. Visnich"}]}, {"paperId": "f79cc2a0287d6bbce5500c833cd4ad19cda2ebdf", "title": "Full haplotype-mismatched hematopoietic stem-cell transplantation: a phase II study in patients with acute leukemia at high risk of relapse.", "authors": [{"authorId": "3662780", "name": "F. Aversa"}, {"authorId": "3148418", "name": "A. Terenzi"}, {"authorId": "5887093", "name": "A. Tabilio"}, {"authorId": "4782449", "name": "F. Falzetti"}, {"authorId": "2051799", "name": "A. Carotti"}, {"authorId": "3965625", "name": "S. Ballanti"}, {"authorId": "12406224", "name": "R. Felicini"}, {"authorId": "1801405", "name": "F. Falcinelli"}, {"authorId": "4673033", "name": "A. Velardi"}, {"authorId": "34572726", "name": "L. Ruggeri"}, {"authorId": "10269101", "name": "T. Aloisi"}, {"authorId": "34989757", "name": "Jean Pierre Saab"}, {"authorId": "48003844", "name": "A. Santucci"}, {"authorId": "3290245", "name": "K. Perruccio"}, {"authorId": "33294124", "name": "M. Martelli"}, {"authorId": "6004982", "name": "C. Mecucci"}, {"authorId": "2894962", "name": "Y. Reisner"}, {"authorId": "1737630", "name": "M. Martelli"}]}, {"paperId": "f3289b02ce156f5245e19811e26799bc9b0f3942", "title": "The sesquiterpene lactone parthenolide induces apoptosis of human acute myelogenous leukemia stem and progenitor cells.", "authors": [{"authorId": "145568776", "name": "M. Guzman"}, {"authorId": "31297234", "name": "R. M. Rossi"}, {"authorId": "11645936", "name": "Lilliana Karnischky"}, {"authorId": "1825693394", "name": "Xiaojie Li"}, {"authorId": "34777117", "name": "D. Peterson"}, {"authorId": "145350017", "name": "D. Howard"}, {"authorId": "3115380", "name": "C. Jordan"}]}, {"paperId": "87c4f048247cb67e0feab5887fe449f4b305a12c", "title": "Prediction of molecular subtypes in acute myeloid leukemia based on gene expression profiling", "authors": [{"authorId": "144672002", "name": "R. Verhaak"}, {"authorId": "2183256", "name": "B. Wouters"}, {"authorId": "4510784", "name": "C. Erpelinck"}, {"authorId": "40104573", "name": "S. Abbas"}, {"authorId": "145835402", "name": "H. Beverloo"}, {"authorId": "9918673", "name": "S. Lugthart"}, {"authorId": "2386963", "name": "B. L\u00f6wenberg"}, {"authorId": "1398773418", "name": "R. Delwel"}, {"authorId": "1876958", "name": "P. Valk"}]}, {"paperId": "41469d4365f592cb703d6226456869a3eea7ffa5", "title": "Exposure to benzene at work and the risk of leukemia: a systematic review and meta-analysis", "authors": [{"authorId": "4626102", "name": "Abdul Khalade"}, {"authorId": "4336227", "name": "M. Jaakkola"}, {"authorId": "4310010", "name": "E. Pukkala"}, {"authorId": "144515724", "name": "J. Jaakkola"}]}, {"paperId": "c10ea70df42d058f0405d0ea75a77d3a88d24554", "title": "NB4, a maturation inducible cell line with t(15;17) marker isolated from a human acute promyelocytic leukemia (M3).", "authors": [{"authorId": "40259733", "name": "M. Lanotte"}, {"authorId": "1435965336", "name": "V. Martin-Thouvenin"}, {"authorId": "6621544", "name": "S. Najman"}, {"authorId": "88971580", "name": "P. Balerini"}, {"authorId": "5051556", "name": "F. Valensi"}, {"authorId": "144532304", "name": "R. Berger"}]}, {"paperId": "8f471fba25e103b6b86a10943413476e3c387666", "title": "The molecular biology of mixed lineage leukemia", "authors": [{"authorId": "4684821", "name": "R. Slany"}]}, {"paperId": "2b3fbeb26245e70dfad5fb0e4132127db5d91a2e", "title": "The miR-17-92 microRNA polycistron regulates MLL leukemia stem cell potential by modulating p21 expression.", "authors": [{"authorId": "40071215", "name": "Piu Wong"}, {"authorId": "1828765932", "name": "M. Iwasaki"}, {"authorId": "3978483", "name": "T. Somervaille"}, {"authorId": "5599878", "name": "F. Ficara"}, {"authorId": "3760077", "name": "Christine Carico"}, {"authorId": "46825806", "name": "C. Arnold"}, {"authorId": "2536690", "name": "Chang-Zheng Chen"}, {"authorId": "3083475", "name": "M. Cleary"}]}, {"paperId": "0b1148383fb81bbd078dfdf5845ccfc159a0a707", "title": "Acquired mutations in GATA1 in the megakaryoblastic leukemia of Down syndrome", "authors": [{"authorId": "40612051", "name": "J. Wechsler"}, {"authorId": "31585068", "name": "M. Greene"}, {"authorId": "4910312", "name": "M. McDevitt"}, {"authorId": "4265650", "name": "J. Anastasi"}, {"authorId": "4778516", "name": "J. Karp"}, {"authorId": "3401554", "name": "M. L. Beau"}, {"authorId": "4829171", "name": "J. Crispino"}]}, {"paperId": "41f284e6afd6939b66056d2edf70255c7ffef0ba", "title": "Contribution of bone microenvironment to leukemogenesis and leukemia progression", "authors": [{"authorId": "1402438501", "name": "F. Ayala"}, {"authorId": "40626634", "name": "R. Dewar"}, {"authorId": "4196177", "name": "M. Kieran"}, {"authorId": "5090009", "name": "R. Kalluri"}]}, {"paperId": "daf56ded9d853a7c9fbb0aad33fbf1ed5928dac8", "title": "Analysis of a French cohort of patients with large granular lymphocyte leukemia: a report on 229 cases", "authors": [{"authorId": "5557337", "name": "B. Bareau"}, {"authorId": "46608865", "name": "J. Rey"}, {"authorId": "35689342", "name": "M. Hamidou"}, {"authorId": "6018206", "name": "J. Donadieu"}, {"authorId": "5108590", "name": "J. Morcet"}, {"authorId": "5050592", "name": "O. Reman"}, {"authorId": "3556756", "name": "N. Schleinitz"}, {"authorId": "4879171", "name": "O. Tournilhac"}, {"authorId": "4869460", "name": "M. Roussel"}, {"authorId": "2352175", "name": "T. Fest"}, {"authorId": "145985327", "name": "T. Lamy"}]}, {"paperId": "8343eb4ac00932dcaeb2bfe4b41fd47f670c2bef", "title": "Mixed-phenotype acute leukemia: historical overview and a new definition", "authors": [{"authorId": "6114004", "name": "O. Weinberg"}, {"authorId": "6693425", "name": "D. Arber"}]}, {"paperId": "56c2901b18df5f4879d1116bb43f11d2c36b8a48", "title": "Global target profile of the kinase inhibitor bosutinib in primary chronic myeloid leukemia cells", "authors": [{"authorId": "39584010", "name": "L. Rix"}, {"authorId": "1881790", "name": "U. Rix"}, {"authorId": "2248107", "name": "J. Colinge"}, {"authorId": "4129671", "name": "O. Hantschel"}, {"authorId": "2502649", "name": "K. Bennett"}, {"authorId": "3741853", "name": "T. Stranzl"}, {"authorId": "2113784893", "name": "A. M\u00fcller"}, {"authorId": "47636413", "name": "C. Baumgartner"}, {"authorId": "2330155", "name": "P. Valent"}, {"authorId": "143687732", "name": "M. Augustin"}, {"authorId": "40069315", "name": "J. Till"}, {"authorId": "1387445843", "name": "G. Superti-Furga"}]}, {"paperId": "011c620b57d424140bd7f36e3df707339846f769", "title": "p53 mutations in human lymphoid malignancies: association with Burkitt lymphoma and chronic lymphocytic leukemia.", "authors": [{"authorId": "74190505", "name": "G. Gaidano"}, {"authorId": "78411085", "name": "P. Ballerini"}, {"authorId": "31607405", "name": "J. Gong"}, {"authorId": "2536360", "name": "G. Inghirami"}, {"authorId": "143964573", "name": "A. Neri"}, {"authorId": "2359925", "name": "E. Newcomb"}, {"authorId": "33693894", "name": "I. Magrath"}, {"authorId": "2608614", "name": "D. Knowles"}, {"authorId": "1396265158", "name": "R. Dalla-Favera"}]}, {"paperId": "9256c3962e19baa29023b80610ce20f628b5f899", "title": "Down-Regulation of miR-92 in Human Plasma Is a Novel Marker for Acute Leukemia Patients", "authors": [{"authorId": "145689921", "name": "Masami Tanaka"}, {"authorId": "21301228", "name": "K. Oikawa"}, {"authorId": "4750558", "name": "M. Takanashi"}, {"authorId": "48313301", "name": "M. Kudo"}, {"authorId": "4990345", "name": "J. Ohyashiki"}, {"authorId": "6449215", "name": "K. Ohyashiki"}, {"authorId": "31724301", "name": "M. Kuroda"}]}, {"paperId": "ebe4537cd849baacc39768a3fdd93b70840f8c29", "title": "Differentiation therapy of leukemia: 3 decades of development.", "authors": [{"authorId": "37962565", "name": "D. Nowak"}, {"authorId": "50633978", "name": "D. Stewart"}, {"authorId": "144423605", "name": "H. Koeffler"}]}, {"paperId": "3a6f8bd0950bbea036c2c075aff0eb06d9c61fe1", "title": "Relapse risk after umbilical cord blood transplantation: enhanced graft-versus-leukemia effect in recipients of 2 units.", "authors": [{"authorId": "6811616", "name": "M. Verneris"}, {"authorId": "4996749", "name": "C. Brunstein"}, {"authorId": "40173870", "name": "J. Barker"}, {"authorId": "2230170", "name": "M. MacMillan"}, {"authorId": "3512834", "name": "T. DeFor"}, {"authorId": "2465926", "name": "D. McKenna"}, {"authorId": "5383589", "name": "M. Burke"}, {"authorId": "145729088", "name": "B. Blazar"}, {"authorId": "152107881", "name": "Jeffrey S. Miller"}, {"authorId": "6801325", "name": "P. Mcglave"}, {"authorId": "4006430", "name": "D. Weisdorf"}, {"authorId": "143695503", "name": "J. Wagner"}]}, {"paperId": "aebd797ecc5b8a886a7c92147b7afdd8e7b945ce", "title": "A new subtype of human T-cell leukemia virus (HTLV-II) associated with a T-cell variant of hairy cell leukemia.", "authors": [{"authorId": "1798709", "name": "V. Kalyanaraman"}, {"authorId": "8487908", "name": "M. Sarngadharan"}, {"authorId": "1400031347", "name": "M. Robert-Guroff"}, {"authorId": "2110673", "name": "I. Miyoshi"}, {"authorId": "32461937", "name": "D. Golde"}, {"authorId": "74941680", "name": "R. Gallo"}]}, {"paperId": "f79a934823e46c5429429ddbcbed06abf992bb64", "title": "The interleukin-3 receptor alpha chain is a unique marker for human acute myelogenous leukemia stem cells", "authors": [{"authorId": "121746508", "name": "C. Jordan"}, {"authorId": "48252606", "name": "D. Upchurch"}, {"authorId": "28137197", "name": "S. Szilvassy"}, {"authorId": "40224023", "name": "M. Guzman"}, {"authorId": "120734140", "name": "D. Howard"}, {"authorId": "120505302", "name": "AL Pettigrew"}, {"authorId": "6463741", "name": "T. Meyerrose"}, {"authorId": "47216408", "name": "R. Rossi"}, {"authorId": "4508979", "name": "B. Grimes"}, {"authorId": "3586817", "name": "D. Rizzieri"}, {"authorId": "145703826", "name": "S. Luger"}, {"authorId": "122529329", "name": "G. Phillips"}]}, {"paperId": "4c525e2f30b4e9da02ad2c091943e73827142146", "title": "Leukemia Proto-Oncoprotein MLL Forms a SET1-Like Histone Methyltransferase Complex with Menin To Regulate Hox Gene Expression", "authors": [{"authorId": "2049359845", "name": "A. Yokoyama"}, {"authorId": "2141399028", "name": "Zhong Wang"}, {"authorId": "5672082", "name": "J. Wysocka"}, {"authorId": "40250823", "name": "M. Sanyal"}, {"authorId": "8894374", "name": "Deborah J. Aufiero"}, {"authorId": "5416874", "name": "I. Kitabayashi"}, {"authorId": "35456352", "name": "W. Herr"}, {"authorId": "3083475", "name": "M. Cleary"}]}, {"paperId": "cb334d7fe5ff5dd1bca3ff18bfb0d1a9cb22500b", "title": "Acute Myeloid Leukemia: Epidemiology and Etiology", "authors": [{"authorId": "4487812", "name": "B. Deschler"}, {"authorId": "5994299", "name": "M. L\u00fcbbert"}]}, {"paperId": "8b2479aa6ee4582a2cba9867b926794cf38e13e6", "title": "Haploinsufficiency of the IKZF1 (IKAROS) tumor suppressor gene cooperates with BCR-ABL in a transgenic model of acute lymphoblastic leukemia", "authors": [{"authorId": "5546079", "name": "C. Virely"}, {"authorId": "40252642", "name": "S. Moulin"}, {"authorId": "5791245", "name": "C. Cobaleda"}, {"authorId": "5548066", "name": "C. Lasgi"}, {"authorId": "2078186526", "name": "A. Alberdi"}, {"authorId": "145571946", "name": "J. Soulier"}, {"authorId": "5115542", "name": "F. Sigaux"}, {"authorId": "2148797345", "name": "S. Chan"}, {"authorId": "38486988", "name": "P. Kastner"}, {"authorId": "4601252", "name": "J. Ghysdael"}]}, {"paperId": "ecb497b42eaae841b2828f4f210c7d5be182e291", "title": "A new recurrent translocation t(11;14)(q24;q32) involving IGH@ and miR-125b-1 in B-cell progenitor acute lymphoblastic leukemia", "authors": [{"authorId": "4575528", "name": "E. Chapiro"}, {"authorId": "5202107", "name": "L. Russell"}, {"authorId": "5485160", "name": "S. Struski"}, {"authorId": "1876281", "name": "H. Cav\u00e9"}, {"authorId": "1397738348", "name": "I. Radford\u2010Weiss"}, {"authorId": "39017910", "name": "V. D. Valle"}, {"authorId": "6539026", "name": "J. Lachenaud"}, {"authorId": "5419404", "name": "P. Brousset"}, {"authorId": "1729885", "name": "O. Bernard"}, {"authorId": "2681392", "name": "C. Harrison"}, {"authorId": "1387465868", "name": "F. Nguyen\u2010Khac"}]}, {"paperId": "3b69593dd73f4ffd5c8e279bb7052f9c1bcfa0a3", "title": "Negative prognostic impact of PTEN mutation in pediatric T-cell acute lymphoblastic leukemia", "authors": [{"authorId": "4280024", "name": "P. Jotta"}, {"authorId": "5816719", "name": "M. A. Ganazza"}, {"authorId": "66398373", "name": "A. Silva"}, {"authorId": "3496354", "name": "M. Viana"}, {"authorId": "2107712847", "name": "M. J. Silva"}, {"authorId": "4377687", "name": "L. G. Zambaldi"}, {"authorId": "143848351", "name": "J. Barata"}, {"authorId": "4205040", "name": "S. Brandalise"}, {"authorId": "3817749", "name": "J. A. Yunes"}]}, {"paperId": "60b600df72bf5b8c09bc842eae34490be09b1c87", "title": "ARID5B SNP rs10821936 is associated with risk of childhood acute lymphoblastic leukemia in blacks and contributes to racial differences in leukemia incidence", "authors": [{"authorId": "2157813624", "name": "W. Yang"}, {"authorId": "5889997", "name": "L. Trevi\u00f1o"}, {"authorId": "144436772", "name": "J. Yang"}, {"authorId": "2655638", "name": "P. Scheet"}, {"authorId": "143836865", "name": "C. Pui"}, {"authorId": "144141201", "name": "W. Evans"}, {"authorId": "88006718", "name": "M. Relling"}]}, {"paperId": "d025dc6ee1cadb7304f1d9d72e16a9f571790c9e", "title": "Adult T-cell leukemia: clinical and hematologic features of 16 cases.", "authors": [{"authorId": "2204118", "name": "T. Uchiyama"}, {"authorId": "5066322", "name": "J. Yodoi"}, {"authorId": "49012433", "name": "K. Sagawa"}, {"authorId": "4509583", "name": "K. Takatsuki"}, {"authorId": "2470071", "name": "H. Uchino"}]}, {"paperId": "2965c099b42c2d9258fd5dda27e9d301b13146ae", "title": "High frequencies of leukemia stem cells in poor-outcome childhood precursor-B acute lymphoblastic leukemias", "authors": [{"authorId": "4385964", "name": "S. Morisot"}, {"authorId": "5762439", "name": "A. Wayne"}, {"authorId": "1429545408", "name": "O. Bohana\u2010Kashtan"}, {"authorId": "49376488", "name": "I. Kaplan"}, {"authorId": "6084038", "name": "C. Gocke"}, {"authorId": "11092719", "name": "R. Hildreth"}, {"authorId": "1390169151", "name": "M. Stetler-Stevenson"}, {"authorId": "48286539", "name": "R. Walker"}, {"authorId": "145019259", "name": "S. Davis"}, {"authorId": "2052717446", "name": "P. Meltzer"}, {"authorId": "3113592", "name": "S. Wheelan"}, {"authorId": "144932332", "name": "P. Brown"}, {"authorId": "2157480938", "name": "R. Jones"}, {"authorId": "3679971", "name": "L. Shultz"}, {"authorId": "3536669", "name": "C. Civin"}]}, {"paperId": "31a5b8634e4737809ea7ec088cea3794ad274ca5", "title": "Cooperating gene mutations in acute myeloid leukemia: a review of the literature", "authors": [{"authorId": "3916687", "name": "Aline Renneville"}, {"authorId": "4400451", "name": "C. Roumier"}, {"authorId": "8993501", "name": "V. Biggio"}, {"authorId": "4222938", "name": "O. Nibourel"}, {"authorId": "4992695", "name": "N. Boissel"}, {"authorId": "4545166", "name": "P. Fenaux"}, {"authorId": "46416291", "name": "C. Preudhomme"}]}]}
