{"total": 780808, "offset": 350, "next": 400, "data": [{"paperId": "9e3e1665859d5cef6f793fbde4e35cc778362e46", "title": "Chronic lymphocytic leukemia.", "authors": [{"authorId": "2526905", "name": "C. Rozman"}, {"authorId": "3732675", "name": "E. Montserrat"}]}, {"paperId": "4c367dd3d887f4b03978d93221634c7b8dcfb83a", "title": "AML1/ETO-expressing nonleukemic stem cells in acute myelogenous leukemia with 8;21 chromosomal translocation.", "authors": [{"authorId": "1889571", "name": "T. Miyamoto"}, {"authorId": "2325553", "name": "I. Weissman"}, {"authorId": "3149502", "name": "K. Akashi"}]}, {"paperId": "0767722b019738f53eddac3c6815b99bbe3259bb", "title": "Leukemia and lymphoma in ataxia telangiectasia.", "authors": [{"authorId": "145809527", "name": "A. Taylor"}, {"authorId": "49445695", "name": "J. Metcalfe"}, {"authorId": "4438370", "name": "J. Thick"}, {"authorId": "120446423", "name": "Y. Mak"}]}, {"paperId": "7292449386b69558407cf2aeaf4ebb7fcc6eac92", "title": "Selective ablation of acute myeloid leukemia using antibody-targeted chemotherapy: a phase I study of an anti-CD33 calicheamicin immunoconjugate.", "authors": [{"authorId": "4798383", "name": "E. Sievers"}, {"authorId": "6980776", "name": "F. Appelbaum"}, {"authorId": "5953394", "name": "R. Spielberger"}, {"authorId": "84015299", "name": "S. Forman"}, {"authorId": "34311479", "name": "D. Flowers"}, {"authorId": "3003637", "name": "F. Smith"}, {"authorId": "1399138378", "name": "K. Shannon-Dorcy"}, {"authorId": "47704986", "name": "M. Berger"}, {"authorId": "4220607", "name": "I. Bernstein"}]}, {"paperId": "a2893118e14c29a23472b02249b4641b9971786b", "title": "Gene set enrichment analysis: A knowledge-based approach for interpreting genome-wide expression profiles", "authors": [{"authorId": "145445964", "name": "A. Subramanian"}, {"authorId": "144085315", "name": "P. Tamayo"}, {"authorId": "2595752", "name": "V. Mootha"}, {"authorId": "145675811", "name": "Sayan Mukherjee"}, {"authorId": "1850747", "name": "B. Ebert"}, {"authorId": "39595909", "name": "M. Gillette"}, {"authorId": "2029001", "name": "A. Paulovich"}, {"authorId": "3506786", "name": "S. Pomeroy"}, {"authorId": "2900051", "name": "T. Golub"}, {"authorId": "9311320", "name": "E. Lander"}, {"authorId": "1727782", "name": "J. Mesirov"}]}, {"paperId": "c94922a6541da3df35809c993519fba677c1c3b3", "title": "The detection of disease clustering and a generalized regression approach.", "authors": [{"authorId": "6964430", "name": "N. Mantel"}]}, {"paperId": "a02acd77ee784bf58b7278b830e8d0d974e2d0c4", "title": "Oncogenic potential of the miR-106-363 cluster and its implication in human T-cell leukemia.", "authors": [{"authorId": "39882036", "name": "S. Landais"}, {"authorId": "49018483", "name": "S. Landry"}, {"authorId": "46575748", "name": "P. Legault"}, {"authorId": "2643473", "name": "E. Rassart"}]}, {"paperId": "63e20d94b2b3e7c5b3fe422dfdcfb413ca7c834a", "title": "AZD1152, a novel and selective aurora B kinase inhibitor, induces growth arrest, apoptosis, and sensitization for tubulin depolymerizing agent or topoisomerase II inhibitor in human acute leukemia cells in vitro and in vivo.", "authors": [{"authorId": "2143850378", "name": "Jing Yang"}, {"authorId": "5572764", "name": "T. Ikezoe"}, {"authorId": "4576544", "name": "C. Nishioka"}, {"authorId": "1979929", "name": "T. Tasaka"}, {"authorId": "6926638", "name": "A. Taniguchi"}, {"authorId": "6735313", "name": "Y. Kuwayama"}, {"authorId": "3743742", "name": "N. Komatsu"}, {"authorId": "4129528", "name": "K. Bandobashi"}, {"authorId": "7781508", "name": "K. Togitani"}, {"authorId": "144423605", "name": "H. Koeffler"}, {"authorId": "1830516", "name": "H. Taguchi"}, {"authorId": "28054073", "name": "A. Yokoyama"}]}, {"paperId": "4f8641773f10a5d4ce6f480b640573c5a84257b5", "title": "Chemotherapy exposure increases leukemia cell stiffness.", "authors": [{"authorId": "6417230", "name": "W. Lam"}, {"authorId": "39712383", "name": "M. Rosenbluth"}, {"authorId": "31744099", "name": "D. Fletcher"}]}, {"paperId": "375eb0596c84ecb90ed518283121f516d3be17a7", "title": "ERIC recommendations on IGHV gene mutational status analysis in chronic lymphocytic leukemia", "authors": [{"authorId": "49300554", "name": "P. Ghia"}, {"authorId": "2678859", "name": "K. Stamatopoulos"}, {"authorId": "5497468", "name": "C. Belessi"}, {"authorId": "2151215753", "name": "C. Moreno"}, {"authorId": "5961074", "name": "S. Stilgenbauer"}, {"authorId": "49852984", "name": "F. Stevenson"}, {"authorId": "34785187", "name": "F. Davi"}, {"authorId": "2523824", "name": "R. Rosenquist"}]}, {"paperId": "e83697c9d9ef1c4e318fda474a88cb926c924097", "title": "Backtracking leukemia to birth: identification of clonotypic gene fusion sequences in neonatal blood spots.", "authors": [{"authorId": "152453639", "name": "K. Gale"}, {"authorId": "1839338", "name": "A. Ford"}, {"authorId": "3560307", "name": "R. Repp"}, {"authorId": "2091682", "name": "A. Borkhardt"}, {"authorId": "2054899142", "name": "C. Keller"}, {"authorId": "145853477", "name": "O. Eden"}, {"authorId": "33807869", "name": "M. Greaves"}]}, {"paperId": "e031bf60dabffd16ca4e273df3aa1aec654b84c2", "title": "The t(12;21) of acute lymphoblastic leukemia results in a tel-AML1 gene fusion.", "authors": [{"authorId": "6266451", "name": "S. Romana"}, {"authorId": "5331989", "name": "M. Mauchauff\u00e9"}, {"authorId": "8598662", "name": "M. le Coniat"}, {"authorId": "2498961", "name": "I. Chumakov"}, {"authorId": "48148024", "name": "D. Le Paslier"}, {"authorId": "144532304", "name": "R. Berger"}, {"authorId": "46368962", "name": "O. Bernard"}]}, {"paperId": "a3c9e52377cf23beed152177dcc3efa94a216af6", "title": "CD34+CD38+CD19+ as well as CD34+CD38\u2212CD19+ cells are leukemia-initiating cells with self-renewal capacity in human B-precursor ALL", "authors": [{"authorId": "47390115", "name": "Y. Kong"}, {"authorId": "8322492", "name": "S. Yoshida"}, {"authorId": "2107791291", "name": "Y. Saito"}, {"authorId": "2066648088", "name": "T. Doi"}, {"authorId": "8145241", "name": "Y. Nagatoshi"}, {"authorId": "34890302", "name": "M. Fukata"}, {"authorId": "10098824", "name": "N. Saito"}, {"authorId": "21848050", "name": "S. Yang"}, {"authorId": "38143854", "name": "C. Iwamoto"}, {"authorId": "143606192", "name": "J. Okamura"}, {"authorId": "2167218160", "name": "K. Liu"}, {"authorId": "152638898", "name": "X. Huang"}, {"authorId": "8912682", "name": "D. Lu"}, {"authorId": "3679971", "name": "L. Shultz"}, {"authorId": "48468080", "name": "M. Harada"}, {"authorId": "34381780", "name": "F. Ishikawa"}]}, {"paperId": "3c5d0eb675b6e28db4f6e209a3f3612a7b1cc91c", "title": "Human acute leukemia cells injected in NOD/LtSz\u2010scid/IL\u20102R\u03b3 null mice generate a faster and more efficient disease compared to other NOD/scid\u2010related strains", "authors": [{"authorId": "50684091", "name": "A. Agliano"}, {"authorId": "1402491333", "name": "I. Mart\u00edn-Padura"}, {"authorId": "2881937", "name": "P. Mancuso"}, {"authorId": "5180143", "name": "Paola Marighetti"}, {"authorId": "4953879", "name": "C. Rabascio"}, {"authorId": "5446778", "name": "G. Pruneri"}, {"authorId": "3679971", "name": "L. Shultz"}, {"authorId": "39921939", "name": "F. Bertolini"}]}, {"paperId": "7441747c5b786a0c769e7721ff26a34b0d654e9a", "title": "Diagnosis and management of AML in adults: 2017 ELN recommendations from an international expert panel.", "authors": [{"authorId": "6699543", "name": "H. D\u00f6hner"}, {"authorId": "47208649", "name": "E. Estey"}, {"authorId": "6558031", "name": "D. Grimwade"}, {"authorId": "2962528", "name": "S. Amadori"}, {"authorId": "6980776", "name": "F. Appelbaum"}, {"authorId": "145022153", "name": "T. Bu\u0308chner"}, {"authorId": "4578245", "name": "H. Dombret"}, {"authorId": "1850747", "name": "B. Ebert"}, {"authorId": "4545166", "name": "P. Fenaux"}, {"authorId": "81243702", "name": "R. Larson"}, {"authorId": "8669017", "name": "R. Levine"}, {"authorId": "35594804", "name": "F. Lo\u2010Coco"}, {"authorId": "4143060", "name": "T. Naoe"}, {"authorId": "4421896", "name": "D. Niederwieser"}, {"authorId": "4135350", "name": "G. Ossenkoppele"}, {"authorId": "143896027", "name": "M. Sanz"}, {"authorId": "145677980", "name": "J. Sierra"}, {"authorId": "4913380", "name": "M. Tallman"}, {"authorId": "144106988", "name": "H. Tien"}, {"authorId": "31419362", "name": "A. Wei"}, {"authorId": "2386963", "name": "B. L\u00f6wenberg"}, {"authorId": "3411384", "name": "C. Bloomfield"}]}, {"paperId": "9146000e0878ea5a7029d0c1be4c1c60e1c45a03", "title": "AML1-ETO expression is directly involved in the development of acute myeloid leukemia in the presence of additional mutations", "authors": [{"authorId": "38937906", "name": "Youzhong Yuan"}, {"authorId": "46696501", "name": "Liming Zhou"}, {"authorId": "1889571", "name": "T. Miyamoto"}, {"authorId": "1820974", "name": "H. Iwasaki"}, {"authorId": "10198797", "name": "N. Harakawa"}, {"authorId": "33082578", "name": "C. Hetherington"}, {"authorId": "6271622", "name": "S. Burel"}, {"authorId": "6319731", "name": "E. Lagasse"}, {"authorId": "2325553", "name": "I. Weissman"}, {"authorId": "2054546032", "name": "Koichi Akashi"}, {"authorId": "153165200", "name": "Dong-er Zhang"}]}, {"paperId": "20ecab597c9480ad1e972272751c5d4c51593586", "title": "Graft-versus-leukemia reactions in allogeneic chimeras.", "authors": [{"authorId": "152815108", "name": "H. Kolb"}, {"authorId": "153433846", "name": "C. Schmid"}, {"authorId": "145226749", "name": "A. Barrett"}, {"authorId": "2107410", "name": "D. Schendel"}]}, {"paperId": "d6a6861b7873d7c4d78dadca8440d96ba2723f3d", "title": "Influence of acute and chronic graft-versus-host disease on relapse and survival after bone marrow transplantation from HLA-identical siblings as treatment of acute and chronic leukemia.", "authors": [{"authorId": "1711248", "name": "K. Sullivan"}, {"authorId": "2400367", "name": "P. Weiden"}, {"authorId": "144479216", "name": "R. Storb"}, {"authorId": "3998364", "name": "R. Witherspoon"}, {"authorId": "6233327", "name": "A. Fefer"}, {"authorId": "145729172", "name": "L. Fisher"}, {"authorId": "144329377", "name": "C. Buckner"}, {"authorId": "7844063", "name": "C. Anasetti"}, {"authorId": "6980776", "name": "F. Appelbaum"}, {"authorId": "2317560", "name": "C. Badger"}]}, {"paperId": "dd00ca5324fae5be80514d6233669821cd4d8512", "title": "Genome-wide identification of aberrantly methylated promoter associated CpG islands in acute lymphocytic leukemia", "authors": [{"authorId": "87487812", "name": "S. Kuang"}, {"authorId": "10855812", "name": "W. Tong"}, {"authorId": "81991574", "name": "H. Yang"}, {"authorId": "2107779039", "name": "W. Lin"}, {"authorId": "6001543", "name": "M. K. Lee"}, {"authorId": "89204750", "name": "Z. Fang"}, {"authorId": "2129459382", "name": "Y. Wei"}, {"authorId": "2054184142", "name": "J. Jel\u00ednek"}, {"authorId": "1863559", "name": "J. Issa"}, {"authorId": "1393642056", "name": "G. Garcia-Manero"}]}, {"paperId": "cc5f00fe5632f897b0f7fe2cbeb66bc18b0acb80", "title": "The mechanism of tumor cell clearance by rituximab in vivo in patients with B-cell chronic lymphocytic leukemia: evidence of caspase activation and apoptosis induction.", "authors": [{"authorId": "2820011", "name": "J. Byrd"}, {"authorId": "4151190", "name": "S. Kitada"}, {"authorId": "2571237", "name": "I. Flinn"}, {"authorId": "47330689", "name": "J. L. Aron"}, {"authorId": "2053221985", "name": "M. Pearson"}, {"authorId": "47719953", "name": "D. Lucas"}, {"authorId": "29485276", "name": "John Calvin Reed"}]}, {"paperId": "e8067415001da8b21d608b62b6397de978783f23", "title": "TET1, a member of a novel protein family, is fused to MLL in acute myeloid leukemia containing the t(10;11)(q22;q23)", "authors": [{"authorId": "31509528", "name": "R. Lorsbach"}, {"authorId": "50645963", "name": "J. Moore"}, {"authorId": "2403333", "name": "S. Mathew"}, {"authorId": "81524196", "name": "S. Raimondi"}, {"authorId": "5393475", "name": "S. Mukatira"}, {"authorId": "151435580", "name": "J. Downing"}]}, {"paperId": "2ace7c86cff266b8557fce736db940f468f1ec4f", "title": "Transformation of an interleukin 3-dependent hematopoietic cell line by the chronic myelogenous leukemia-specific P210bcr/abl protein.", "authors": [{"authorId": "2028224", "name": "G. Daley"}, {"authorId": "144293138", "name": "D. Baltimore"}]}, {"paperId": "41c6f229c4b149d502f89ffc386febb24116bd25", "title": "Molecular classification of cancer: class discovery and class prediction by gene expression monitoring.", "authors": [{"authorId": "2900051", "name": "T. Golub"}, {"authorId": "47177862", "name": "D. Slonim"}, {"authorId": "144085315", "name": "P. Tamayo"}, {"authorId": "5899757", "name": "C. Huard"}, {"authorId": "2363402", "name": "M. Gaasenbeek"}, {"authorId": "1727782", "name": "J. Mesirov"}, {"authorId": "1892561", "name": "H. Coller"}, {"authorId": "3914683", "name": "M. Loh"}, {"authorId": "1699137", "name": "J. Downing"}, {"authorId": "6921786", "name": "M. Caligiuri"}, {"authorId": "3411384", "name": "C. Bloomfield"}, {"authorId": "9311320", "name": "E. Lander"}]}, {"paperId": "eff7754f4750e9ddb0bef73110578902a9af612d", "title": "Juvenile myelomonocytic leukemia and chronic myelomonocytic leukemia", "authors": [{"authorId": "5425590", "name": "P. Emanuel"}]}, {"paperId": "f187d1c94fcf8a5dc5866567d556ac1e7105ed34", "title": "MLL-AF9 and FLT3 cooperation in acute myelogenous leukemia: development of a model for rapid therapeutic assessment", "authors": [{"authorId": "37371151", "name": "M. Stubbs"}, {"authorId": "50681851", "name": "Y. Kim"}, {"authorId": "1864352", "name": "A. Krivtsov"}, {"authorId": "46955683", "name": "R. Wright"}, {"authorId": "1395874801", "name": "Z. Feng"}, {"authorId": "39658495", "name": "J. Agarwal"}, {"authorId": "145326814", "name": "A. Kung"}, {"authorId": "2991114", "name": "S. Armstrong"}]}, {"paperId": "3e78dc2e9603677226a9d470799f084237fff360", "title": "Acute myeloid leukemia.", "authors": [{"authorId": "2386963", "name": "B. L\u00f6wenberg"}, {"authorId": "1699137", "name": "J. Downing"}, {"authorId": "122101786", "name": "A. Burnett"}]}, {"paperId": "ccc45dd09a5ded61990277c69787f5e682a63b5e", "title": "The \"retinoic acid syndrome\" in acute promyelocytic leukemia.", "authors": [{"authorId": "2438449", "name": "S. Frankel"}, {"authorId": "1955871", "name": "A. Eardley"}, {"authorId": "2070157494", "name": "G. Lauwers"}, {"authorId": "147631872", "name": "M. Weiss"}, {"authorId": "7774112", "name": "R. Warrell"}]}, {"paperId": "5d57e1e15b223065c0c33551ab95332cb55416de", "title": "Cytogenetics in acute leukemia", "authors": [{"authorId": "1688685", "name": "K. Mr\u00f3zek"}, {"authorId": "3352321", "name": "N. Heerema"}, {"authorId": "3411384", "name": "C. Bloomfield"}]}, {"paperId": "4ec4e8c6993edc4d6e3354b61679adc1eb2460d8", "title": "Notch1 Contributes to Mouse T-Cell Leukemia by Directly Inducing the Expression of c-myc", "authors": [{"authorId": "5452336", "name": "V. Sharma"}, {"authorId": "144168174", "name": "J. Calvo"}, {"authorId": "6772269", "name": "K. Draheim"}, {"authorId": "50119346", "name": "L. Cunningham"}, {"authorId": "4002959", "name": "N. Hermance"}, {"authorId": "6900384", "name": "L. Beverly"}, {"authorId": "47845627", "name": "Veena Krishnamoorthy"}, {"authorId": "2067734", "name": "M. Bhasin"}, {"authorId": "35130918", "name": "A. Capobianco"}, {"authorId": "5739575", "name": "M. Kelliher"}]}, {"paperId": "cc7089d5ef3dedaf1bde814f4c4d31d7bfef7605", "title": "Polymorphisms in folate-related genes: association with side effects of high-dose methotrexate in childhood acute lymphoblastic leukemia", "authors": [{"authorId": "1799267", "name": "L. Huang"}, {"authorId": "1392679575", "name": "W. Tissing"}, {"authorId": "7379147", "name": "R. Jonge"}, {"authorId": "28045783", "name": "B. V. Zelst"}, {"authorId": "87864379", "name": "R. Pieters"}]}, {"paperId": "b431e53863c4b8067e54e5df31a3fcb29ae94225", "title": "Interferon alfa-2a as compared with conventional chemotherapy for the treatment of chronic myeloid leukemia.", "authors": [{"authorId": "3618001", "name": "S. Tura"}, {"authorId": "6295950", "name": "M. Baccarani"}, {"authorId": "8962008", "name": "E. Zuffa"}, {"authorId": "145924814", "name": "D. Russo"}, {"authorId": "5638753", "name": "R. Fanin"}, {"authorId": "4894942", "name": "A. Zaccaria"}, {"authorId": "2222166", "name": "M. Fiacchini"}]}, {"paperId": "502c822dc86733f8329c0513856fb5b5aace761f", "title": "Overweight and obesity and incidence of leukemia: A meta\u2010analysis of cohort studies", "authors": [{"authorId": "3279897", "name": "S. Larsson"}, {"authorId": "4675614", "name": "A. Wolk"}]}, {"paperId": "1796cf3a9ce1922f82a763388fd6c99932849a5f", "title": "Enhanced antitumor activity by a selective conditionally replicating adenovirus combining with MDA-7/interleukin-24 for B-lymphoblastic leukemia via induction of apoptosis", "authors": [{"authorId": "19188511", "name": "W. Qian"}, {"authorId": "46700863", "name": "J. Liu"}, {"authorId": "145486788", "name": "Y. Tong"}, {"authorId": "2140062495", "name": "S. Yan"}, {"authorId": "49984910", "name": "C. Yang"}, {"authorId": "2107695284", "name": "M. Yang"}, {"authorId": "35295639", "name": "X. Liu"}]}, {"paperId": "eebe0b96560aad82324f732451adc1ee113cbebe", "title": "A prospective study of the natural history of transient leukemia (TL) in neonates with Down syndrome (DS): Children's Oncology Group (COG) study POG-9481.", "authors": [{"authorId": "38509717", "name": "G. Massey"}, {"authorId": "4463186", "name": "A. Zipursky"}, {"authorId": "2114387110", "name": "Myron N. Chang"}, {"authorId": "34718598", "name": "J. Doyle"}, {"authorId": "122459973", "name": "S. Nasim"}, {"authorId": "5059738", "name": "J. Taub"}, {"authorId": "8309932", "name": "Y. Ravindranath"}, {"authorId": "143773909", "name": "G. Dahl"}, {"authorId": "32357600", "name": "H. Weinstein"}]}, {"paperId": "b7934a805a4da4737ef73943fcc96ccbb5ed8379", "title": "miR-15 and miR-16 induce apoptosis by targeting BCL2.", "authors": [{"authorId": "4749009", "name": "A. Cimmino"}, {"authorId": "2124909", "name": "G. Calin"}, {"authorId": "34996971", "name": "M. Fabbri"}, {"authorId": "2902667", "name": "M. Iorio"}, {"authorId": "4982531", "name": "M. Ferracin"}, {"authorId": "1803707", "name": "M. Shimizu"}, {"authorId": "15337009", "name": "S. Wojcik"}, {"authorId": "3725889", "name": "R. Aqeilan"}, {"authorId": "4323365", "name": "S. Zupo"}, {"authorId": "6269652", "name": "M. Dono"}, {"authorId": "1871002", "name": "L. Rassenti"}, {"authorId": "145445510", "name": "H. Alder"}, {"authorId": "1906416", "name": "S. Volinia"}, {"authorId": "16073087", "name": "Chang-gong Liu"}, {"authorId": "2596557", "name": "T. Kipps"}, {"authorId": "50381334", "name": "M. Negrini"}, {"authorId": "144749275", "name": "C. Croce"}]}, {"paperId": "0b1abad4c69fbca3010daa99b10d55c6f2c097f9", "title": "Internal tandem duplication of the FLT3 gene is preferentially seen in acute myeloid leukemia and myelodysplastic syndrome among various hematological malignancies. A study on a large series of patients and cell lines", "authors": [{"authorId": "49904956", "name": "S. Yokota"}, {"authorId": "5392273", "name": "H. Kiyoi"}, {"authorId": "47086244", "name": "M. Nakao"}, {"authorId": "6727438", "name": "T. Iwai"}, {"authorId": "2054133", "name": "S. Misawa"}, {"authorId": "50500817", "name": "T. Okuda"}, {"authorId": "2268696", "name": "Y. Sonoda"}, {"authorId": "50327068", "name": "T. Abe"}, {"authorId": "15453390", "name": "K. Kahsima"}, {"authorId": "2044140", "name": "Y. Matsuo"}, {"authorId": "4143060", "name": "T. Naoe"}]}, {"paperId": "71b9b9c5d7fd73986af47a6515dcbab246f3aea5", "title": "International scoring system for evaluating prognosis in myelodysplastic syndromes.", "authors": [{"authorId": "32664718", "name": "P. Greenberg"}, {"authorId": "2052347487", "name": "C. Cox"}, {"authorId": "10383066", "name": "M. Lebeau"}, {"authorId": "4545166", "name": "P. Fenaux"}, {"authorId": "49461714", "name": "P. Morel"}, {"authorId": "144307371", "name": "G. Sanz"}, {"authorId": "143896027", "name": "M. Sanz"}, {"authorId": "8925722", "name": "T. Vallesp\u00ed"}, {"authorId": "4414856", "name": "T. Hamblin"}, {"authorId": "2004771", "name": "D. Oscier"}, {"authorId": "6449215", "name": "K. Ohyashiki"}, {"authorId": "50123795", "name": "K. Toyama"}, {"authorId": "3549309", "name": "C. Aul"}, {"authorId": "46902325", "name": "G. Mufti"}, {"authorId": "2113543557", "name": "J. Bennett"}]}, {"paperId": "c00c90f8c066b67896c90ee5e384829a25f9d784", "title": "Conventional compared with individualized chemotherapy for childhood acute lymphoblastic leukemia.", "authors": [{"authorId": "144141197", "name": "W. Evans"}, {"authorId": "88006718", "name": "M. Relling"}, {"authorId": "36364414", "name": "J. Rodman"}, {"authorId": "4010551", "name": "W. Crom"}, {"authorId": "120745255", "name": "J. Boyett"}, {"authorId": "143836865", "name": "C. Pui"}]}, {"paperId": "36eee69748febd90273dbcfba36e8576743e8362", "title": "Genetic marking shows that Ph+ cells present in autologous transplants of chronic myelogenous leukemia (CML) contribute to relapse after autologous bone marrow in CML.", "authors": [{"authorId": "3976989", "name": "A. Deisseroth"}, {"authorId": "121879072", "name": "Z. Zu"}, {"authorId": "3706289", "name": "D. Claxton"}, {"authorId": "120733585", "name": "E. Hanania"}, {"authorId": "2420699", "name": "S. Fu"}, {"authorId": "4297565", "name": "D. Ellerson"}, {"authorId": "4887196", "name": "L. Goldberg"}, {"authorId": "2107680679", "name": "M. Thomas"}, {"authorId": "81937816", "name": "K. Janicek"}, {"authorId": "144292041", "name": "W. Anderson"}]}, {"paperId": "0e48afa17a9508792c6dabf95c2b3a7171366256", "title": "In Vivo Gene Delivery and Stable Transduction of Nondividing Cells by a Lentiviral Vector", "authors": [{"authorId": "145894221", "name": "L. Naldini"}, {"authorId": "6048788", "name": "U. Blo\u0308mer"}, {"authorId": "39593893", "name": "P. Gallay"}, {"authorId": "2071054780", "name": "Daniel Ory"}, {"authorId": "47456957", "name": "R. Mulligan"}, {"authorId": "2362556", "name": "F. Gage"}, {"authorId": "4395114", "name": "I. Verma"}, {"authorId": "4667636", "name": "D. Trono"}]}, {"paperId": "313780f8a5ea8fca3d7aa46b914e4109ef5cc13e", "title": "Effects of a selective inhibitor of the Abl tyrosine kinase on the growth of Bcr\u2013Abl positive cells", "authors": [{"authorId": "144082761", "name": "B. Druker"}, {"authorId": "48952769", "name": "S. Tamura"}, {"authorId": "3971126", "name": "E. Buchdunger"}, {"authorId": "46776209", "name": "S. Ohno"}, {"authorId": "47124157", "name": "G. Segal"}, {"authorId": "6374370", "name": "S. Fanning"}, {"authorId": "40571178", "name": "J. Zimmermann"}, {"authorId": "2440018", "name": "N. Lydon"}]}, {"paperId": "167fc444cbd93633fc888fe7b05fe927dee80ce1", "title": "Review of alterations of the cyclin-dependent kinase inhibitor INK4 family genes p15, p16, p18 and p19 in human leukemia\u2013lymphoma cells", "authors": [{"authorId": "35985204", "name": "H. Drexler"}]}, {"paperId": "705ba3e19277fa9ef4b8a1851a778ee7a9785feb", "title": "Acute lymphoblastic leukemia.", "authors": [{"authorId": "143836865", "name": "C. Pui"}, {"authorId": "3009230", "name": "M. Relling"}, {"authorId": "1699137", "name": "J. Downing"}]}, {"paperId": "79be32118e94e9b5f2b7b08767c3a465b878987c", "title": "Cancer Chemopreventive Activity of Resveratrol, a Natural Product Derived from Grapes", "authors": [{"authorId": "120590131", "name": "M. Jang"}, {"authorId": "7239169", "name": "Lining Cai"}, {"authorId": "47569938", "name": "G. Udeani"}, {"authorId": "5548553", "name": "K. Slowing"}, {"authorId": "2148887898", "name": "Cathy F. Thomas"}, {"authorId": "4961160", "name": "C. Beecher"}, {"authorId": "143908062", "name": "H. Fong"}, {"authorId": "145667157", "name": "N. Farnsworth"}, {"authorId": "145144203", "name": "A. Kinghorn"}, {"authorId": "6047346", "name": "R. Mehta"}, {"authorId": "4206580", "name": "R. Moon"}, {"authorId": "3713476", "name": "J. Pezzuto"}]}, {"paperId": "c022654ebdbd0cd71226cba81644d75eec28984f", "title": "Results of allogeneic bone marrow transplants for leukemia using donors other than HLA-identical siblings.", "authors": [{"authorId": "4824670", "name": "Richard Szydlo"}, {"authorId": "48968929", "name": "J. Goldman"}, {"authorId": "4033024", "name": "J. Klein"}, {"authorId": "144516652", "name": "R. Gale"}, {"authorId": "2291608", "name": "R. Ash"}, {"authorId": "4168064", "name": "F. Bach"}, {"authorId": "144672313", "name": "B. Bradley"}, {"authorId": "35236313", "name": "J. Casper"}, {"authorId": "4085142", "name": "N. Flomenberg"}, {"authorId": "113676192", "name": "J. Gajewski"}, {"authorId": "4210563", "name": "E. Gluckman"}, {"authorId": "1401798901", "name": "P. Henslee-Downey"}, {"authorId": "6546269", "name": "J. Hows"}, {"authorId": "1752078", "name": "N. Jacobsen"}, {"authorId": "145579946", "name": "H. Kolb"}, {"authorId": "6416440", "name": "B. Lowenberg"}, {"authorId": "3668653", "name": "T. Masaoka"}, {"authorId": "4290453", "name": "P. Rowlings"}, {"authorId": "153438437", "name": "P. Sondel"}, {"authorId": "87369423", "name": "D. V. van Bekkum"}, {"authorId": "88345688", "name": "J. V. van Rood"}, {"authorId": "7577251", "name": "M. Vowels"}, {"authorId": "2107447653", "name": "M. Zhang"}, {"authorId": "34953677", "name": "M. Horowitz"}]}, {"paperId": "6d2c746e8e7537f8d94ee4998d5b501a1180a2d4", "title": "Dietary bioflavonoids induce cleavage in the MLL gene and may contribute to infant leukemia.", "authors": [{"authorId": "5902020", "name": "R. Strick"}, {"authorId": "4902451", "name": "P. Strissel"}, {"authorId": "46944290", "name": "S. Borgers"}, {"authorId": "2157820691", "name": "S. Smith"}, {"authorId": "39226319", "name": "J. Rowley"}]}, {"paperId": "1f7dfefd6803318079b05ca354d3c2e31b586d71", "title": "Chronic B-cell dyscrasias are an important clinical feature of T-LGL leukemia", "authors": [{"authorId": "6044929", "name": "A. Viny"}, {"authorId": "6655655", "name": "A. Lichtin"}, {"authorId": "6470700", "name": "B. Pohlman"}, {"authorId": "2590280", "name": "T. Loughran"}, {"authorId": "1881587", "name": "J. Maciejewski"}]}, {"paperId": "7dee504bbd1f94a93e3c5d3cb9e2d0fbd4581005", "title": "Effectiveness of Donor Natural Killer Cell Alloreactivity in Mismatched Hematopoietic Transplants", "authors": [{"authorId": "34572726", "name": "L. Ruggeri"}, {"authorId": "4012215", "name": "M. Capanni"}, {"authorId": "40551854", "name": "E. Urbani"}, {"authorId": "3290245", "name": "K. Perruccio"}, {"authorId": "5593292", "name": "W. Shlomchik"}, {"authorId": "2445090", "name": "A. Tosti"}, {"authorId": "7682337", "name": "S. Posati"}, {"authorId": "3541920", "name": "D. Rogaia"}, {"authorId": "3592846", "name": "F. Frassoni"}, {"authorId": "3662780", "name": "F. Aversa"}, {"authorId": "1737630", "name": "M. Martelli"}, {"authorId": "4673033", "name": "A. Velardi"}]}, {"paperId": "a01f036e6da16d8ad2413894abf2a238e22c062a", "title": "P-glycoprotein-mediated drug efflux is a resistance mechanism of chronic myelogenous leukemia cells to treatment with imatinib mesylate", "authors": [{"authorId": "6748453", "name": "T. Illmer"}, {"authorId": "5700798", "name": "M. Schaich"}, {"authorId": "51988216", "name": "U. Platzbecker"}, {"authorId": "1398037161", "name": "J. Freiberg-Richter"}, {"authorId": "114729596", "name": "U. Oelschl\u00e4gel"}, {"authorId": "28668477", "name": "M. Bonin"}, {"authorId": "5562293", "name": "S. Pursche"}, {"authorId": "91609824", "name": "T. Bergemann"}, {"authorId": "144144264", "name": "G. Ehninger"}, {"authorId": "6453693", "name": "E. Schleyer"}]}, {"paperId": "3904af3a841464ed8382924bf6e6ce5ed69913ad", "title": "Leukemia", "authors": [{"authorId": "143941484", "name": "C. Geary"}]}]}
