{"total": 780808, "offset": 850, "next": 900, "data": [{"paperId": "85ca081bcb812b754361afebcc89f16bdf3e780b", "title": "Regulation of mir-196b by MLL and its overexpression by MLL fusions contributes to immortalization.", "authors": [{"authorId": "48822572", "name": "R. Popovic"}, {"authorId": "6769599", "name": "Laurie E. Riesbeck"}, {"authorId": "3089086", "name": "C. S. Velu"}, {"authorId": "47160656", "name": "Aditya Chaubey"}, {"authorId": "47540448", "name": "Jiwang Zhang"}, {"authorId": "5199270", "name": "N. Achille"}, {"authorId": "7805824", "name": "F. Erfurth"}, {"authorId": "46180405", "name": "K. Eaton"}, {"authorId": "2151165754", "name": "Jun Lu"}, {"authorId": "144212860", "name": "H. Grimes"}, {"authorId": "2109269823", "name": "Jianjun Chen"}, {"authorId": "39226319", "name": "J. Rowley"}, {"authorId": "1401940318", "name": "N. Zeleznik-Le"}]}, {"paperId": "b2842edf3c950da3003125e647bbe8abeaf1c8ec", "title": "MLL\u2013AF9-mediated immortalization of human hematopoietic cells along different lineages changes during ontogeny", "authors": [{"authorId": "143672232", "name": "S. Horton"}, {"authorId": "48311204", "name": "J. Jaques"}, {"authorId": "1400022718", "name": "C. Woolthuis"}, {"authorId": "82126951", "name": "J. V. Dijk"}, {"authorId": "4073510", "name": "M. Mesuraca"}, {"authorId": "48307087", "name": "G. Huls"}, {"authorId": "88660510", "name": "G. Morrone"}, {"authorId": "6726192", "name": "E. Vellenga"}, {"authorId": "117723436", "name": "J. Schuringa"}]}, {"paperId": "19c0c1f3c54cd5de2f5b720f21b4c52b9411b01e", "title": "Biallelic and heterozygous point mutations in the runt domain of the AML1/PEBP2alphaB gene associated with myeloblastic leukemias.", "authors": [{"authorId": "13467918", "name": "Motomi Osato"}, {"authorId": "6221666", "name": "N. Asou"}, {"authorId": "119941109", "name": "E. Abdalla"}, {"authorId": "49875308", "name": "K. Hoshino"}, {"authorId": "143914632", "name": "H. Yamasaki"}, {"authorId": "50487895", "name": "T. Okubo"}, {"authorId": "4956747", "name": "H. Suzushima"}, {"authorId": "4509583", "name": "K. Takatsuki"}, {"authorId": "48392575", "name": "T. Kanno"}, {"authorId": "3603344", "name": "K. Shigesada"}, {"authorId": "2107858264", "name": "Y. Ito"}]}, {"paperId": "3bfb5bc998d4c07f1272ade01b9597f3c70484d2", "title": "The presence of typical and atypical BCR-ABL fusion genes in leukocytes of normal individuals: biologic significance and implications for the assessment of minimal residual disease.", "authors": [{"authorId": "144067601", "name": "S. Bose"}, {"authorId": "2702748", "name": "M. Deininger"}, {"authorId": "1400946891", "name": "J. G\u00f3ra\u2010Tybor"}, {"authorId": "81207706", "name": "J. Goldman"}, {"authorId": "5109312", "name": "J. Melo"}]}, {"paperId": "bba9e48d95a8e8a170a784b4ff4cc12697fb6cc5", "title": "Expression of myeloid differentiation antigens on normal and malignant myeloid cells.", "authors": [{"authorId": "46954436", "name": "J. Griffin"}, {"authorId": "144718230", "name": "J. Ritz"}, {"authorId": "5779969", "name": "L. Nadler"}, {"authorId": "5745927", "name": "S. Schlossman"}]}, {"paperId": "9bfd0488daa2a7fb2ec93fcb0fe1ad3cb5933867", "title": "Cutaneous T-cell lymphomas: the S\u00e9zary syndrome, mycosis fungoides, and related disorders.", "authors": [{"authorId": "8433424", "name": "M. Lutzner"}, {"authorId": "49490516", "name": "R. Edelson"}, {"authorId": "4227866", "name": "P. Schein"}, {"authorId": "1822681", "name": "I. Green"}, {"authorId": "2895172", "name": "C. Kirkpatrick"}, {"authorId": "2107233081", "name": "A. Ahmed"}]}, {"paperId": "719ede2c33cf624e39d76ab88b89d7e8e98d0bde", "title": "Allogeneic Bone\u2010Marrow Transplantation", "authors": [{"authorId": "144479216", "name": "R. Storb"}, {"authorId": "1920130288", "name": "E. Thomas"}]}, {"paperId": "16f0d0a7ce5352b18b73d4b327aaa2d5aaec9da2", "title": "Granulocytic sarcoma: 32 cases and review of the literature", "authors": [{"authorId": "5998887", "name": "S. Payda\u015f"}, {"authorId": "4307003", "name": "S. Zorludemir"}, {"authorId": "145580690", "name": "M. Ergin"}]}, {"paperId": "e1fa3f7aa7ab78baf6f9c5a87f2522f14dfc8240", "title": "Developmental stage\u2013selective effect of somatically mutated leukemogenic transcription factor GATA1", "authors": [{"authorId": "1424344537", "name": "Zhe Li"}, {"authorId": "37102665", "name": "Frank J. Godinho"}, {"authorId": "4243307", "name": "J. Klusmann"}, {"authorId": "1401101621", "name": "Mireia Garriga-Canut"}, {"authorId": "49778332", "name": "Channing Yu"}, {"authorId": "3635571", "name": "S. Orkin"}]}, {"paperId": "59f1cbde108aa179c4e751951637bf0ee40b0c63", "title": "The 8;21 translocation in leukemogenesis", "authors": [{"authorId": "145508567", "name": "L. Peterson"}, {"authorId": "153165200", "name": "Dong-er Zhang"}]}, {"paperId": "7803f771443e5affca10b3f70b0502b2974c4c9a", "title": "Genome-wide single nucleotide polymorphism analysis reveals frequent partial uniparental disomy due to somatic recombination in acute myeloid leukemias.", "authors": [{"authorId": "144785272", "name": "M. Raghavan"}, {"authorId": "4545310", "name": "D. Lillington"}, {"authorId": "3431027", "name": "S. Skoulakis"}, {"authorId": "4956151", "name": "S. Debernardi"}, {"authorId": "4036754", "name": "T. Chaplin"}, {"authorId": "4951865", "name": "N. Foot"}, {"authorId": "144753175", "name": "T. Lister"}, {"authorId": "33947623", "name": "B. Young"}]}, {"paperId": "b0de405ff26f1bb24bef84fa93c6075f425fc38e", "title": "Natural killer-cell malignancies: diagnosis and treatment", "authors": [{"authorId": "114645368", "name": "Y. Kwong"}]}, {"paperId": "c58b4e01d3952244ebd217d08a3c3c68c34fb114", "title": "The global burden of disease due to occupational carcinogens.", "authors": [{"authorId": "1779972", "name": "T. Driscoll"}, {"authorId": "8942413", "name": "D. I. Nelson"}, {"authorId": "5035288", "name": "K. Steenland"}, {"authorId": "145888695", "name": "J. Leigh"}, {"authorId": "1402471931", "name": "M. Concha-Barrientos"}, {"authorId": "2815169", "name": "M. Fingerhut"}, {"authorId": "1401654135", "name": "A. Pr\u00fcss-Ust\u00fcn"}]}, {"paperId": "9df2cca879483c9760fd49b96fb63e6d8ed0ca13", "title": "Deletions of the transcription factor Ikaros in myeloproliferative neoplasms", "authors": [{"authorId": "39261935", "name": "R. J\u00e4ger"}, {"authorId": "6775001", "name": "H. Gisslinger"}, {"authorId": "3872507", "name": "F. Passamonti"}, {"authorId": "5286636", "name": "E. Rumi"}, {"authorId": "31828760", "name": "T. Berg"}, {"authorId": "4495401", "name": "B. Gisslinger"}, {"authorId": "143608696", "name": "D. Pietra"}, {"authorId": "6980419", "name": "A. Harutyunyan"}, {"authorId": "6156893", "name": "T. Klampfl"}, {"authorId": "5624160", "name": "D. Olcaydu"}, {"authorId": "3528412", "name": "M. Cazzola"}, {"authorId": "6994340", "name": "R. Kralovics"}]}, {"paperId": "296ecd6fdb6a04c4fece2a83ad136d1ab44681cb", "title": "Diagnosis of Canine Lymphoid Neoplasia Using Clonal Rearrangements of Antigen Receptor Genes", "authors": [{"authorId": "34130036", "name": "R. Burnett"}, {"authorId": "6166414", "name": "W. Vernau"}, {"authorId": "3740943", "name": "J. Modiano"}, {"authorId": "4650999", "name": "C. Olver"}, {"authorId": "4375676", "name": "P. Moore"}, {"authorId": "3117018", "name": "A. Avery"}]}, {"paperId": "22e7c8b83fd2d67f56c99dc6c1b4471d1cc9f14b", "title": "Selective elimination of leukemic CD34(+) progenitor cells by cytotoxic T lymphocytes specific for WT1.", "authors": [{"authorId": "2107457251", "name": "L. Gao"}, {"authorId": "4749694", "name": "I. Bellantuono"}, {"authorId": "6605333", "name": "A. Els\u00e4sser"}, {"authorId": "121426861", "name": "S. Marley"}, {"authorId": "5344619", "name": "M. Gordon"}, {"authorId": "48968929", "name": "J. Goldman"}, {"authorId": "39077695", "name": "H. Stauss"}]}, {"paperId": "a288aaa16166b17921cc362c0caed61cc0d5780b", "title": "Cancer risks in Fanconi anemia: findings from the German Fanconi Anemia Registry", "authors": [{"authorId": "35272929", "name": "P. Rosenberg"}, {"authorId": "6290383", "name": "B. Alter"}, {"authorId": "4996386", "name": "W. Ebell"}]}, {"paperId": "3c833576d53eb7fe8cf007600529540722c165a1", "title": "A Phase I Study of the Pan Bcl-2 Family Inhibitor Obatoclax Mesylate in Patients with Advanced Hematologic Malignancies", "authors": [{"authorId": "5834069", "name": "A. Schimmer"}, {"authorId": "1409976729", "name": "S. O'Brien"}, {"authorId": "49096572", "name": "H. Kantarjian"}, {"authorId": "34214962", "name": "J. Brandwein"}, {"authorId": "6615902", "name": "B. Cheson"}, {"authorId": "3876343", "name": "M. Minden"}, {"authorId": "144267846", "name": "K. Yee"}, {"authorId": "152116406", "name": "F. Ravandi"}, {"authorId": "144892046", "name": "F. Giles"}, {"authorId": "38918456", "name": "A. Schuh"}, {"authorId": "2110651367", "name": "Vikas Gupta"}, {"authorId": "5043564", "name": "M. Andreeff"}, {"authorId": "3035606", "name": "C. Koller"}, {"authorId": "145375324", "name": "Hong Chang"}, {"authorId": "1397918099", "name": "S. Kamel\u2010Reid"}, {"authorId": "47704986", "name": "M. Berger"}, {"authorId": "144333172", "name": "J. Viallet"}, {"authorId": "3999264", "name": "G. Borthakur"}]}, {"paperId": "9de86b41977716e4ea8d861e721575a53f780f65", "title": "C-kit mutations in core binding factor leukemias.", "authors": [{"authorId": "2356796", "name": "A. Beghini"}, {"authorId": "7441812", "name": "P. Peterlongo"}, {"authorId": "36055353", "name": "C. Ripamonti"}, {"authorId": "4912459", "name": "L. Larizza"}, {"authorId": "6678765", "name": "R. Cairoli"}, {"authorId": "117775350", "name": "E. Morra"}, {"authorId": "6004982", "name": "C. Mecucci"}]}, {"paperId": "bcb2255b466cb669b11441e7773e6d4754bf110f", "title": "Expression of the hematopoietic growth factor receptor FLT3 (STK-1/Flk2) in human leukemias.", "authors": [{"authorId": "2080806489", "name": "C. E. Carow"}, {"authorId": "121798820", "name": "M. Levenstein"}, {"authorId": "144100151", "name": "S. Kaufmann"}, {"authorId": "2638010", "name": "J. Chen"}, {"authorId": "48686970", "name": "S. Amin"}, {"authorId": "38727793", "name": "P. Rockwell"}, {"authorId": "48982837", "name": "L. Witte"}, {"authorId": "4019536", "name": "M. Borowitz"}, {"authorId": "34240111", "name": "C. Civin"}, {"authorId": "144536863", "name": "D. Small"}]}, {"paperId": "fd4c33fef19e23249ce4588b62f2db602683c9ec", "title": "PTEN is a tumor suppressor in CML stem cells and BCR-ABL-induced leukemias in mice.", "authors": [{"authorId": "48406581", "name": "C. Peng"}, {"authorId": "2885685", "name": "Yaoyu Chen"}, {"authorId": "3838376", "name": "Zhong-fa Yang"}, {"authorId": "46702305", "name": "Haojian Zhang"}, {"authorId": "1398358446", "name": "Lori Osterby"}, {"authorId": "6105012", "name": "A. Rosmarin"}, {"authorId": "10036923", "name": "Shaoguang Li"}]}, {"paperId": "b651147b4b1345bc114937df8a9349afce49cea9", "title": "Expression of the Wilms' tumor gene (WT1) in human leukemias.", "authors": [{"authorId": "2149522", "name": "H. Miwa"}, {"authorId": "40169842", "name": "M. Beran"}, {"authorId": "3879009", "name": "G. Saunders"}]}, {"paperId": "090f41a29bcbc1565596719fd45f3adc0e642286", "title": "Proposals for the immunological classification of acute leukemias.", "authors": [{"authorId": "3638156", "name": "E. Paietta"}]}, {"paperId": "63b407327cb95f6d0733263ce4f0a48706c0e8d8", "title": "Activation of the T-cell oncogene LMO2 after gene therapy for X-linked severe combined immunodeficiency.", "authors": [{"authorId": "144899052", "name": "M. McCormack"}, {"authorId": "4252871", "name": "T. Rabbitts"}]}, {"paperId": "bdeadec523ddc26c5a6ea1e6a7027cebab631a9a", "title": "Immune response to green fluorescent protein: implications for gene therapy", "authors": [{"authorId": "6155432", "name": "R. Stripecke"}, {"authorId": "5387102", "name": "M. Villacres"}, {"authorId": "6633085", "name": "D. Skelton"}, {"authorId": "144818344", "name": "N. Satake"}, {"authorId": "4917684", "name": "S. Halene"}, {"authorId": "88065395", "name": "D. Kohn"}]}, {"paperId": "0ac55d90f3131125c68bb90ce75cabdd55081be1", "title": "A tumor suppressor and oncogene: the WT1 story", "authors": [{"authorId": "2140091397", "name": "L. Yang"}, {"authorId": "2107243575", "name": "Y. Han"}, {"authorId": "34840145", "name": "Fernando Jose Suarez Saiz"}, {"authorId": "3876343", "name": "M. Minden"}]}, {"paperId": "8caf59044137ec350fcb66592642b7cd36aa5975", "title": "Hsa-mir-125b-2 is highly expressed in childhood ETV6/RUNX1 (TEL/AML1) leukemias and confers survival advantage to growth inhibitory signals independent of p53", "authors": [{"authorId": "49980786", "name": "N. Gefen"}, {"authorId": "46496878", "name": "V. Binder"}, {"authorId": "49494731", "name": "M. \u017daliov\u00e1"}, {"authorId": "4306688", "name": "Y. Linka"}, {"authorId": "35028889", "name": "M. Morrow"}, {"authorId": "4368633", "name": "A. Novosel"}, {"authorId": "3774138", "name": "Liat Edry"}, {"authorId": "2784646", "name": "L. Hertzberg"}, {"authorId": "2638987", "name": "N. Shomron"}, {"authorId": "5580107", "name": "O. Williams"}, {"authorId": "6285107", "name": "J. Trka"}, {"authorId": "2091682", "name": "A. Borkhardt"}, {"authorId": "2367053", "name": "S. Izraeli"}]}, {"paperId": "fcbd2e0843db2086d58cb64c3502d3c1feae460e", "title": "The role of chromosome translocations in leukemogenesis.", "authors": [{"authorId": "39226319", "name": "J. Rowley"}]}, {"paperId": "3b144c21c97f662c2d0b38a9fcb37b368de2a51c", "title": "Granulocytic sarcoma in nonleukemic patients", "authors": [{"authorId": "39268723", "name": "J. Meis"}, {"authorId": "145188911", "name": "J. Butler"}, {"authorId": "2553460", "name": "B. Osborne"}, {"authorId": "143660293", "name": "J. Manning"}]}, {"paperId": "1f05aaf0c7cec3a54e766784dfd11d629acdfe6f", "title": "Immunophenotyping of leukemias using a cluster of differentiation antibody microarray.", "authors": [{"authorId": "5462576", "name": "L. Belov"}, {"authorId": "2102789838", "name": "O. de la Vega"}, {"authorId": "144789008", "name": "C. D. dos Remedios"}, {"authorId": "83313604", "name": "S. Mulligan"}, {"authorId": "2727391", "name": "R. Christopherson"}]}, {"paperId": "9c44e36e06f94b00c3b58e6faf93cc1857c459fa", "title": "Vascular endothelial growth factor (VEGF)-C signaling through FLT-4 (VEGFR-3) mediates leukemic cell proliferation, survival, and resistance to chemotherapy.", "authors": [{"authorId": "145051928", "name": "S. Dias"}, {"authorId": "50216582", "name": "M. Choy"}, {"authorId": "4943908", "name": "K. Alitalo"}, {"authorId": "10102747", "name": "S. Rafii"}]}, {"paperId": "227109abeed602ee6555b25601c5b28466fcfcdc", "title": "A pharmacodynamic study of sorafenib in patients with relapsed and refractory acute leukemias", "authors": [{"authorId": "6761184", "name": "K. Pratz"}, {"authorId": "35155825", "name": "E. Cho"}, {"authorId": "3754814", "name": "M. Levis"}, {"authorId": "4778516", "name": "J. Karp"}, {"authorId": "2176032", "name": "S. Gore"}, {"authorId": "4910312", "name": "M. McDevitt"}, {"authorId": "145418007", "name": "A. Stine"}, {"authorId": "145327827", "name": "Ming Zhao"}, {"authorId": "145189242", "name": "S. Baker"}, {"authorId": "5426257", "name": "M. Carducci"}, {"authorId": "144201342", "name": "J. Wright"}, {"authorId": "1751682", "name": "M. Rudek"}, {"authorId": "2111294778", "name": "B. Smith"}]}, {"paperId": "9337a3d32d671309e17297231c46c0373313f159", "title": "The incidence of secondary leukemias.", "authors": [{"authorId": "145066417", "name": "G. Leone"}, {"authorId": "4259158", "name": "L. Mele"}, {"authorId": "5844708", "name": "A. Pulsoni"}, {"authorId": "5114930", "name": "F. Equitani"}, {"authorId": "34912097", "name": "L. Pagano"}]}, {"paperId": "b33837a7bce11c109359c584222a56e2163f6808", "title": "The myelodysplastic/myeloproliferative neoplasms: myeloproliferative diseases with dysplastic features", "authors": [{"authorId": "152583719", "name": "A. Orazi"}, {"authorId": "1702518", "name": "U. Germing"}]}, {"paperId": "a40b1b6c6924112546f3a062ac76c8b8e9c4ba21", "title": "Terminal Differentiation of Human Promyelocytic Leukemic Cells in Primary Culture in Response to Retinoic Acid", "authors": [{"authorId": "7143048", "name": "T. Breitman"}, {"authorId": "50280902", "name": "S. Collins"}, {"authorId": "32838819", "name": "B. Keene"}]}, {"paperId": "382fbd4b71d03ede94e5e86c4a6045e066175ebc", "title": "DNA topoisomerase I-mediated DNA cleavage and cytotoxicity of camptothecin analogues.", "authors": [{"authorId": "8949662", "name": "Y. Hsiang"}, {"authorId": "47968100", "name": "L. Liu"}, {"authorId": "3484754", "name": "M. Wall"}, {"authorId": "3485531", "name": "M. Wani"}, {"authorId": "4119598", "name": "A. W. Nicholas"}, {"authorId": "46290518", "name": "G. Manikumar"}, {"authorId": "2099743473", "name": "S. Kirschenbaum"}, {"authorId": "3463866", "name": "R. Silber"}, {"authorId": "1878956", "name": "M. Potm\u011b\u0161il"}]}, {"paperId": "ad1d042d21f7480f78de014f396f70cef8f104ac", "title": "A unique cell surface antigen identifying lymphoid malignancies of B cell origin.", "authors": [{"authorId": "5779969", "name": "L. Nadler"}, {"authorId": "144718230", "name": "J. Ritz"}, {"authorId": "153347346", "name": "R. Hardy"}, {"authorId": "1435914265", "name": "J. Pesando"}, {"authorId": "5745927", "name": "S. Schlossman"}, {"authorId": "4513850", "name": "P. Stashenko"}]}, {"paperId": "183dabdee3225ab405194d5c4955418c3f8d7bce", "title": "Mortality from lymphohematopoietic malignancies among workers in formaldehyde industries.", "authors": [{"authorId": "5086631", "name": "M. Hauptmann"}, {"authorId": "5802530", "name": "J. Lubin"}, {"authorId": "1973012", "name": "P. Stewart"}, {"authorId": "3607948", "name": "R. Hayes"}, {"authorId": "32648541", "name": "A. Blair"}]}, {"paperId": "503f4a31ef8ac74e6f282939804cee4db448d9bf", "title": "Antitumor activity of sorafenib in FLT3-driven leukemic cells", "authors": [{"authorId": "2084431", "name": "D. Auclair"}, {"authorId": "2157920755", "name": "D. Miller"}, {"authorId": "12234143", "name": "V. Yatsula"}, {"authorId": "47421957", "name": "W. Pickett"}, {"authorId": "153793204", "name": "C. Carter"}, {"authorId": "2107423949", "name": "Y. Chang"}, {"authorId": "32492606", "name": "X. Zhang"}, {"authorId": "78239407", "name": "D. Wilkie"}, {"authorId": "150895621", "name": "A. Burd"}, {"authorId": "2107197480", "name": "H. Shi"}, {"authorId": "145388280", "name": "S. Rocks"}, {"authorId": "46905108", "name": "R. Gedrich"}, {"authorId": "23182962", "name": "L. Abriola"}, {"authorId": "6441068", "name": "H. Vasavada"}, {"authorId": "48312041", "name": "M. Lynch"}, {"authorId": "46267486", "name": "J. Dumas"}, {"authorId": "152590349", "name": "P. Trail"}, {"authorId": "49381806", "name": "S. Wilhelm"}]}, {"paperId": "6def7a5939d3efe80395cc4c4b9b3023ee242b75", "title": "Constitutive activation of JAKs and STATs in BCR-Abl-expressing cell lines and peripheral blood cells derived from leukemic patients.", "authors": [{"authorId": "37252174", "name": "S. Chai"}, {"authorId": "47993479", "name": "G. Nichols"}, {"authorId": "2710912", "name": "P. Rothman"}]}, {"paperId": "3604552019d6567af0495119c9aeabf422c4f494", "title": "Regulation by bcl-2, c-myc, and p53 of susceptibility to induction of apoptosis by heat shock and cancer chemotherapy compounds in differentiation-competent and -defective myeloid leukemic cells.", "authors": [{"authorId": "6624139", "name": "J. Lotem"}, {"authorId": "2073528", "name": "L. Sachs"}]}, {"paperId": "4827c0f8ef57eee803e2905389bfc61980d30a8c", "title": "Compensatory PI3-kinase/Akt/mTor activation regulates imatinib resistance development", "authors": [{"authorId": "6161351", "name": "A. Burchert"}, {"authorId": "88935842", "name": "Y. Wang"}, {"authorId": "8807337", "name": "D. Cai"}, {"authorId": "16649232", "name": "N. Bubnoff"}, {"authorId": "6083561", "name": "P. Paschka"}, {"authorId": "1403436141", "name": "S. M\u00fcller-Br\u00fcsselbach"}, {"authorId": "4373699", "name": "O. Ottmann"}, {"authorId": "6414928", "name": "J. Duyster"}, {"authorId": "3215981", "name": "A. Hochhaus"}, {"authorId": "48972461", "name": "A. Neubauer"}]}, {"paperId": "30cf4c821e96669cdd5e625bb02352bc729ea954", "title": "Presence of Wilms' tumor gene (wt1) transcripts and the WT1 nuclear protein in the majority of human acute leukemias.", "authors": [{"authorId": "7975178", "name": "H. Menssen"}, {"authorId": "14786135", "name": "H. Renkl"}, {"authorId": "6739133", "name": "U. Rodeck"}, {"authorId": "48246606", "name": "J. Maurer"}, {"authorId": "6231404", "name": "M. Notter"}, {"authorId": "84334420", "name": "S. Schwartz"}, {"authorId": "144403054", "name": "R. Reinhardt"}, {"authorId": "2039571", "name": "E. Thiel"}]}, {"paperId": "7499d8f6c90f477f15b9c525fe781c30d967824a", "title": "Terminal deoxynucleotidyl transferase as a hematopoietic cell marker", "authors": [{"authorId": "5782221", "name": "F. Bollum"}]}, {"paperId": "c81bae24405212f731503db7ca372ae078e1ae99", "title": "Consistent intergenic splicing and production of multiple transcripts between AML1 at 21q22 and unrelated genes at 3q26 in (3;21)(q26;q22) translocations.", "authors": [{"authorId": "47835481", "name": "G. Nucifora"}, {"authorId": "5475337", "name": "C. Begy"}, {"authorId": "2107284147", "name": "H. Kobayashi"}, {"authorId": "2439879", "name": "D. Roulston"}, {"authorId": "3706289", "name": "D. Claxton"}, {"authorId": "1401116506", "name": "J. Pedersen\u2010Bjergaard"}, {"authorId": "4115416", "name": "E. Parganas"}, {"authorId": "6016382", "name": "J. Ihle"}, {"authorId": "39226319", "name": "J. Rowley"}]}, {"paperId": "d8f7147dc8b443e300bf1d145277e1acfbeb48c5", "title": "HOX expression patterns identify a common signature for favorable AML", "authors": [{"authorId": "5043564", "name": "M. Andreeff"}, {"authorId": "40240587", "name": "V. Ruvolo"}, {"authorId": "39029725", "name": "S. Gadgil"}, {"authorId": "49387010", "name": "C. Zeng"}, {"authorId": "2246953", "name": "K. Coombes"}, {"authorId": "2615273", "name": "W. Chen"}, {"authorId": "2054920896", "name": "S. Kornblau"}, {"authorId": "1874319", "name": "A. Baron"}, {"authorId": "1708108", "name": "H. Drabkin"}]}, {"paperId": "164bfac8af0c36a1b5e60fa4593c35b0b76d3b00", "title": "Aurora kinase inhibitors: novel small molecules with promising activity in acute myeloid and Philadelphia-positive leukemias", "authors": [{"authorId": "37954664", "name": "A. Moore"}, {"authorId": "1960189", "name": "J. Blagg"}, {"authorId": "5305145", "name": "S. Linardopoulos"}, {"authorId": "28081084", "name": "A. Pearson"}]}, {"paperId": "e26b955e424d1cda91499bb9f74362d3367331e9", "title": "Interleukin-3 receptor alpha chain (CD123) is widely expressed in hematologic malignancies.", "authors": [{"authorId": "49588875", "name": "L. Mu\u00f1oz"}, {"authorId": "46795973", "name": "J. Nomded\u00e9u"}, {"authorId": "116241678", "name": "O. L\u00f3pez"}, {"authorId": "40567739", "name": "M. Carnicer"}, {"authorId": "144102643", "name": "M. Bellido"}, {"authorId": "48089986", "name": "A. Avent\u00edn"}, {"authorId": "2268523", "name": "S. Brunet"}, {"authorId": "38205352", "name": "J. Sierra"}]}, {"paperId": "0a0cc9e9b2d455bf36a6755e938e9afe95927a3c", "title": "Effect of internal viral sequences on the utility of retroviral vectors", "authors": [{"authorId": "46761018", "name": "D. Armentano"}, {"authorId": "2107710015", "name": "S. Yu"}, {"authorId": "9933602", "name": "P. Kantoff"}, {"authorId": "15268543", "name": "T. von Ruden"}, {"authorId": "144292041", "name": "W. Anderson"}, {"authorId": "1875617", "name": "E. Gilboa"}]}, {"paperId": "d863ee9e9e09c80186c2b751982a0dc24660517c", "title": "Unique forms of the abl tyrosine kinase distinguish Ph1-positive CML from Ph1-positive ALL.", "authors": [{"authorId": "120960243", "name": "S. Clark"}, {"authorId": "49910880", "name": "J. McLaughlin"}, {"authorId": "144999185", "name": "W. Crist"}, {"authorId": "48226419", "name": "R. Champlin"}, {"authorId": "6614731", "name": "O. Witte"}]}]}
